{
	"camera_data":
	{
		"location_worldframe": [ 0, 0, 0 ],
		"quaternion_xyzw_worldframe": [ 0, 0, 0, 1 ]
	},
	"objects": [
		{
			"class": "SM_RailRig_Mount",
			"instance_id": 16777212,
			"visibility": 1,
			"location": [ -522.68377685546875, 118.13410186767578, 477.54119873046875 ],
			"quaternion_xyzw": [ -0.39160001277923584, 0.77640002965927124, 0.46520000696182251, -0.16550000011920929 ],
			"pose_transform": [
				[ -0.62129998207092285, 0.59280002117156982, -0.51239997148513794, 0 ],
				[ -0.63849997520446777, -0.7620999813079834, -0.10729999840259552, 0 ],
				[ 0.45410001277923584, -0.26050001382827759, -0.85199999809265137, 0 ],
				[ -522.68377685546875, 118.13410186767578, 477.54119873046875, 1 ]
			],
			"cuboid_centroid": [ -522.68377685546875, 118.13410186767578, 477.54119873046875 ],
			"projected_cuboid_centroid": [ -24.200000762939453, 319.32931518554688 ],
			"bounding_box":
			{
				"top_left": [ 302.97970581054688, -46.004001617431641 ],
				"bottom_right": [ 335.33151245117188, -2.6010000705718994 ]
			},
			"cuboid": [
				[ -546.68048095703125, 103.91290283203125, 455.5692138671875 ],
				[ -510.260009765625, 147.37879943847656, 461.6903076171875 ],
				[ -520.72998046875, 153.38519287109375, 481.33529663085938 ],
				[ -557.1505126953125, 109.91929626464844, 475.21429443359375 ],
				[ -524.63751220703125, 82.883003234863281, 473.74700927734375 ],
				[ -488.21701049804688, 126.34889984130859, 479.86810302734375 ],
				[ -498.6868896484375, 132.35530090332031, 499.51309204101563 ],
				[ -535.10748291015625, 88.889396667480469, 493.39208984375 ]
			],
			"projected_cuboid": [
				[ -51.198600769042969, 314.39230346679688 ],
				[ -26.93120002746582, 337.71929931640625 ],
				[ -20.952199935913086, 337.5784912109375 ],
				[ -44.139400482177734, 315.2139892578125 ],
				[ -27.499900817871094, 300.78768920898438 ],
				[ -4.4539999961853027, 323.40460205078125 ],
				[ 0.42340001463890076, 323.83200073242188 ],
				[ -21.644399642944336, 302.12091064453125 ]
			]
		},
		{
			"class": "",
			"instance_id": 16047768,
			"visibility": 1,
			"location": [ 92.400901794433594, 23.514499664306641, 300.08358764648438 ],
			"quaternion_xyzw": [ 0, 0.80379998683929443, 0, 0.59490001201629639 ],
			"pose_transform": [
				[ 0.95630002021789551, 0, -0.29229998588562012, 0 ],
				[ -0.29229998588562012, 0, -0.95630002021789551, 0 ],
				[ 0, -1, 0, 0 ],
				[ 92.400901794433594, 23.514499664306641, 300.08358764648438, 1 ]
			],
			"cuboid_centroid": [ 92.490798950195313, -24.021600723266602, 300.78030395507813 ],
			"projected_cuboid_centroid": [ 334.720703125, 235.55479431152344 ],
			"bounding_box":
			{
				"top_left": [ 192.05499267578125, 311.94461059570313 ],
				"bottom_right": [ 278.12530517578125, 358.9390869140625 ]
			},
			"cuboid": [
				[ 108.85169982910156, -71.557899475097656, 270.48880004882813 ],
				[ 122.98989868164063, -71.557899475097656, 316.75100708007813 ],
				[ 122.98989868164063, 23.514699935913086, 316.75100708007813 ],
				[ 108.85169982910156, 23.514699935913086, 270.48880004882813 ],
				[ 61.99169921875, -71.557899475097656, 284.80960083007813 ],
				[ 76.129898071289063, -71.557899475097656, 331.0718994140625 ],
				[ 76.129898071289063, 23.514699935913086, 331.0718994140625 ],
				[ 61.99169921875, 23.514699935913086, 284.80960083007813 ]
			],
			"projected_cuboid": [
				[ 359.02099609375, 188.27510070800781 ],
				[ 355.40109252929688, 198.16650390625 ],
				[ 355.40109252929688, 275.00479125976563 ],
				[ 359.02099609375, 278.25518798828125 ],
				[ 311.72109985351563, 191.68049621582031 ],
				[ 314.86709594726563, 200.66810607910156 ],
				[ 314.86709594726563, 274.18270874023438 ],
				[ 311.72109985351563, 277.13619995117188 ]
			]
		}
	]
}