{
	"camera_data":
	{
		"location_worldframe": [ 0, 0, 0 ],
		"quaternion_xyzw_worldframe": [ 0, 0, 0, 1 ]
	},
	"objects": [
		{
			"class": "",
			"instance_id": 16047768,
			"visibility": 1,
			"location": [ 80.761100769042969, -71.9718017578125, 261.64859008789063 ],
			"quaternion_xyzw": [ 0, -0.53289997577667236, 0, 0.84609997272491455 ],
			"pose_transform": [
				[ -0.90189999341964722, 0, 0.43189999461174011, 0 ],
				[ 0.43189999461174011, 0, 0.90189999341964722, 0 ],
				[ 0, -1, 0, 0 ],
				[ 80.761100769042969, -71.9718017578125, 261.64859008789063, 1 ]
			],
			"cuboid_centroid": [ 80.568099975585938, -119.50789642333984, 260.97320556640625 ],
			"projected_cuboid_centroid": [ 335.03280639648438, 138.76950073242188 ],
			"bounding_box":
			{
				"top_left": [ 71.628799438476563, 305.68301391601563 ],
				"bottom_right": [ 192.61070251464844, 362.25140380859375 ]
			},
			"cuboid": [
				[ 68.919097900390625, -167.04420471191406, 293.3699951171875 ],
				[ 48.024398803710938, -167.04420471191406, 249.74110412597656 ],
				[ 48.024398803710938, -71.971603393554688, 249.74110412597656 ],
				[ 68.919097900390625, -71.971603393554688, 293.3699951171875 ],
				[ 113.11180114746094, -167.04420471191406, 272.20529174804688 ],
				[ 92.21710205078125, -167.04420471191406, 228.57640075683594 ],
				[ 92.21710205078125, -71.971603393554688, 228.57640075683594 ],
				[ 113.11180114746094, -71.971603393554688, 272.20529174804688 ]
			],
			"projected_cuboid": [
				[ 316.14010620117188, 110.23419952392578 ],
				[ 305.2279052734375, 84.769401550292969 ],
				[ 305.2279052734375, 182.22470092773438 ],
				[ 316.14010620117188, 193.19630432128906 ],
				[ 362.37789916992188, 98.900497436523438 ],
				[ 359.28091430664063, 68.914497375488281 ],
				[ 359.28091430664063, 175.39360046386719 ],
				[ 362.37789916992188, 188.31309509277344 ]
			]
		}
	]
}