{
	"camera_data":
	{
		"location_worldframe": [ 0, 0, 0 ],
		"quaternion_xyzw_worldframe": [ 0, 0, 0, 1 ]
	},
	"objects": [
		{
			"class": "SM_RailRig_Mount",
			"instance_id": 16777212,
			"visibility": 1,
			"location": [ -375.7921142578125, 281.0968017578125, 561.91259765625 ],
			"quaternion_xyzw": [ -0.36250001192092896, -0.65090000629425049, -0.42340001463890076, 0.5153999924659729 ],
			"pose_transform": [
				[ -0.36399999260902405, 0.92489999532699585, -0.11010000109672546, 0 ],
				[ -0.20579999685287476, 0.035399999469518661, 0.9779999852180481, 0 ],
				[ -0.90839999914169312, -0.37860000133514404, -0.17739999294281006, 0 ],
				[ -375.7921142578125, 281.0968017578125, 561.91259765625, 1 ]
			],
			"cuboid_centroid": [ -375.7921142578125, 281.0968017578125, 561.91259765625 ],
			"projected_cuboid_centroid": [ 84.793998718261719, 384.06399536132813 ],
			"bounding_box":
			{
				"top_left": [ 372.12969970703125, 72.410202026367188 ],
				"bottom_right": [ 398.264892578125, 97.046897888183594 ]
			},
			"cuboid": [
				[ -398.58950805664063, 294.14810180664063, 585.80401611328125 ],
				[ -386.85189819335938, 292.127685546875, 530.0244140625 ],
				[ -365.90719604492188, 300.85720825195313, 534.1156005859375 ],
				[ -377.64480590820313, 302.87750244140625, 589.89520263671875 ],
				[ -385.677001953125, 261.33648681640625, 589.7095947265625 ],
				[ -373.93939208984375, 259.31619262695313, 533.92999267578125 ],
				[ -352.99468994140625, 268.04559326171875, 538.02117919921875 ],
				[ -364.7322998046875, 270.06600952148438, 593.80072021484375 ]
			],
			"projected_cuboid": [
				[ 81.81390380859375, 384.54458618164063 ],
				[ 69.151802062988281, 397.09671020507813 ],
				[ 80.621803283691406, 400.20001220703125 ],
				[ 92.111503601074219, 387.44140625 ],
				[ 88.572998046875, 369.44931030273438 ],
				[ 76.709602355957031, 380.33270263671875 ],
				[ 88.038902282714844, 383.5408935546875 ],
				[ 98.756202697753906, 372.43121337890625 ]
			]
		},
		{
			"class": "",
			"instance_id": 16047768,
			"visibility": 1,
			"location": [ 11.88700008392334, 46.672000885009766, 294.07150268554688 ],
			"quaternion_xyzw": [ 0, 0.81319999694824219, 0, 0.5820000171661377 ],
			"pose_transform": [
				[ 0.94660001993179321, 0, -0.32260000705718994, 0 ],
				[ -0.32260000705718994, 0, -0.94660001993179321, 0 ],
				[ 0, -1, 0, 0 ],
				[ 11.88700008392334, 46.672000885009766, 294.07150268554688, 1 ]
			],
			"cuboid_centroid": [ 11.99899959564209, -0.86409997940063477, 294.7650146484375 ],
			"projected_cuboid_centroid": [ 266.42098999023438, 255.24949645996094 ],
			"bounding_box":
			{
				"top_left": [ 211.92390441894531, 240.00729370117188 ],
				"bottom_right": [ 300.87930297851563, 291.276611328125 ]
			},
			"cuboid": [
				[ 27.387599945068359, -48.400501251220703, 263.96810913085938 ],
				[ 42.990898132324219, -48.400501251220703, 309.75689697265625 ],
				[ 42.990898132324219, 46.672199249267578, 309.75689697265625 ],
				[ 27.387599945068359, 46.672199249267578, 263.96810913085938 ],
				[ -18.992900848388672, -48.400501251220703, 279.77301025390625 ],
				[ -3.3896000385284424, -48.400501251220703, 325.56179809570313 ],
				[ -3.3896000385284424, 46.672199249267578, 325.56179809570313 ],
				[ -18.992900848388672, 46.672199249267578, 279.77301025390625 ]
			],
			"projected_cuboid": [
				[ 282.5609130859375, 209.06059265136719 ],
				[ 291.52999877929688, 215.99920654296875 ],
				[ 291.52999877929688, 294.572509765625 ],
				[ 282.5609130859375, 301.2633056640625 ],
				[ 238.62100219726563, 211.71229553222656 ],
				[ 253.33470153808594, 217.94110107421875 ],
				[ 253.33470153808594, 292.69989013671875 ],
				[ 238.62100219726563, 298.706298828125 ]
			]
		}
	]
}