{
	"camera_data":
	{
		"location_worldframe": [ 0, 0, 0 ],
		"quaternion_xyzw_worldframe": [ 0, 0, 0, 1 ]
	},
	"objects": [
		{
			"class": "SM_RailRig_Mount",
			"instance_id": 16777212,
			"visibility": 1,
			"location": [ -414.9901123046875, 236.88160705566406, 550.9625244140625 ],
			"quaternion_xyzw": [ -0.35519999265670776, 0.88609999418258667, -0.28769999742507935, -0.07720000296831131 ],
			"pose_transform": [
				[ 0.06759999692440033, -0.56459999084472656, -0.82260000705718994, 0 ],
				[ -0.73570001125335693, -0.58509999513626099, 0.34119999408721924, 0 ],
				[ 0.67390000820159912, -0.58209997415542603, 0.45500001311302185, 0 ],
				[ -414.9901123046875, 236.88160705566406, 550.9625244140625, 1 ]
			],
			"cuboid_centroid": [ -414.9901123046875, 236.88160705566406, 550.9625244140625 ],
			"projected_cuboid_centroid": [ 63.178398132324219, 366.06500244140625 ],
			"bounding_box":
			{
				"top_left": [ 352.65188598632813, 48.659999847412109 ],
				"bottom_right": [ 378.73300170898438, 76.1593017578125 ]
			},
			"cuboid": [
				[ -427.00421142578125, 203.46949768066406, 551.34619140625 ],
				[ -385.0404052734375, 236.84010314941406, 531.88720703125 ],
				[ -400.57839965820313, 250.26229858398438, 521.3970947265625 ],
				[ -442.54220581054688, 216.89169311523438, 540.856201171875 ],
				[ -429.40179443359375, 223.50100708007813, 580.52801513671875 ],
				[ -387.43798828125, 256.87149047851563, 561.06890869140625 ],
				[ -402.97589111328125, 270.293701171875, 550.57891845703125 ],
				[ -444.939697265625, 236.92320251464844, 570.03802490234375 ]
			],
			"projected_cuboid": [
				[ 57.734199523925781, 350.474609375 ],
				[ 70.6781005859375, 369.99240112304688 ],
				[ 59.320598602294922, 378.87588500976563 ],
				[ 46.5343017578125, 358.66000366210938 ],
				[ 66.643302917480469, 354.55899047851563 ],
				[ 79.222900390625, 373.20330810546875 ],
				[ 68.630203247070313, 381.67718505859375 ],
				[ 56.180698394775391, 362.4005126953125 ]
			]
		},
		{
			"class": "",
			"instance_id": 16047768,
			"visibility": 1,
			"location": [ 11.88700008392334, 46.672000885009766, 294.07150268554688 ],
			"quaternion_xyzw": [ 0, 0.81319999694824219, 0, 0.5820000171661377 ],
			"pose_transform": [
				[ 0.94660001993179321, 0, -0.32260000705718994, 0 ],
				[ -0.32260000705718994, 0, -0.94660001993179321, 0 ],
				[ 0, -1, 0, 0 ],
				[ 11.88700008392334, 46.672000885009766, 294.07150268554688, 1 ]
			],
			"cuboid_centroid": [ 11.99899959564209, -0.86409997940063477, 294.7650146484375 ],
			"projected_cuboid_centroid": [ 266.42098999023438, 255.24949645996094 ],
			"bounding_box":
			{
				"top_left": [ 211.92390441894531, 240.00729370117188 ],
				"bottom_right": [ 300.87930297851563, 291.276611328125 ]
			},
			"cuboid": [
				[ 27.387599945068359, -48.400501251220703, 263.96810913085938 ],
				[ 42.990898132324219, -48.400501251220703, 309.75689697265625 ],
				[ 42.990898132324219, 46.672199249267578, 309.75689697265625 ],
				[ 27.387599945068359, 46.672199249267578, 263.96810913085938 ],
				[ -18.992900848388672, -48.400501251220703, 279.77301025390625 ],
				[ -3.3896000385284424, -48.400501251220703, 325.56179809570313 ],
				[ -3.3896000385284424, 46.672199249267578, 325.56179809570313 ],
				[ -18.992900848388672, 46.672199249267578, 279.77301025390625 ]
			],
			"projected_cuboid": [
				[ 282.5609130859375, 209.06059265136719 ],
				[ 291.52999877929688, 215.99920654296875 ],
				[ 291.52999877929688, 294.572509765625 ],
				[ 282.5609130859375, 301.2633056640625 ],
				[ 238.62100219726563, 211.71229553222656 ],
				[ 253.33470153808594, 217.94110107421875 ],
				[ 253.33470153808594, 292.69989013671875 ],
				[ 238.62100219726563, 298.706298828125 ]
			]
		}
	]
}