{
	"camera_data":
	{
		"location_worldframe": [ 0, 0, 0 ],
		"quaternion_xyzw_worldframe": [ 0, 0, 0, 1 ]
	},
	"objects": [
		{
			"class": "",
			"instance_id": 16047768,
			"visibility": 1,
			"location": [ -68.364501953125, -52.177501678466797, 193.7633056640625 ],
			"quaternion_xyzw": [ 0, 0.89639997482299805, 0, -0.44330000877380371 ],
			"pose_transform": [
				[ -0.794700026512146, 0, -0.60699999332427979, 0 ],
				[ -0.60699999332427979, 0, 0.794700026512146, 0 ],
				[ 0, -1, 0, 0 ],
				[ -68.364501953125, -52.177501678466797, 193.7633056640625, 1 ]
			],
			"cuboid_centroid": [ -67.850601196289063, -99.713600158691406, 193.2843017578125 ],
			"projected_cuboid_centroid": [ 166.13360595703125, 123.93199920654297 ],
			"bounding_box":
			{
				"top_left": [ 56.501300811767578, 124.2698974609375 ],
				"bottom_right": [ 196.67300415039063, 207.76870727539063 ]
			},
			"cuboid": [
				[ -102.00229644775391, -147.24989318847656, 197.63400268554688 ],
				[ -72.638397216796875, -147.24989318847656, 159.19129943847656 ],
				[ -72.638397216796875, -52.177299499511719, 159.19129943847656 ],
				[ -102.00229644775391, -52.177299499511719, 197.63400268554688 ],
				[ -63.062900543212891, -147.24989318847656, 227.37730407714844 ],
				[ -33.699001312255859, -147.24989318847656, 188.93460083007813 ],
				[ -33.699001312255859, -52.177299499511719, 188.93460083007813 ],
				[ -63.062900543212891, -52.177299499511719, 227.37730407714844 ]
			],
			"projected_cuboid": [
				[ 123.87400054931641, 65.263702392578125 ],
				[ 139.18820190429688, 19.203300476074219 ],
				[ 139.18820190429688, 172.09230041503906 ],
				[ 123.87400054931641, 188.41349792480469 ],
				[ 184.99859619140625, 90.213996887207031 ],
				[ 210.33900451660156, 56.481399536132813 ],
				[ 210.33900451660156, 185.30160522460938 ],
				[ 184.99859619140625, 197.25459289550781 ]
			]
		}
	]
}