{
	"camera_data":
	{
		"location_worldframe": [ 0, 0, 0 ],
		"quaternion_xyzw_worldframe": [ 0, 0, 0, 1 ]
	},
	"objects": [
		{
			"class": "SM_RailRig_Mount",
			"instance_id": 16777212,
			"visibility": 1,
			"location": [ -472.0963134765625, 235.39230346679688, 504.87350463867188 ],
			"quaternion_xyzw": [ -0.087600000202655792, 0.70499998331069946, 0.69590002298355103, 0.1046999990940094 ],
			"pose_transform": [
				[ 0.025699999183416367, 0.99959999322891235, -0.0094999996945261955, 0 ],
				[ -0.9627000093460083, 0.022199999541044235, -0.26949998736381531, 0 ],
				[ 0.26919999718666077, -0.016000000759959221, -0.96299999952316284, 0 ],
				[ -472.0963134765625, 235.39230346679688, 504.87350463867188, 1 ]
			],
			"cuboid_centroid": [ -472.0963134765625, 235.39230346679688, 504.87350463867188 ],
			"projected_cuboid_centroid": [ 16.619899749755859, 375.35751342773438 ],
			"bounding_box":
			{
				"top_left": [ 362.81149291992188, -3.9514999389648438 ],
				"bottom_right": [ 385.70181274414063, 33.105400085449219 ]
			},
			"cuboid": [
				[ -495.993408203125, 253.5718994140625, 485.91860961914063 ],
				[ -441.08139038085938, 252.30650329589844, 501.29010009765625 ],
				[ -447.2880859375, 252.67599487304688, 523.492919921875 ],
				[ -502.20001220703125, 253.94140625, 508.12139892578125 ],
				[ -496.90451049804688, 218.10859680175781, 486.25421142578125 ],
				[ -441.99249267578125, 216.84320068359375, 501.62570190429688 ],
				[ -448.19918823242188, 217.21279907226563, 523.8284912109375 ],
				[ -503.1112060546875, 218.47819519042969, 508.45700073242188 ]
			],
			"projected_cuboid": [
				[ -5.3077998161315918, 389.59109497070313 ],
				[ 30.747499465942383, 384.8485107421875 ],
				[ 37.265899658203125, 379.56439208984375 ],
				[ 2.9832000732421875, 383.93991088867188 ],
				[ -5.6071000099182129, 370.82839965820313 ],
				[ 30.433200836181641, 366.66390991210938 ],
				[ 36.960700988769531, 362.15399169921875 ],
				[ 2.6914999485015869, 366.00030517578125 ]
			]
		},
		{
			"class": "",
			"instance_id": 16047768,
			"visibility": 1,
			"location": [ 95.788398742675781, 14.865599632263184, 218.92269897460938 ],
			"quaternion_xyzw": [ 0, 0.68940001726150513, 0, 0.72439998388290405 ],
			"pose_transform": [
				[ 0.99879997968673706, 0, 0.049499999731779099, 0 ],
				[ 0.049499999731779099, 0, -0.99879997968673706, 0 ],
				[ 0, -1, 0, 0 ],
				[ 95.788398742675781, 14.865599632263184, 218.92269897460938, 1 ]
			],
			"cuboid_centroid": [ 95.636703491210938, -32.670501708984375, 219.60859680175781 ],
			"projected_cuboid_centroid": [ 367.48471069335938, 217.91560363769531 ],
			"bounding_box":
			{
				"top_left": [ 151.94129943847656, 331.3201904296875 ],
				"bottom_right": [ 275.52938842773438, 412.22579956054688 ]
			},
			"cuboid": [
				[ 121.30359649658203, -80.206802368164063, 196.66380310058594 ],
				[ 118.90910339355469, -80.206802368164063, 244.97880554199219 ],
				[ 118.90910339355469, 14.865799903869629, 244.97880554199219 ],
				[ 121.30359649658203, 14.865799903869629, 196.66380310058594 ],
				[ 72.364303588867188, -80.206802368164063, 194.23829650878906 ],
				[ 69.969703674316406, -80.206802368164063, 242.55340576171875 ],
				[ 69.969703674316406, 14.865799903869629, 242.55340576171875 ],
				[ 72.364303588867188, 14.865799903869629, 194.23829650878906 ]
			],
			"projected_cuboid": [
				[ 413.902587890625, 151.59359741210938 ],
				[ 380.25860595703125, 172.18479919433594 ],
				[ 380.25860595703125, 271.53460693359375 ],
				[ 413.902587890625, 275.35101318359375 ],
				[ 351.37380981445313, 150.28990173339844 ],
				[ 329.84869384765625, 171.34669494628906 ],
				[ 329.84869384765625, 271.68991088867188 ],
				[ 351.37380981445313, 275.59271240234375 ]
			]
		}
	]
}