{
	"camera_data":
	{
		"location_worldframe": [ 0, 0, 0 ],
		"quaternion_xyzw_worldframe": [ 0, 0, 0, 1 ]
	},
	"objects": [
		{
			"class": "SM_RailRig_Mount",
			"instance_id": 16777212,
			"visibility": 1,
			"location": [ -535.78228759765625, 184.85369873046875, 565.3001708984375 ],
			"quaternion_xyzw": [ 0.13269999623298645, 0.064999997615814209, -0.28270000219345093, 0.94779998064041138 ],
			"pose_transform": [
				[ 0.048200000077486038, -0.28839999437332153, 0.95630002021789551, 0 ],
				[ 0.83170002698898315, -0.5185999870300293, -0.19830000400543213, 0 ],
				[ -0.55309998989105225, -0.80500000715255737, -0.21490000188350677, 0 ],
				[ -535.78228759765625, 184.85369873046875, 565.3001708984375, 1 ]
			],
			"cuboid_centroid": [ -535.78228759765625, 184.85369873046875, 565.3001708984375 ],
			"projected_cuboid_centroid": [ 13.367300033569336, 339.71218872070313 ],
			"bounding_box":
			{
				"top_left": [ 328.21340942382813, -3.1522998809814453 ],
				"bottom_right": [ 352.64788818359375, 30.145200729370117 ]
			},
			"cuboid": [
				[ -517.58380126953125, 155.67039489746094, 574.132080078125 ],
				[ -565.0238037109375, 185.24699401855469, 585.44061279296875 ],
				[ -552.271728515625, 203.80670166015625, 590.39471435546875 ],
				[ -504.83169555664063, 174.2301025390625, 579.086181640625 ],
				[ -519.29290771484375, 165.90060424804688, 540.2056884765625 ],
				[ -566.73291015625, 195.47720336914063, 551.51409912109375 ],
				[ -553.98089599609375, 214.03700256347656, 556.46820068359375 ],
				[ -506.5408935546875, 184.46040344238281, 545.1597900390625 ]
			],
			"projected_cuboid": [
				[ 25.214300155639648, 325.41189575195313 ],
				[ 8.927800178527832, 337.00430297851563 ],
				[ 16.530399322509766, 344.372314453125 ],
				[ 32.826099395751953, 333.02288818359375 ],
				[ 9.910400390625, 334.61920166015625 ],
				[ -7.0641999244689941, 346.73599243164063 ],
				[ 1.1442999839782715, 354.46649169921875 ],
				[ 18.134899139404297, 342.62020874023438 ]
			]
		},
		{
			"class": "",
			"instance_id": 16047768,
			"visibility": 1,
			"location": [ 95.635902404785156, -8.108799934387207, 270.60281372070313 ],
			"quaternion_xyzw": [ 0, -0.21130000054836273, 0, 0.97740000486373901 ],
			"pose_transform": [
				[ -0.41299998760223389, 0, 0.91070002317428589, 0 ],
				[ 0.91070002317428589, 0, 0.41299998760223389, 0 ],
				[ 0, -1, 0, 0 ],
				[ 95.635902404785156, -8.108799934387207, 270.60281372070313, 1 ]
			],
			"cuboid_centroid": [ 95.053703308105469, -55.644901275634766, 270.2095947265625 ],
			"projected_cuboid_centroid": [ 346.05511474609375, 203.28129577636719 ],
			"bounding_box":
			{
				"top_left": [ 145.64480590820313, 314.11138916015625 ],
				"bottom_right": [ 249.13619995117188, 379.37869262695313 ]
			},
			"cuboid": [
				[ 106.96199798583984, -103.18119812011719, 302.51199340820313 ],
				[ 62.90679931640625, -103.18119812011719, 282.531494140625 ],
				[ 62.90679931640625, -8.1084995269775391, 282.531494140625 ],
				[ 106.96199798583984, -8.1084995269775391, 302.51199340820313 ],
				[ 127.20059967041016, -103.18119812011719, 257.88760375976563 ],
				[ 83.145500183105469, -103.18119812011719, 237.9071044921875 ],
				[ 83.145500183105469, -8.1084995269775391, 237.9071044921875 ],
				[ 127.20059967041016, -8.1084995269775391, 257.88760375976563 ]
			],
			"projected_cuboid": [
				[ 346.51629638671875, 168.68319702148438 ],
				[ 312.99951171875, 162.50819396972656 ],
				[ 312.99951171875, 248.65289306640625 ],
				[ 346.51629638671875, 249.13819885253906 ],
				[ 382.26959228515625, 153.5740966796875 ],
				[ 345.46868896484375, 144.97189331054688 ],
				[ 345.46868896484375, 247.27479553222656 ],
				[ 382.26959228515625, 247.9508056640625 ]
			]
		}
	]
}