{
	"camera_data":
	{
		"location_worldframe": [ 0, 0, 0 ],
		"quaternion_xyzw_worldframe": [ 0, 0, 0, 1 ]
	},
	"objects": [
		{
			"class": "SM_RailRig_Mount",
			"instance_id": 16777212,
			"visibility": 0.039999999105930328,
			"location": [ -407.82431030273438, 147.285400390625, 559.684814453125 ],
			"quaternion_xyzw": [ 0.25029999017715454, 0.68019998073577881, 0.65719997882843018, -0.20690000057220459 ],
			"pose_transform": [
				[ 0.047600001096725464, 0.9976000189781189, -0.050700001418590546, 0 ],
				[ -0.78909999132156372, 0.068599998950958252, 0.61040002107620239, 0 ],
				[ -0.61239999532699585, -0.010999999940395355, -0.7904999852180481, 0 ],
				[ -407.82431030273438, 147.285400390625, 559.684814453125, 1 ]
			],
			"cuboid_centroid": [ -407.82431030273438, 147.285400390625, 559.684814453125 ],
			"projected_cuboid_centroid": [ 69.46099853515625, 323.368408203125 ],
			"bounding_box":
			{
				"top_left": [ 313.7239990234375, 60.946701049804688 ],
				"bottom_right": [ 332.00949096679688, 78.908203125 ]
			},
			"cuboid": [
				[ -436.54501342773438, 166.81170654296875, 567.080810546875 ],
				[ -391.53659057617188, 162.89720153808594, 532.26507568359375 ],
				[ -377.41629028320313, 163.14990234375, 550.49090576171875 ],
				[ -422.4248046875, 167.06440734863281, 585.3065185546875 ],
				[ -438.2322998046875, 131.4208984375, 568.87860107421875 ],
				[ -393.22390747070313, 127.50640106201172, 534.06298828125 ],
				[ -379.10360717773438, 127.75910186767578, 552.288818359375 ],
				[ -424.11209106445313, 131.67359924316406, 587.1043701171875 ]
			],
			"projected_cuboid": [
				[ 58.928398132324219, 331.30459594726563 ],
				[ 67.685302734375, 334.34759521484375 ],
				[ 80.486503601074219, 331.87109375 ],
				[ 71.240798950195313, 329.0701904296875 ],
				[ 58.791900634765625, 315.1405029296875 ],
				[ 67.510398864746094, 317.1195068359375 ],
				[ 80.275703430175781, 315.2196044921875 ],
				[ 71.070899963378906, 313.41470336914063 ]
			]
		},
		{
			"class": "",
			"instance_id": 16047768,
			"visibility": 1,
			"location": [ -78.154899597167969, 99.523902893066406, 135.18600463867188 ],
			"quaternion_xyzw": [ 0, 0.28229999542236328, 0, 0.95929998159408569 ],
			"pose_transform": [
				[ 0.54170000553131104, 0, 0.84060001373291016, 0 ],
				[ 0.84060001373291016, 0, -0.54170000553131104, 0 ],
				[ 0, -1, 0, 0 ],
				[ -78.154899597167969, 99.523902893066406, 135.18600463867188, 1 ]
			],
			"cuboid_centroid": [ -78.800697326660156, 51.987800598144531, 135.46229553222656 ],
			"projected_cuboid_centroid": [ 107.08049774169922, 354.24789428710938 ],
			"bounding_box":
			{
				"top_left": [ 264.62530517578125, 34.115398406982422 ],
				"bottom_right": [ 500.24359130859375, 172.70530700683594 ]
			},
			"cuboid": [
				[ -45.198001861572266, 4.4514999389648438, 142.95309448242188 ],
				[ -85.8594970703125, 4.4514999389648438, 169.15840148925781 ],
				[ -85.8594970703125, 99.524200439453125, 169.15840148925781 ],
				[ -45.198001861572266, 99.524200439453125, 142.95309448242188 ],
				[ -71.741897583007813, 4.4514999389648438, 101.76619720458984 ],
				[ -112.40339660644531, 4.4514999389648438, 127.97149658203125 ],
				[ -112.40339660644531, 99.524200439453125, 127.97149658203125 ],
				[ -71.741897583007813, 99.524200439453125, 101.76619720458984 ]
			],
			"projected_cuboid": [
				[ 175.05949401855469, 263.9718017578125 ],
				[ 126.06240081787109, 262.73678588867188 ],
				[ 126.06240081787109, 406.6173095703125 ],
				[ 175.05949401855469, 434.22760009765625 ],
				[ 75.5281982421875, 267.19808959960938 ],
				[ 31.142999649047852, 264.90499877929688 ],
				[ 31.142999649047852, 455.09271240234375 ],
				[ 75.5281982421875, 506.3599853515625 ]
			]
		}
	]
}