{
	"camera_data":
	{
		"location_worldframe": [ 0, 0, 0 ],
		"quaternion_xyzw_worldframe": [ 0, 0, 0, 1 ]
	},
	"objects": [
		{
			"class": "",
			"instance_id": 16047768,
			"visibility": 1,
			"location": [ 95.788398742675781, 14.865599632263184, 218.92269897460938 ],
			"quaternion_xyzw": [ 0, 0.68940001726150513, 0, 0.72439998388290405 ],
			"pose_transform": [
				[ 0.99879997968673706, 0, 0.049499999731779099, 0 ],
				[ 0.049499999731779099, 0, -0.99879997968673706, 0 ],
				[ 0, -1, 0, 0 ],
				[ 95.788398742675781, 14.865599632263184, 218.92269897460938, 1 ]
			],
			"cuboid_centroid": [ 95.636703491210938, -32.670501708984375, 219.60859680175781 ],
			"projected_cuboid_centroid": [ 367.48471069335938, 217.91560363769531 ],
			"bounding_box":
			{
				"top_left": [ 151.94129943847656, 331.3201904296875 ],
				"bottom_right": [ 275.52938842773438, 412.22579956054688 ]
			},
			"cuboid": [
				[ 121.30359649658203, -80.206802368164063, 196.66380310058594 ],
				[ 118.90910339355469, -80.206802368164063, 244.97880554199219 ],
				[ 118.90910339355469, 14.865799903869629, 244.97880554199219 ],
				[ 121.30359649658203, 14.865799903869629, 196.66380310058594 ],
				[ 72.364303588867188, -80.206802368164063, 194.23829650878906 ],
				[ 69.969703674316406, -80.206802368164063, 242.55340576171875 ],
				[ 69.969703674316406, 14.865799903869629, 242.55340576171875 ],
				[ 72.364303588867188, 14.865799903869629, 194.23829650878906 ]
			],
			"projected_cuboid": [
				[ 413.902587890625, 151.59359741210938 ],
				[ 380.25860595703125, 172.18479919433594 ],
				[ 380.25860595703125, 271.53460693359375 ],
				[ 413.902587890625, 275.35101318359375 ],
				[ 351.37380981445313, 150.28990173339844 ],
				[ 329.84869384765625, 171.34669494628906 ],
				[ 329.84869384765625, 271.68991088867188 ],
				[ 351.37380981445313, 275.59271240234375 ]
			]
		}
	]
}