{
	"camera_data":
	{
		"location_worldframe": [ 0, 0, 0 ],
		"quaternion_xyzw_worldframe": [ 0, 0, 0, 1 ]
	},
	"objects": [
		{
			"class": "SM_RailRig_Mount",
			"instance_id": 16777212,
			"visibility": 1,
			"location": [ -454.10260009765625, 281.90859985351563, 403.08209228515625 ],
			"quaternion_xyzw": [ -0.23070000112056732, -0.46959999203681946, -0.38730001449584961, 0.75910001993179321 ],
			"pose_transform": [
				[ -0.53430002927780151, 0.71399998664855957, 0.45249998569488525, 0 ],
				[ 0.258899986743927, -0.37139999866485596, 0.89170002937316895, 0 ],
				[ -0.80470001697540283, -0.59350001811981201, -0.01360000018030405, 0 ],
				[ -454.10260009765625, 281.90859985351563, 403.08209228515625, 1 ]
			],
			"cuboid_centroid": [ -454.10260009765625, 281.90859985351563, 403.08209228515625 ],
			"projected_cuboid_centroid": [ -32.403499603271484, 435.0419921875 ],
			"bounding_box":
			{
				"top_left": [ 412.32308959960938, -61.067699432373047 ],
				"bottom_right": [ 457.48410034179688, -10.587100028991699 ]
			},
			"cuboid": [
				[ -465.474609375, 277.13970947265625, 436.380615234375 ],
				[ -480.23858642578125, 298.32339477539063, 385.52310180664063 ],
				[ -461.68450927734375, 312.00799560546875, 385.8367919921875 ],
				[ -446.92041015625, 290.82431030273438, 436.69430541992188 ],
				[ -446.52069091796875, 251.80929565429688, 420.327392578125 ],
				[ -461.28469848632813, 272.99301147460938, 369.46990966796875 ],
				[ -442.7305908203125, 286.6776123046875, 369.78359985351563 ],
				[ -427.96649169921875, 265.493896484375, 420.64111328125 ]
			],
			"projected_cuboid": [
				[ -17.067800521850586, 418.58230590820313 ],
				[ -62.894199371337891, 454.09658813476563 ],
				[ -50.32440185546875, 463.01510620117188 ],
				[ -5.9948000907897949, 426.48779296875 ],
				[ -15.953000068664551, 409.36428833007813 ],
				[ -63.617198944091797, 445.1527099609375 ],
				[ -50.500999450683594, 454.46600341796875 ],
				[ -4.4583001136779785, 417.57830810546875 ]
			]
		},
		{
			"class": "",
			"instance_id": 16047768,
			"visibility": 1,
			"location": [ -13.303000450134277, 60.441898345947266, 310.06930541992188 ],
			"quaternion_xyzw": [ 0, 0.40029999613761902, 0, 0.91640001535415649 ],
			"pose_transform": [
				[ 0.73360002040863037, 0, 0.67949998378753662, 0 ],
				[ 0.67949998378753662, 0, -0.73360002040863037, 0 ],
				[ 0, -1, 0, 0 ],
				[ -13.303000450134277, 60.441898345947266, 310.06930541992188, 1 ]
			],
			"cuboid_centroid": [ -13.85990047454834, 12.905799865722656, 310.49740600585938 ],
			"projected_cuboid_centroid": [ 244.57269287109375, 266.64059448242188 ],
			"bounding_box":
			{
				"top_left": [ 224.14140319824219, 218.31500244140625 ],
				"bottom_right": [ 311.59210205078125, 271.86068725585938 ]
			},
			"cuboid": [
				[ 20.550100326538086, -34.630500793457031, 309.40078735351563 ],
				[ -12.321599960327148, -34.630500793457031, 344.89059448242188 ],
				[ -12.321599960327148, 60.442100524902344, 344.89059448242188 ],
				[ 20.550100326538086, 60.442100524902344, 309.40078735351563 ],
				[ -15.398200035095215, -34.630500793457031, 276.10430908203125 ],
				[ -48.270000457763672, -34.630500793457031, 311.59408569335938 ],
				[ -48.270000457763672, 60.442100524902344, 311.59408569335938 ],
				[ -15.398200035095215, 60.442100524902344, 276.10430908203125 ]
			],
			"projected_cuboid": [
				[ 273.0032958984375, 227.34649658203125 ],
				[ 246.85409545898438, 230.29499816894531 ],
				[ 246.85409545898438, 300.86410522460938 ],
				[ 273.0032958984375, 306.01019287109375 ],
				[ 241.72300720214844, 223.89109802246094 ],
				[ 216.34230041503906, 227.54820251464844 ],
				[ 216.34230041503906, 305.658203125 ],
				[ 241.72300720214844, 312.04110717773438 ]
			]
		}
	]
}