{
	"camera_data":
	{
		"location_worldframe": [ 0, 0, 0 ],
		"quaternion_xyzw_worldframe": [ 0, 0, 0, 1 ]
	},
	"objects": [
		{
			"class": "SM_RailRig_Mount",
			"instance_id": 16777212,
			"visibility": 1,
			"location": [ -354.36810302734375, 248.19790649414063, 558.6348876953125 ],
			"quaternion_xyzw": [ -0.94739997386932373, 0.28940001130104065, 0.13580000400543213, 0.01679999940097332 ],
			"pose_transform": [
				[ -0.24750000238418579, 0.1103999987244606, -0.9625999927520752, 0 ],
				[ 0.79559999704360962, -0.5437999963760376, -0.2669999897480011, 0 ],
				[ 0.55299997329711914, 0.83190000057220459, -0.046799998730421066, 0 ],
				[ -354.36810302734375, 248.19790649414063, 558.6348876953125, 1 ]
			],
			"cuboid_centroid": [ -354.36810302734375, 248.19790649414063, 558.6348876953125 ],
			"projected_cuboid_centroid": [ 93.6072998046875, 369.73910522460938 ],
			"bounding_box":
			{
				"top_left": [ 357.4508056640625, 77.771797180175781 ],
				"bottom_right": [ 381.26519775390625, 108.36849975585938 ]
			},
			"cuboid": [
				[ -329.69439697265625, 244.23739624023438, 533.40838623046875 ],
				[ -375.07269287109375, 275.25650024414063, 548.63458251953125 ],
				[ -387.8223876953125, 256.07550048828125, 549.71270751953125 ],
				[ -342.444091796875, 225.05650329589844, 534.48651123046875 ],
				[ -320.91378784179688, 240.32020568847656, 567.55718994140625 ],
				[ -366.2921142578125, 271.33929443359375, 582.78338623046875 ],
				[ -379.04180908203125, 252.15840148925781, 583.86151123046875 ],
				[ -333.66339111328125, 221.13929748535156, 568.63519287109375 ]
			],
			"projected_cuboid": [
				[ 97.768898010253906, 373.21749877929688 ],
				[ 80.986198425292969, 384.43820190429688 ],
				[ 75.391998291015625, 375.25381469726563 ],
				[ 91.981498718261719, 363.79409790039063 ],
				[ 111.24990081787109, 364.39788818359375 ],
				[ 95.098396301269531, 375.19149780273438 ],
				[ 89.8052978515625, 366.5614013671875 ],
				[ 105.78450012207031, 355.55709838867188 ]
			]
		},
		{
			"class": "",
			"instance_id": 16047768,
			"visibility": 1,
			"location": [ 33.689399719238281, 45.115501403808594, 257.5653076171875 ],
			"quaternion_xyzw": [ 0, -0.56749999523162842, 0, 0.82340002059936523 ],
			"pose_transform": [
				[ -0.93449997901916504, 0, 0.35580000281333923, 0 ],
				[ 0.35580000281333923, 0, 0.93449997901916504, 0 ],
				[ 0, -1, 0, 0 ],
				[ 33.689399719238281, 45.115501403808594, 257.5653076171875, 1 ]
			],
			"cuboid_centroid": [ 33.552898406982422, -2.4205999374389648, 256.87619018554688 ],
			"projected_cuboid_centroid": [ 289.43850708007813, 253.58770751953125 ],
			"bounding_box":
			{
				"top_left": [ 200.07080078125, 258.8297119140625 ],
				"bottom_right": [ 306.73760986328125, 317.07598876953125 ]
			},
			"cuboid": [
				[ 19.263299942016602, -49.956901550292969, 288.19808959960938 ],
				[ 2.0501000881195068, -49.956901550292969, 242.98980712890625 ],
				[ 2.0501000881195068, 45.115699768066406, 242.98980712890625 ],
				[ 19.263299942016602, 45.115699768066406, 288.19808959960938 ],
				[ 65.055702209472656, -49.956901550292969, 270.76251220703125 ],
				[ 47.842498779296875, -49.956901550292969, 225.55430603027344 ],
				[ 47.842498779296875, 45.115699768066406, 225.55430603027344 ],
				[ 65.055702209472656, 45.115699768066406, 270.76251220703125 ]
			],
			"projected_cuboid": [
				[ 273.1112060546875, 211.62440490722656 ],
				[ 258.159912109375, 203.36830139160156 ],
				[ 258.159912109375, 303.53140258789063 ],
				[ 273.1112060546875, 296.07528686523438 ],
				[ 317.50869750976563, 208.76690673828125 ],
				[ 310.3004150390625, 199.2998046875 ],
				[ 310.3004150390625, 307.20559692382813 ],
				[ 317.50869750976563, 298.656005859375 ]
			]
		}
	]
}