{
	"camera_data":
	{
		"location_worldframe": [ 0, 0, 0 ],
		"quaternion_xyzw_worldframe": [ 0, 0, 0, 1 ]
	},
	"objects": [
		{
			"class": "SM_RailRig_Mount",
			"instance_id": 16777212,
			"visibility": 1,
			"location": [ -401.24459838867188, 155.83059692382813, 533.45111083984375 ],
			"quaternion_xyzw": [ -0.81230002641677856, -0.092699997127056122, 0.52960002422332764, 0.22589999437332153 ],
			"pose_transform": [
				[ -0.90230000019073486, 0.26879999041557312, -0.33689999580383301, 0 ],
				[ 0.42179998755455017, 0.38980001211166382, -0.81859999895095825, 0 ],
				[ 0.088699996471405029, 0.88080000877380371, 0.46520000696182251, 0 ],
				[ -401.24459838867188, 155.83059692382813, 533.45111083984375, 1 ]
			],
			"cuboid_centroid": [ -401.24459838867188, 155.83059692382813, 533.45111083984375 ],
			"projected_cuboid_centroid": [ 63.445098876953125, 330.78219604492188 ],
			"bounding_box":
			{
				"top_left": [ 317.9473876953125, 48.715999603271484 ],
				"bottom_right": [ 344.72650146484375, 74.161796569824219 ]
			},
			"cuboid": [
				[ -404.19760131835938, 181.87060546875, 509.49169921875 ],
				[ -428.25711059570313, 159.63609313964844, 556.1820068359375 ],
				[ -430.30288696289063, 139.32820129394531, 545.4569091796875 ],
				[ -406.243408203125, 161.56269836425781, 498.76669311523438 ],
				[ -372.18618774414063, 172.33290100097656, 521.4453125 ],
				[ -396.24569702148438, 150.09840393066406, 568.135498046875 ],
				[ -398.29150390625, 129.79049682617188, 557.410400390625 ],
				[ -374.23199462890625, 152.02499389648438, 510.72021484375 ]
			],
			"projected_cuboid": [
				[ 52.906200408935547, 347.38299560546875 ],
				[ 58.881401062011719, 329.47750854492188 ],
				[ 54.045398712158203, 321.39111328125 ],
				[ 47.488998413085938, 338.92471313476563 ],
				[ 73.277702331542969, 340.605712890625 ],
				[ 77.4530029296875, 323.6339111328125 ],
				[ 73.0780029296875, 315.60848999023438 ],
				[ 68.41510009765625, 332.2030029296875 ]
			]
		},
		{
			"class": "",
			"instance_id": 16047768,
			"visibility": 1,
			"location": [ 37.290599822998047, -66.332000732421875, 217.35400390625 ],
			"quaternion_xyzw": [ 0, -0.59140002727508545, 0, 0.80640000104904175 ],
			"pose_transform": [
				[ -0.9538000226020813, 0, 0.30059999227523804, 0 ],
				[ 0.30059999227523804, 0, 0.9538000226020813, 0 ],
				[ 0, -1, 0, 0 ],
				[ 37.290599822998047, -66.332000732421875, 217.35400390625, 1 ]
			],
			"cuboid_centroid": [ 37.194599151611328, -113.86810302734375, 216.658203125 ],
			"projected_cuboid_centroid": [ 299.9486083984375, 121.4552001953125 ],
			"bounding_box":
			{
				"top_left": [ 38.189800262451172, 264.94970703125 ],
				"bottom_right": [ 186.60270690917969, 330.74429321289063 ]
			},
			"cuboid": [
				[ 21.098600387573242, -161.40440368652344, 247.09129333496094 ],
				[ 6.5574002265930176, -161.40440368652344, 200.95419311523438 ],
				[ 6.5574002265930176, -66.331703186035156, 200.95419311523438 ],
				[ 21.098600387573242, -66.331703186035156, 247.09129333496094 ],
				[ 67.831802368164063, -161.40440368652344, 232.36210632324219 ],
				[ 53.290599822998047, -161.40440368652344, 186.22500610351563 ],
				[ 53.290599822998047, -66.331703186035156, 186.22500610351563 ],
				[ 67.831802368164063, -66.331703186035156, 232.36210632324219 ]
			],
			"projected_cuboid": [
				[ 277.85931396484375, 88.776298522949219 ],
				[ 264.35360717773438, 50.383399963378906 ],
				[ 264.35360717773438, 171.49850463867188 ],
				[ 277.85931396484375, 187.27670288085938 ],
				[ 330.7322998046875, 78.176200866699219 ],
				[ 329.25750732421875, 34.120498657226563 ],
				[ 329.25750732421875, 164.81500244140625 ],
				[ 330.7322998046875, 182.92039489746094 ]
			]
		}
	]
}