{
	"camera_data":
	{
		"location_worldframe": [ 0, 0, 0 ],
		"quaternion_xyzw_worldframe": [ 0, 0, 0, 1 ]
	},
	"objects": [
		{
			"class": "SM_RailRig_Mount",
			"instance_id": 16777212,
			"visibility": 1,
			"location": [ -414.14779663085938, 228.14109802246094, 569.21270751953125 ],
			"quaternion_xyzw": [ -0.78630000352859497, 0.36730000376701355, -0.12989999353885651, -0.47940000891685486 ],
			"pose_transform": [
				[ -0.14790000021457672, -0.84950000047683716, -0.5065000057220459, 0 ],
				[ 0.696399986743927, -0.45309999585151672, 0.55650001764297485, 0 ],
				[ 0.70219999551773071, 0.27039998769760132, -0.65859997272491455, 0 ],
				[ -414.14779663085938, 228.14109802246094, 569.21270751953125, 1 ]
			],
			"cuboid_centroid": [ -414.14779663085938, 228.14109802246094, 569.21270751953125 ],
			"projected_cuboid_centroid": [ 69.739501953125, 358.6051025390625 ],
			"bounding_box":
			{
				"top_left": [ 344.90798950195313, 52.462799072265625 ],
				"bottom_right": [ 373.01559448242188, 86.913597106933594 ]
			},
			"cuboid": [
				[ -388.81478881835938, 203.26950073242188, 568.50701904296875 ],
				[ -428.53570556640625, 229.11250305175781, 536.764404296875 ],
				[ -444.727294921875, 222.87710571289063, 551.9490966796875 ],
				[ -405.00640869140625, 197.03410339355469, 583.69171142578125 ],
				[ -383.56820678710938, 233.40519714355469, 586.476318359375 ],
				[ -423.28909301757813, 259.24819946289063, 554.73370361328125 ],
				[ -439.480712890625, 253.01280212402344, 569.91839599609375 ],
				[ -399.75970458984375, 227.1697998046875, 601.6610107421875 ]
			],
			"projected_cuboid": [
				[ 80.915802001953125, 347.53271484375 ],
				[ 51.617599487304688, 365.27099609375 ],
				[ 49.730598449707031, 359.372802734375 ],
				[ 78.36920166015625, 342.41668701171875 ],
				[ 88.570503234863281, 357.88259887695313 ],
				[ 60.659400939941406, 375.63861083984375 ],
				[ 58.590900421142578, 369.65008544921875 ],
				[ 85.906700134277344, 352.658203125 ]
			]
		},
		{
			"class": "",
			"instance_id": 16047768,
			"visibility": 1,
			"location": [ 55.339199066162109, 84.057098388671875, 166.79710388183594 ],
			"quaternion_xyzw": [ 0, -0.82279998064041138, 0, 0.56830000877380371 ],
			"pose_transform": [
				[ -0.93519997596740723, 0, -0.35409998893737793, 0 ],
				[ -0.35409998893737793, 0, 0.93519997596740723, 0 ],
				[ 0, -1, 0, 0 ],
				[ 55.339199066162109, 84.057098388671875, 166.79710388183594, 1 ]
			],
			"cuboid_centroid": [ 55.694499969482422, 36.520999908447266, 166.19110107421875 ],
			"projected_cuboid_centroid": [ 341.79159545898438, 312.25680541992188 ],
			"bounding_box":
			{
				"top_left": [ 237.55389404296875, 291.73809814453125 ],
				"bottom_right": [ 412.32308959960938, 397.31680297851563 ]
			},
			"cuboid": [
				[ 24.217100143432617, -11.015299797058105, 180.13479614257813 ],
				[ 41.347801208496094, -11.015299797058105, 134.89529418945313 ],
				[ 41.347801208496094, 84.057403564453125, 134.89529418945313 ],
				[ 24.217100143432617, 84.057403564453125, 180.13479614257813 ],
				[ 70.04119873046875, -11.015299797058105, 197.48689270019531 ],
				[ 87.171897888183594, -11.015299797058105, 152.24740600585938 ],
				[ 87.171897888183594, 84.057403564453125, 152.24740600585938 ],
				[ 70.04119873046875, 84.057403564453125, 197.48689270019531 ]
			],
			"projected_cuboid": [
				[ 290.41629028320313, 240.34559631347656 ],
				[ 334.46859741210938, 235.09559631347656 ],
				[ 334.46859741210938, 415.52139282226563 ],
				[ 290.41629028320313, 375.45880126953125 ],
				[ 346.79360961914063, 241.72099304199219 ],
				[ 402.57730102539063, 237.47810363769531 ],
				[ 402.57730102539063, 397.34030151367188 ],
				[ 346.79360961914063, 364.96258544921875 ]
			]
		}
	]
}