{
	"camera_data":
	{
		"location_worldframe": [ 0, 0, 0 ],
		"quaternion_xyzw_worldframe": [ 0, 0, 0, 1 ]
	},
	"objects": [
		{
			"class": "SM_RailRig_Mount",
			"instance_id": 16777212,
			"visibility": 1,
			"location": [ -425.45181274414063, 280.80999755859375, 492.45858764648438 ],
			"quaternion_xyzw": [ 0.57169997692108154, 0.0080000003799796104, -0.72509998083114624, 0.383899986743927 ],
			"pose_transform": [
				[ -0.82289999723434448, -0.4505000114440918, 0.34619998931884766, 0 ],
				[ -0.051600001752376556, -0.54759997129440308, -0.83520001173019409, 0 ],
				[ -0.5658000111579895, 0.70509999990463257, -0.42739999294281006, 0 ],
				[ -425.45181274414063, 280.80999755859375, 492.45858764648438, 1 ]
			],
			"cuboid_centroid": [ -425.45181274414063, 280.80999755859375, 492.45858764648438 ],
			"projected_cuboid_centroid": [ 34.832801818847656, 401.97650146484375 ],
			"bounding_box":
			{
				"top_left": [ 389.59030151367188, 15.684399604797363 ],
				"bottom_right": [ 410.805908203125, 52.685199737548828 ]
			},
			"cuboid": [
				[ -448.043212890625, 265.33169555664063, 469.85519409179688 ],
				[ -445.1007080078125, 296.56491088867188, 517.48968505859375 ],
				[ -432.05511474609375, 280.30679321289063, 527.3441162109375 ],
				[ -434.99749755859375, 249.07359313964844, 479.7095947265625 ],
				[ -418.84860229492188, 281.31320190429688, 457.57308959960938 ],
				[ -415.90609741210938, 312.54638671875, 505.20748901367188 ],
				[ -402.86050415039063, 296.28829956054688, 515.0618896484375 ],
				[ -405.80288696289063, 265.05511474609375, 467.427490234375 ]
			],
			"projected_cuboid": [
				[ 11.884300231933594, 400.56570434570313 ],
				[ 35.810501098632813, 402.70941162109375 ],
				[ 46.258098602294922, 392.07540893554688 ],
				[ 23.86090087890625, 388.91970825195313 ],
				[ 21.665300369262695, 413.38729858398438 ],
				[ 45.250999450683594, 414.37429809570313 ],
				[ 55.767200469970703, 403.26339721679688 ],
				[ 33.750400543212891, 401.16500854492188 ]
			]
		},
		{
			"class": "",
			"instance_id": 16047768,
			"visibility": 1,
			"location": [ 37.962001800537109, 0.96130001544952393, 234.74960327148438 ],
			"quaternion_xyzw": [ 0, -0.64789998531341553, 0, 0.76169997453689575 ],
			"pose_transform": [
				[ -0.9869999885559082, 0, 0.16040000319480896, 0 ],
				[ 0.16040000319480896, 0, 0.9869999885559082, 0 ],
				[ 0, -1, 0, 0 ],
				[ 37.962001800537109, 0.96130001544952393, 234.74960327148438, 1 ]
			],
			"cuboid_centroid": [ 37.966999053955078, -46.574798583984375, 234.04719543457031 ],
			"projected_cuboid_centroid": [ 297.5281982421875, 205.05670166015625 ],
			"bounding_box":
			{
				"top_left": [ 141.07589721679688, 268.01168823242188 ],
				"bottom_right": [ 257.3037109375, 327.8262939453125 ]
			},
			"cuboid": [
				[ 17.664800643920898, -94.111099243164063, 261.85140991210938 ],
				[ 9.9043998718261719, -94.111099243164063, 214.10360717773438 ],
				[ 9.9043998718261719, 0.96160000562667847, 214.10360717773438 ],
				[ 17.664800643920898, 0.96160000562667847, 261.85140991210938 ],
				[ 66.02960205078125, -94.111099243164063, 253.99070739746094 ],
				[ 58.269100189208984, -94.111099243164063, 206.24290466308594 ],
				[ 58.269100189208984, 0.96160000562667847, 206.24290466308594 ],
				[ 66.02960205078125, 0.96160000562667847, 253.99070739746094 ]
			],
			"projected_cuboid": [
				[ 273.27011108398438, 163.99200439453125 ],
				[ 267.84249877929688, 143.47300720214844 ],
				[ 267.84249877929688, 257.14968872070313 ],
				[ 273.27011108398438, 256.94009399414063 ],
				[ 322.552001953125, 161.14439392089844 ],
				[ 328.326904296875, 139.1842041015625 ],
				[ 328.326904296875, 257.193603515625 ],
				[ 322.552001953125, 256.96920776367188 ]
			]
		}
	]
}