{
	"camera_data":
	{
		"location_worldframe": [ 0, 0, 0 ],
		"quaternion_xyzw_worldframe": [ 0, 0, 0, 1 ]
	},
	"objects": [
		{
			"class": "",
			"instance_id": 16047768,
			"visibility": 1,
			"location": [ 47.7218017578125, -77.062301635742188, 169.34230041503906 ],
			"quaternion_xyzw": [ 0, 0.12680000066757202, 0, 0.99190002679824829 ],
			"pose_transform": [
				[ 0.2515999972820282, 0, 0.96780002117156982, 0 ],
				[ 0.96780002117156982, 0, -0.2515999972820282, 0 ],
				[ 0, -1, 0, 0 ],
				[ 47.7218017578125, -77.062301635742188, 169.34230041503906, 1 ]
			],
			"cuboid_centroid": [ 47.021900177001953, -124.59839630126953, 169.40269470214844 ],
			"projected_cuboid_centroid": [ 327.05911254882813, 67.708000183105469 ],
			"bounding_box":
			{
				"top_left": [ -57.594100952148438, 286.2672119140625 ],
				"bottom_right": [ 155.21290588378906, 372.58511352539063 ]
			},
			"cuboid": [
				[ 76.595596313476563, -172.13470458984375, 187.02799987792969 ],
				[ 29.777799606323242, -172.13470458984375, 199.20030212402344 ],
				[ 29.777799606323242, -77.061996459960938, 199.20030212402344 ],
				[ 76.595596313476563, -77.061996459960938, 187.02799987792969 ],
				[ 64.265998840332031, -172.13470458984375, 139.60519409179688 ],
				[ 17.448200225830078, -172.13470458984375, 151.77749633789063 ],
				[ 17.448200225830078, -77.061996459960938, 151.77749633789063 ],
				[ 64.265998840332031, -77.061996459960938, 139.60519409179688 ]
			],
			"projected_cuboid": [
				[ 360.84249877929688, 20.385599136352539 ],
				[ 294.26858520507813, 34.783100128173828 ],
				[ 294.26858520507813, 156.964599609375 ],
				[ 360.84249877929688, 150.51910400390625 ],
				[ 373.847412109375, -59.650798797607422 ],
				[ 285.42950439453125, -34.336101531982422 ],
				[ 285.42950439453125, 126.02100372314453 ],
				[ 373.847412109375, 114.68800354003906 ]
			]
		}
	]
}