{
	"camera_data":
	{
		"location_worldframe": [ 0, 0, 0 ],
		"quaternion_xyzw_worldframe": [ 0, 0, 0, 1 ]
	},
	"objects": [
		{
			"class": "SM_RailRig_Mount",
			"instance_id": 16777212,
			"visibility": 1,
			"location": [ -457.3131103515625, 289.70309448242188, 502.65179443359375 ],
			"quaternion_xyzw": [ 0.78649997711181641, -0.27799999713897705, 0.11180000007152557, 0.54000002145767212 ],
			"pose_transform": [
				[ -0.12430000305175781, -0.91159999370574951, -0.39179998636245728, 0 ],
				[ 0.82039999961853027, -0.31650000810623169, 0.47609999775886536, 0 ],
				[ 0.55800002813339233, 0.26230001449584961, -0.7872999906539917, 0 ],
				[ -457.3131103515625, 289.70309448242188, 502.65179443359375, 1 ]
			],
			"cuboid_centroid": [ -457.3131103515625, 289.70309448242188, 502.65179443359375 ],
			"projected_cuboid_centroid": [ 23.090900421142578, 403.54550170898438 ],
			"bounding_box":
			{
				"top_left": [ 387.70388793945313, 0.34869998693466187 ],
				"bottom_right": [ 419.63189697265625, 43.407199859619141 ]
			},
			"cuboid": [
				[ -429.68670654296875, 267.53009033203125, 500.2034912109375 ],
				[ -476.48239135742188, 285.58331298828125, 473.04739379882813 ],
				[ -489.34930419921875, 279.53561401367188, 491.19931030273438 ],
				[ -442.5535888671875, 261.48239135742188, 518.35540771484375 ],
				[ -425.27700805664063, 299.87060546875, 514.10430908203125 ],
				[ -472.07269287109375, 317.92379760742188, 486.94821166992188 ],
				[ -484.93960571289063, 311.8760986328125, 505.10009765625 ],
				[ -438.14389038085938, 293.82290649414063, 532.2562255859375 ]
			],
			"projected_cuboid": [
				[ 36.089900970458984, 392.91970825195313 ],
				[ -1.8589999675750732, 410.54971313476563 ],
				[ 0.96410000324249268, 401.68649291992188 ],
				[ 37.436199188232422, 385.13821411132813 ],
				[ 44.231800079345703, 405.32159423828125 ],
				[ 7.8204002380371094, 423.1400146484375 ],
				[ 10.217900276184082, 414.06820678710938 ],
				[ 45.265300750732422, 397.32040405273438 ]
			]
		},
		{
			"class": "",
			"instance_id": 16047768,
			"visibility": 1,
			"location": [ 79.229103088378906, 83.4833984375, 181.81219482421875 ],
			"quaternion_xyzw": [ 0, 0.42739999294281006, 0, 0.90410000085830688 ],
			"pose_transform": [
				[ 0.77270001173019409, 0, 0.63470000028610229, 0 ],
				[ 0.63470000028610229, 0, -0.77270001173019409, 0 ],
				[ 0, -1, 0, 0 ],
				[ 79.229103088378906, 83.4833984375, 181.81219482421875, 1 ]
			],
			"cuboid_centroid": [ 78.698600769042969, 35.947299957275391, 182.272705078125 ],
			"projected_cuboid_centroid": [ 366.53140258789063, 306.48760986328125 ],
			"bounding_box":
			{
				"top_left": [ 236.19540405273438, 320.88128662109375 ],
				"bottom_right": [ 397.98098754882813, 416.49798583984375 ]
			},
			"cuboid": [
				[ 112.98269653320313, -11.58899974822998, 179.13369750976563 ],
				[ 82.277496337890625, -11.58899974822998, 216.51370239257813 ],
				[ 82.277496337890625, 83.483596801757813, 216.51370239257813 ],
				[ 112.98269653320313, 83.483596801757813, 179.13369750976563 ],
				[ 75.119796752929688, -11.58899974822998, 148.03169250488281 ],
				[ 44.414501190185547, -11.58899974822998, 185.41169738769531 ],
				[ 44.414501190185547, 83.483596801757813, 185.41169738769531 ],
				[ 75.119796752929688, 83.483596801757813, 148.03169250488281 ]
			],
			"projected_cuboid": [
				[ 417.46371459960938, 239.43809509277344 ],
				[ 353.28271484375, 242.29750061035156 ],
				[ 353.28271484375, 354.70880126953125 ],
				[ 417.46371459960938, 375.30648803710938 ],
				[ 385.90908813476563, 235.95840454101563 ],
				[ 317.3236083984375, 239.9989013671875 ],
				[ 317.3236083984375, 371.26681518554688 ],
				[ 385.90908813476563, 400.37319946289063 ]
			]
		}
	]
}