{
	"camera_data":
	{
		"location_worldframe": [ 0, 0, 0 ],
		"quaternion_xyzw_worldframe": [ 0, 0, 0, 1 ]
	},
	"objects": [
		{
			"class": "SM_RailRig_Mount",
			"instance_id": 16777212,
			"visibility": 1,
			"location": [ -408.9840087890625, 258.65960693359375, 533.60980224609375 ],
			"quaternion_xyzw": [ -0.28859999775886536, 0.75269997119903564, -0.59020000696182251, -0.0414000004529953 ],
			"pose_transform": [
				[ 0.2784000039100647, -0.91250002384185791, -0.29989999532699585, 0 ],
				[ -0.82999998331069946, -0.38560000061988831, 0.40310001373291016, 0 ],
				[ 0.48339998722076416, -0.13670000433921814, 0.86470001935958862, 0 ],
				[ -408.9840087890625, 258.65960693359375, 533.60980224609375, 1 ]
			],
			"cuboid_centroid": [ -408.9840087890625, 258.65960693359375, 533.60980224609375 ],
			"projected_cuboid_centroid": [ 59.789398193359375, 380.09228515625 ],
			"bounding_box":
			{
				"top_left": [ 366.12289428710938, 48.349998474121094 ],
				"bottom_right": [ 395.61880493164063, 71.516899108886719 ]
			},
			"cuboid": [
				[ -422.1422119140625, 229.90029907226563, 549.75341796875 ],
				[ -374.80429077148438, 251.89639282226563, 526.76409912109375 ],
				[ -385.95050048828125, 255.04780578613281, 506.82791137695313 ],
				[ -433.28851318359375, 233.05169677734375, 529.81719970703125 ],
				[ -432.01748657226563, 262.27151489257813, 560.3916015625 ],
				[ -384.67959594726563, 284.26760864257813, 537.40228271484375 ],
				[ -395.8258056640625, 287.41900634765625, 517.46612548828125 ],
				[ -443.1636962890625, 265.42291259765625, 540.455322265625 ]
			],
			"projected_cuboid": [
				[ 59.423801422119141, 363.05621337890625 ],
				[ 73.850303649902344, 378.4180908203125 ],
				[ 61.055400848388672, 384.82528686523438 ],
				[ 46.641300201416016, 368.6072998046875 ],
				[ 58.644298553466797, 375.81179809570313 ],
				[ 72.751800537109375, 391.41531372070313 ],
				[ 60.177700042724609, 398.19149780273438 ],
				[ 46.084598541259766, 381.72409057617188 ]
			]
		},
		{
			"class": "",
			"instance_id": 16047768,
			"visibility": 1,
			"location": [ -13.32129955291748, -18.906200408935547, 296.73880004882813 ],
			"quaternion_xyzw": [ 0, -0.59839999675750732, 0, 0.80119997262954712 ],
			"pose_transform": [
				[ -0.95889997482299805, 0, 0.28369998931884766, 0 ],
				[ 0.28369998931884766, 0, 0.95889997482299805, 0 ],
				[ 0, -1, 0, 0 ],
				[ -13.32129955291748, -18.906200408935547, 296.73880004882813, 1 ]
			],
			"cuboid_centroid": [ -13.404999732971191, -66.442298889160156, 296.04129028320313 ],
			"projected_cuboid_centroid": [ 244.40809631347656, 198.54440307617188 ],
			"bounding_box":
			{
				"top_left": [ 147.63600158691406, 216.71060180664063 ],
				"bottom_right": [ 241.11630249023438, 269.16580200195313 ]
			},
			"cuboid": [
				[ -30.035400390625, -113.97859954833984, 326.18569946289063 ],
				[ -43.760398864746094, -113.97859954833984, 279.79928588867188 ],
				[ -43.760398864746094, -18.906000137329102, 279.79928588867188 ],
				[ -30.035400390625, -18.906000137329102, 326.18569946289063 ],
				[ 16.950399398803711, -113.97859954833984, 312.28329467773438 ],
				[ 3.2253000736236572, -113.97859954833984, 265.89691162109375 ],
				[ 3.2253000736236572, -18.906000137329102, 265.89691162109375 ],
				[ 16.950399398803711, -18.906000137329102, 312.28329467773438 ]
			],
			"projected_cuboid": [
				[ 232.42739868164063, 166.54629516601563 ],
				[ 215.96180725097656, 151.71620178222656 ],
				[ 215.96180725097656, 238.70210266113281 ],
				[ 232.42739868164063, 241.16200256347656 ],
				[ 269.8953857421875, 162.56390380859375 ],
				[ 259.10528564453125, 146.2637939453125 ],
				[ 259.10528564453125, 237.79769897460938 ],
				[ 269.8953857421875, 240.50149536132813 ]
			]
		}
	]
}