{
	"camera_data":
	{
		"location_worldframe": [ 0, 0, 0 ],
		"quaternion_xyzw_worldframe": [ 0, 0, 0, 1 ]
	},
	"objects": [
		{
			"class": "SM_RailRig_Mount",
			"instance_id": 16777212,
			"visibility": 1,
			"location": [ -509.13360595703125, 201.05900573730469, 463.79559326171875 ],
			"quaternion_xyzw": [ 0.32600000500679016, 0.0051000001840293407, -0.48890000581741333, 0.80909997224807739 ],
			"pose_transform": [
				[ -0.31049999594688416, -0.53250002861022949, 0.7874000072479248, 0 ],
				[ 0.52179998159408569, -0.78789997100830078, -0.32710000872612, 0 ],
				[ -0.79460000991821289, -0.30939999222755432, -0.52249997854232788, 0 ],
				[ -509.13360595703125, 201.05900573730469, 463.79559326171875, 1 ]
			],
			"cuboid_centroid": [ -509.13360595703125, 201.05900573730469, 463.79559326171875 ],
			"projected_cuboid_centroid": [ -25.025100708007813, 366.97799682617188 ],
			"bounding_box":
			{
				"top_left": [ 350.52978515625, -37.355998992919922 ],
				"bottom_right": [ 383.80661010742188, -9.7763996124267578 ]
			},
			"cuboid": [
				[ -508.919189453125, 165.57809448242188, 462.41299438476563 ],
				[ -538.6820068359375, 210.51579284667969, 481.06741333007813 ],
				[ -520.36187744140625, 217.64869689941406, 493.1138916015625 ],
				[ -490.5989990234375, 172.71099853515625, 474.45950317382813 ],
				[ -497.90521240234375, 184.46929931640625, 434.47738647460938 ],
				[ -527.6680908203125, 229.40699768066406, 453.13180541992188 ],
				[ -509.347900390625, 236.53990173339844, 465.17819213867188 ],
				[ -479.58511352539063, 191.60220336914063, 446.5238037109375 ]
			],
			"projected_cuboid": [
				[ -25.746700286865234, 347.66690063476563 ],
				[ -30.659599304199219, 368.0260009765625 ],
				[ -14.14579963684082, 368.9923095703125 ],
				[ -8.7082996368408203, 349.18820190429688 ],
				[ -37.372600555419922, 364.69180297851563 ],
				[ -42.109798431396484, 385.6051025390625 ],
				[ -24.30780029296875, 386.17428588867188 ],
				[ -18.954700469970703, 365.8489990234375 ]
			]
		},
		{
			"class": "",
			"instance_id": 16047768,
			"visibility": 1,
			"location": [ 47.7218017578125, -77.062301635742188, 169.34230041503906 ],
			"quaternion_xyzw": [ 0, 0.12680000066757202, 0, 0.99190002679824829 ],
			"pose_transform": [
				[ 0.2515999972820282, 0, 0.96780002117156982, 0 ],
				[ 0.96780002117156982, 0, -0.2515999972820282, 0 ],
				[ 0, -1, 0, 0 ],
				[ 47.7218017578125, -77.062301635742188, 169.34230041503906, 1 ]
			],
			"cuboid_centroid": [ 47.021900177001953, -124.59839630126953, 169.40269470214844 ],
			"projected_cuboid_centroid": [ 327.05911254882813, 67.708000183105469 ],
			"bounding_box":
			{
				"top_left": [ -57.594100952148438, 286.2672119140625 ],
				"bottom_right": [ 155.21290588378906, 372.58511352539063 ]
			},
			"cuboid": [
				[ 76.595596313476563, -172.13470458984375, 187.02799987792969 ],
				[ 29.777799606323242, -172.13470458984375, 199.20030212402344 ],
				[ 29.777799606323242, -77.061996459960938, 199.20030212402344 ],
				[ 76.595596313476563, -77.061996459960938, 187.02799987792969 ],
				[ 64.265998840332031, -172.13470458984375, 139.60519409179688 ],
				[ 17.448200225830078, -172.13470458984375, 151.77749633789063 ],
				[ 17.448200225830078, -77.061996459960938, 151.77749633789063 ],
				[ 64.265998840332031, -77.061996459960938, 139.60519409179688 ]
			],
			"projected_cuboid": [
				[ 360.84249877929688, 20.385599136352539 ],
				[ 294.26858520507813, 34.783100128173828 ],
				[ 294.26858520507813, 156.964599609375 ],
				[ 360.84249877929688, 150.51910400390625 ],
				[ 373.847412109375, -59.650798797607422 ],
				[ 285.42950439453125, -34.336101531982422 ],
				[ 285.42950439453125, 126.02100372314453 ],
				[ 373.847412109375, 114.68800354003906 ]
			]
		}
	]
}