{
	"camera_data":
	{
		"location_worldframe": [ 0, 0, 0 ],
		"quaternion_xyzw_worldframe": [ 0, 0, 0, 1 ]
	},
	"objects": [
		{
			"class": "",
			"instance_id": 16047768,
			"visibility": 1,
			"location": [ 3.0304999351501465, 75.05419921875, 184.91900634765625 ],
			"quaternion_xyzw": [ 0, 0.95579999685287476, 0, 0.29409998655319214 ],
			"pose_transform": [
				[ 0.56209999322891235, 0, -0.82709997892379761, 0 ],
				[ -0.82709997892379761, 0, -0.56209999322891235, 0 ],
				[ 0, -1, 0, 0 ],
				[ 3.0304999351501465, 75.05419921875, 184.91900634765625, 1 ]
			],
			"cuboid_centroid": [ 3.537100076675415, 27.518100738525391, 185.40559387207031 ],
			"projected_cuboid_centroid": [ 260.88400268554688, 293.99578857421875 ],
			"bounding_box":
			{
				"top_left": [ 229.01649475097656, 218.04289245605469 ],
				"bottom_right": [ 379.83779907226563, 307.38580322265625 ]
			},
			"cuboid": [
				[ -2.6958000659942627, -20.018199920654297, 151.5469970703125 ],
				[ 37.312900543212891, -20.018199920654297, 178.7384033203125 ],
				[ 37.312900543212891, 75.054397583007813, 178.7384033203125 ],
				[ -2.6958000659942627, 75.054397583007813, 151.5469970703125 ],
				[ -30.23859977722168, -20.018199920654297, 192.07269287109375 ],
				[ 9.7700996398925781, -20.018199920654297, 219.26420593261719 ],
				[ 9.7700996398925781, 75.054397583007813, 219.26420593261719 ],
				[ -30.23859977722168, 75.054397583007813, 192.07269287109375 ]
			],
			"projected_cuboid": [
				[ 251.44610595703125, 222.18429565429688 ],
				[ 309.44180297851563, 227.32870483398438 ],
				[ 309.44180297851563, 363.49749755859375 ],
				[ 251.44610595703125, 382.78530883789063 ],
				[ 215.69709777832031, 229.31910705566406 ],
				[ 267.4071044921875, 232.62789916992188 ],
				[ 267.4071044921875, 343.62921142578125 ],
				[ 215.69709777832031, 356.03469848632813 ]
			]
		}
	]
}