{
	"camera_data":
	{
		"location_worldframe": [ 0, 0, 0 ],
		"quaternion_xyzw_worldframe": [ 0, 0, 0, 1 ]
	},
	"objects": [
		{
			"class": "",
			"instance_id": 16047768,
			"visibility": 1,
			"location": [ -5.5939998626708984, -91.698997497558594, 132.47599792480469 ],
			"quaternion_xyzw": [ 0, -0.089900001883506775, 0, 0.99599999189376831 ],
			"pose_transform": [
				[ -0.17900000512599945, 0, 0.98390001058578491, 0 ],
				[ 0.98390001058578491, 0, 0.17900000512599945, 0 ],
				[ 0, -1, 0, 0 ],
				[ -5.5939998626708984, -91.698997497558594, 132.47599792480469, 1 ]
			],
			"cuboid_centroid": [ -6.2543997764587402, -139.235107421875, 132.23629760742188 ],
			"projected_cuboid_centroid": [ 243.89199829101563, -13.549200057983398 ],
			"bounding_box":
			{
				"top_left": [ -201.88920593261719, 193.12130737304688 ],
				"bottom_right": [ 106.67610168457031, 302.69400024414063 ]
			},
			"cuboid": [
				[ 13.156999588012695, -186.77139282226563, 160.66960144042969 ],
				[ -34.436100006103516, -186.77139282226563, 152.01100158691406 ],
				[ -34.436100006103516, -91.698699951171875, 152.01100158691406 ],
				[ 13.156999588012695, -91.698699951171875, 160.66960144042969 ],
				[ 21.927400588989258, -186.77139282226563, 112.46150207519531 ],
				[ -25.665700912475586, -186.77139282226563, 103.80290222167969 ],
				[ -25.665700912475586, -91.698699951171875, 103.80290222167969 ],
				[ 21.927400588989258, -91.698699951171875, 112.46150207519531 ]
			],
			"projected_cuboid": [
				[ 276.9635009765625, -41.588798522949219 ],
				[ 198.00650024414063, -58.539501190185547 ],
				[ 198.00650024414063, 101.57119750976563 ],
				[ 276.9635009765625, 109.89350128173828 ],
				[ 305.91421508789063, -169.15420532226563 ],
				[ 192.70289611816406, -204.6177978515625 ],
				[ 192.70289611816406, 29.851499557495117 ],
				[ 305.91421508789063, 47.26300048828125 ]
			]
		}
	]
}