{
	"camera_data":
	{
		"location_worldframe": [ 0, 0, 0 ],
		"quaternion_xyzw_worldframe": [ 0, 0, 0, 1 ]
	},
	"objects": [
		{
			"class": "SM_RailRig_Mount",
			"instance_id": 16777212,
			"visibility": 1,
			"location": [ -459.351806640625, 204.94709777832031, 526.9932861328125 ],
			"quaternion_xyzw": [ -0.1395999938249588, -0.12370000034570694, -0.89459997415542603, -0.40599998831748962 ],
			"pose_transform": [
				[ 0.35019999742507935, 0.1080000028014183, 0.93040001392364502, 0 ],
				[ -0.63139998912811279, 0.76099997758865356, 0.1492999941110611, 0 ],
				[ 0.69190001487731934, 0.63980001211166382, -0.33469998836517334, 0 ],
				[ -459.351806640625, 204.94709777832031, 526.9932861328125, 1 ]
			],
			"cuboid_centroid": [ -459.351806640625, 204.94709777832031, 526.9932861328125 ],
			"projected_cuboid_centroid": [ 32.858501434326172, 355.55810546875 ],
			"bounding_box":
			{
				"top_left": [ 342.64080810546875, 15.516599655151367 ],
				"bottom_right": [ 369.82379150390625, 47.954498291015625 ]
			},
			"cuboid": [
				[ -463.16949462890625, 235.93989562988281, 543.8966064453125 ],
				[ -427.15670776367188, 192.53759765625, 535.38031005859375 ],
				[ -443.10910034179688, 177.78689575195313, 543.097900390625 ],
				[ -479.12188720703125, 221.18919372558594, 551.61419677734375 ],
				[ -475.59439086914063, 232.1072998046875, 510.8887939453125 ],
				[ -439.58160400390625, 188.70489501953125, 502.37240600585938 ],
				[ -455.53399658203125, 173.95419311523438, 510.08999633789063 ],
				[ -491.54681396484375, 217.35650634765625, 518.60638427734375 ]
			],
			"projected_cuboid": [
				[ 37.99639892578125, 367.05169677734375 ],
				[ 51.748699188232422, 348.064697265625 ],
				[ 47.131698608398438, 339.80340576171875 ],
				[ 33.643100738525391, 358.65219116210938 ],
				[ 17.685600280761719, 372.30599975585938 ],
				[ 31.997100830078125, 352.16070556640625 ],
				[ 27.380100250244141, 343.30279541015625 ],
				[ 13.357399940490723, 363.29379272460938 ]
			]
		},
		{
			"class": "",
			"instance_id": 16047768,
			"visibility": 1,
			"location": [ 72.356300354003906, 35.020000457763672, 277.43280029296875 ],
			"quaternion_xyzw": [ 0, 0.99470001459121704, 0, -0.10239999741315842 ],
			"pose_transform": [
				[ -0.20370000600814819, 0, -0.97899997234344482, 0 ],
				[ -0.97899997234344482, 0, 0.20370000600814819, 0 ],
				[ 0, -1, 0, 0 ],
				[ 72.356300354003906, 35.020000457763672, 277.43280029296875, 1 ]
			],
			"cuboid_centroid": [ 73.058296203613281, -12.51609992980957, 277.40689086914063 ],
			"projected_cuboid_centroid": [ 323.42059326171875, 244.44979858398438 ],
			"bounding_box":
			{
				"top_left": [ 203.5458984375, 299.95709228515625 ],
				"bottom_right": [ 291.65530395507813, 350.28561401367188 ]
			},
			"cuboid": [
				[ 44.38690185546875, -60.052398681640625, 258.3489990234375 ],
				[ 91.746597290039063, -60.052398681640625, 248.49319458007813 ],
				[ 91.746597290039063, 35.020198822021484, 248.49319458007813 ],
				[ 44.38690185546875, 35.020198822021484, 258.3489990234375 ],
				[ 54.370098114013672, -60.052398681640625, 306.32058715820313 ],
				[ 101.72979736328125, -60.052398681640625, 296.46481323242188 ],
				[ 101.72979736328125, 35.020198822021484, 296.46481323242188 ],
				[ 54.370098114013672, 35.020198822021484, 306.32058715820313 ]
			],
			"projected_cuboid": [
				[ 299.98330688476563, 196.49360656738281 ],
				[ 350.518310546875, 194.13340759277344 ],
				[ 350.518310546875, 292.07818603515625 ],
				[ 299.98330688476563, 290.70181274414063 ],
				[ 301.43850708007813, 205.81269836425781 ],
				[ 343.8446044921875, 204.14419555664063 ],
				[ 343.8446044921875, 286.24029541015625 ],
				[ 301.43850708007813, 285.26730346679688 ]
			]
		}
	]
}