{
	"camera_data":
	{
		"location_worldframe": [ 0, 0, 0 ],
		"quaternion_xyzw_worldframe": [ 0, 0, 0, 1 ]
	},
	"objects": [
		{
			"class": "SM_RailRig_Mount",
			"instance_id": 16777212,
			"visibility": 1,
			"location": [ -430.56671142578125, 186.17210388183594, 441.05929565429688 ],
			"quaternion_xyzw": [ -0.59490001201629639, -0.46020001173019409, -0.5429999828338623, 0.3732999861240387 ],
			"pose_transform": [
				[ 0.30250000953674316, 0.9440000057220459, -0.1315000057220459, 0 ],
				[ -0.013399999588727951, 0.14219999313354492, 0.98970001935958862, 0 ],
				[ -0.95300000905990601, 0.29769998788833618, -0.055700000375509262, 0 ],
				[ -430.56671142578125, 186.17210388183594, 441.05929565429688, 1 ]
			],
			"cuboid_centroid": [ -430.56671142578125, 186.17210388183594, 441.05929565429688 ],
			"projected_cuboid_centroid": [ 6.0900998115539551, 364.05810546875 ],
			"bounding_box":
			{
				"top_left": [ 349.32168579101563, -16.572900772094727 ],
				"bottom_right": [ 378.03439331054688, 24.648700714111328 ]
			},
			"cuboid": [
				[ -436.569091796875, 210.40420532226563, 466.31060791015625 ],
				[ -435.80551147460938, 202.29389953613281, 409.8583984375 ],
				[ -413.831298828125, 195.43040466308594, 411.14169311523438 ],
				[ -414.59478759765625, 203.54069519042969, 467.59390258789063 ],
				[ -447.30209350585938, 176.91380310058594, 470.97689819335938 ],
				[ -446.53851318359375, 168.80340576171875, 414.52468872070313 ],
				[ -424.56430053710938, 161.93989562988281, 415.80801391601563 ],
				[ -425.32778930664063, 170.05029296875, 472.26019287109375 ]
			],
			"projected_cuboid": [
				[ 16.327800750732422, 371.5098876953125 ],
				[ -16.206699371337891, 382.35400390625 ],
				[ -1.6747000217437744, 377.68600463867188 ],
				[ 29.01609992980957, 367.43521118164063 ],
				[ 12.868399620056152, 352.16171264648438 ],
				[ -19.770900726318359, 360.24868774414063 ],
				[ -5.3909997940063477, 355.70138549804688 ],
				[ 25.440799713134766, 348.17990112304688 ]
			]
		},
		{
			"class": "",
			"instance_id": 16047768,
			"visibility": 1,
			"location": [ -76.677696228027344, 65.428596496582031, 306.12631225585938 ],
			"quaternion_xyzw": [ 0, -0.50410002470016479, 0, 0.86369997262954712 ],
			"pose_transform": [
				[ -0.87070000171661377, 0, 0.49180001020431519, 0 ],
				[ 0.49180001020431519, 0, 0.87070000171661377, 0 ],
				[ 0, -1, 0, 0 ],
				[ -76.677696228027344, 65.428596496582031, 306.12631225585938, 1 ]
			],
			"cuboid_centroid": [ -76.915901184082031, 17.892499923706055, 305.46539306640625 ],
			"projected_cuboid_centroid": [ 191.53939819335938, 270.99508666992188 ],
			"bounding_box":
			{
				"top_left": [ 228.39070129394531, 162.07569885253906 ],
				"bottom_right": [ 316.96859741210938, 218.37519836425781 ]
			},
			"cuboid": [
				[ -86.353302001953125, -29.643800735473633, 338.57418823242188 ],
				[ -110.14309692382813, -29.643800735473633, 296.45379638671875 ],
				[ -110.14309692382813, 65.428901672363281, 296.45379638671875 ],
				[ -86.353302001953125, 65.428901672363281, 338.57418823242188 ],
				[ -43.688701629638672, -29.643800735473633, 314.47698974609375 ],
				[ -67.478500366210938, -29.643800735473633, 272.35659790039063 ],
				[ -67.478500366210938, 65.428901672363281, 272.35659790039063 ],
				[ -43.688701629638672, 65.428901672363281, 314.47698974609375 ]
			],
			"projected_cuboid": [
				[ 190.70730590820313, 233.58599853515625 ],
				[ 160.88690185546875, 230.40139770507813 ],
				[ 160.88690185546875, 312.50048828125 ],
				[ 190.70730590820313, 305.47158813476563 ],
				[ 220.43519592285156, 231.86849975585938 ],
				[ 192.57400512695313, 228.13650512695313 ],
				[ 192.57400512695313, 317.49951171875 ],
				[ 220.43519592285156, 309.26239013671875 ]
			]
		}
	]
}