{
	"camera_data":
	{
		"location_worldframe": [ 0, 0, 0 ],
		"quaternion_xyzw_worldframe": [ 0, 0, 0, 1 ]
	},
	"objects": [
		{
			"class": "",
			"instance_id": 16047768,
			"visibility": 1,
			"location": [ 72.356300354003906, 35.020000457763672, 277.43280029296875 ],
			"quaternion_xyzw": [ 0, 0.99470001459121704, 0, -0.10239999741315842 ],
			"pose_transform": [
				[ -0.20370000600814819, 0, -0.97899997234344482, 0 ],
				[ -0.97899997234344482, 0, 0.20370000600814819, 0 ],
				[ 0, -1, 0, 0 ],
				[ 72.356300354003906, 35.020000457763672, 277.43280029296875, 1 ]
			],
			"cuboid_centroid": [ 73.058296203613281, -12.51609992980957, 277.40689086914063 ],
			"projected_cuboid_centroid": [ 323.42059326171875, 244.44979858398438 ],
			"bounding_box":
			{
				"top_left": [ 203.5458984375, 299.95709228515625 ],
				"bottom_right": [ 291.65530395507813, 350.28561401367188 ]
			},
			"cuboid": [
				[ 44.38690185546875, -60.052398681640625, 258.3489990234375 ],
				[ 91.746597290039063, -60.052398681640625, 248.49319458007813 ],
				[ 91.746597290039063, 35.020198822021484, 248.49319458007813 ],
				[ 44.38690185546875, 35.020198822021484, 258.3489990234375 ],
				[ 54.370098114013672, -60.052398681640625, 306.32058715820313 ],
				[ 101.72979736328125, -60.052398681640625, 296.46481323242188 ],
				[ 101.72979736328125, 35.020198822021484, 296.46481323242188 ],
				[ 54.370098114013672, 35.020198822021484, 306.32058715820313 ]
			],
			"projected_cuboid": [
				[ 299.98330688476563, 196.49360656738281 ],
				[ 350.518310546875, 194.13340759277344 ],
				[ 350.518310546875, 292.07818603515625 ],
				[ 299.98330688476563, 290.70181274414063 ],
				[ 301.43850708007813, 205.81269836425781 ],
				[ 343.8446044921875, 204.14419555664063 ],
				[ 343.8446044921875, 286.24029541015625 ],
				[ 301.43850708007813, 285.26730346679688 ]
			]
		}
	]
}