{
	"camera_data":
	{
		"location_worldframe": [ 0, 0, 0 ],
		"quaternion_xyzw_worldframe": [ 0, 0, 0, 1 ]
	},
	"objects": [
		{
			"class": "SM_RailRig_Mount",
			"instance_id": 16777212,
			"visibility": 1,
			"location": [ -392.90679931640625, 139.79609680175781, 387.98760986328125 ],
			"quaternion_xyzw": [ -0.78810000419616699, -0.016300000250339508, -0.61460000276565552, 0.029400000348687172 ],
			"pose_transform": [
				[ 0.96780002117156982, 0.066500000655651093, -0.24269999563694, 0 ],
				[ 0.24390000104904175, -0.010400000028312206, 0.96969997882843018, 0 ],
				[ -0.061900001019239426, 0.99769997596740723, 0.02630000002682209, 0 ],
				[ -392.90679931640625, 139.79609680175781, 387.98760986328125, 1 ]
			],
			"cuboid_centroid": [ -392.90679931640625, 139.79609680175781, 387.98760986328125 ],
			"projected_cuboid_centroid": [ -3.2458000183105469, 348.23959350585938 ],
			"bounding_box":
			{
				"top_left": [ 335.2506103515625, -34.354999542236328 ],
				"bottom_right": [ 362.2283935546875, 23.713100433349609 ]
			},
			"cuboid": [
				[ -369.4984130859375, 152.18049621582031, 411.64190673828125 ],
				[ -383.40859985351563, 152.77529907226563, 356.33041381835938 ],
				[ -381.98028564453125, 129.77059936523438, 355.72378540039063 ],
				[ -368.07000732421875, 129.17579650878906, 411.03530883789063 ],
				[ -403.83340454101563, 149.82170104980469, 420.25140380859375 ],
				[ -417.74359130859375, 150.41639709472656, 364.93991088867188 ],
				[ -416.3153076171875, 127.41179656982422, 364.33331298828125 ],
				[ -402.40509033203125, 126.81700134277344, 419.6448974609375 ]
			],
			"projected_cuboid": [
				[ 26.208999633789063, 350.64111328125 ],
				[ -19.453899383544922, 365.75900268554688 ],
				[ -18.895700454711914, 349.39059448242188 ],
				[ 26.759500503540039, 336.4530029296875 ],
				[ 10.001199722290039, 347.26528930664063 ],
				[ -37.041099548339844, 361.5150146484375 ],
				[ -36.525299072265625, 345.52630615234375 ],
				[ 10.516900062561035, 333.3634033203125 ]
			]
		},
		{
			"class": "",
			"instance_id": 16047768,
			"visibility": 1,
			"location": [ 3.9216001033782959, 7.7852997779846191, 152.88679504394531 ],
			"quaternion_xyzw": [ 0, -0.40720000863075256, 0, 0.91329997777938843 ],
			"pose_transform": [
				[ -0.74390000104904175, 0, 0.66829997301101685, 0 ],
				[ 0.66829997301101685, 0, 0.74390000104904175, 0 ],
				[ 0, -1, 0, 0 ],
				[ 3.9216001033782959, 7.7852997779846191, 152.88679504394531, 1 ]
			],
			"cuboid_centroid": [ 3.546299934387207, -39.750801086425781, 152.29299926757813 ],
			"projected_cuboid_centroid": [ 261.96121215820313, 189.17999267578125 ],
			"bounding_box":
			{
				"top_left": [ 71.166496276855469, 205.65580749511719 ],
				"bottom_right": [ 272.6964111328125, 315.78311157226563 ]
			},
			"cuboid": [
				[ 1.4872000217437744, -87.287101745605469, 186.65890502929688 ],
				[ -30.84320068359375, -87.287101745605469, 150.67520141601563 ],
				[ -30.84320068359375, 7.7855000495910645, 150.67520141601563 ],
				[ 1.4872000217437744, 7.7855000495910645, 186.65890502929688 ],
				[ 37.935798645019531, -87.287101745605469, 153.91070556640625 ],
				[ 5.6054000854492188, -87.287101745605469, 117.92710113525391 ],
				[ 5.6054000854492188, 7.7855000495910645, 117.92710113525391 ],
				[ 37.935798645019531, 7.7855000495910645, 153.91070556640625 ]
			],
			"projected_cuboid": [
				[ 258.03970336914063, 136.28689575195313 ],
				[ 203.5968017578125, 107.69750213623047 ],
				[ 203.5968017578125, 269.22769165039063 ],
				[ 258.03970336914063, 266.67770385742188 ],
				[ 319.09860229492188, 110.81510162353516 ],
				[ 268.16839599609375, 66.514198303222656 ],
				[ 268.16839599609375, 272.9010009765625 ],
				[ 319.09860229492188, 268.94970703125 ]
			]
		}
	]
}