{
	"camera_data":
	{
		"location_worldframe": [ 0, 0, 0 ],
		"quaternion_xyzw_worldframe": [ 0, 0, 0, 1 ]
	},
	"objects": [
		{
			"class": "SM_RailRig_Mount",
			"instance_id": 16777212,
			"visibility": 1,
			"location": [ -450.54409790039063, 257.13369750976563, 433.03909301757813 ],
			"quaternion_xyzw": [ -0.043200001120567322, 0.81339997053146362, 0.56629997491836548, 0.1257999986410141 ],
			"pose_transform": [
				[ 0.15579999983310699, 0.93209999799728394, -0.32699999213218689, 0 ],
				[ -0.96460002660751343, 0.072200000286102295, -0.25360000133514404, 0 ],
				[ 0.21279999613761902, -0.35490000247955322, -0.91039997339248657, 0 ],
				[ -450.54409790039063, 257.13369750976563, 433.03909301757813, 1 ]
			],
			"cuboid_centroid": [ -450.54409790039063, 257.13369750976563, 433.03909301757813 ],
			"projected_cuboid_centroid": [ -10.34850025177002, 408.0098876953125 ],
			"bounding_box":
			{
				"top_left": [ 392.99618530273438, -36.547100067138672 ],
				"bottom_right": [ 421.9324951171875, 10.653800010681152 ]
			},
			"cuboid": [
				[ -472.8367919921875, 271.63589477539063, 409.51080322265625 ],
				[ -417.81890869140625, 267.51620483398438, 423.97711181640625 ],
				[ -422.72531127929688, 275.69940185546875, 444.96719360351563 ],
				[ -477.74310302734375, 279.81900024414063, 430.50100708007813 ],
				[ -478.3629150390625, 238.5679931640625, 421.11090087890625 ],
				[ -423.3450927734375, 234.44839477539063, 435.57708740234375 ],
				[ -428.25140380859375, 242.63150024414063, 456.56729125976563 ],
				[ -483.269287109375, 246.75120544433594, 442.10110473632813 ]
			],
			"projected_cuboid": [
				[ -39.587299346923828, 425.80938720703125 ],
				[ 3.7183001041412354, 417.52801513671875 ],
				[ 12.796299934387207, 414.61630249023438 ],
				[ -28.092800140380859, 422.39608764648438 ],
				[ -34.804500579833984, 401.029296875 ],
				[ 7.1890997886657715, 393.79141235351563 ],
				[ 15.876799583435059, 392.04501342773438 ],
				[ -23.838600158691406, 398.88198852539063 ]
			]
		},
		{
			"class": "",
			"instance_id": 16047768,
			"visibility": 1,
			"location": [ 96.887100219726563, -98.345901489257813, 260.6781005859375 ],
			"quaternion_xyzw": [ 0, -0.18310000002384186, 0, 0.98309999704360962 ],
			"pose_transform": [
				[ -0.36000001430511475, 0, 0.93300002813339233, 0 ],
				[ 0.93300002813339233, 0, 0.36000001430511475, 0 ],
				[ 0, -1, 0, 0 ],
				[ 96.887100219726563, -98.345901489257813, 260.6781005859375, 1 ]
			],
			"cuboid_centroid": [ 96.283302307128906, -145.88200378417969, 260.31900024414063 ],
			"projected_cuboid_centroid": [ 350.6859130859375, 112.53839874267578 ],
			"bounding_box":
			{
				"top_left": [ 40.806999206542969, 317.6033935546875 ],
				"bottom_right": [ 168.6968994140625, 385.62368774414063 ]
			},
			"cuboid": [
				[ 110.02909851074219, -193.41830444335938, 291.88339233398438 ],
				[ 64.898101806640625, -193.41830444335938, 274.46890258789063 ],
				[ 64.898101806640625, -98.345703125, 274.46890258789063 ],
				[ 110.02909851074219, -98.345703125, 291.88339233398438 ],
				[ 127.66860198974609, -193.41830444335938, 246.16920471191406 ],
				[ 82.53759765625, -193.41830444335938, 228.75469970703125 ],
				[ 82.53759765625, -98.345703125, 228.75469970703125 ],
				[ 127.66860198974609, -98.345703125, 246.16920471191406 ]
			],
			"projected_cuboid": [
				[ 352.50241088867188, 86.360000610351563 ],
				[ 316.53109741210938, 75.596702575683594 ],
				[ 316.53109741210938, 164.27200317382813 ],
				[ 352.50241088867188, 169.74470520019531 ],
				[ 388.76708984375, 54.857498168945313 ],
				[ 348.36810302734375, 39.544998168945313 ],
				[ 348.36810302734375, 145.94110107421875 ],
				[ 388.76708984375, 153.72689819335938 ]
			]
		}
	]
}