{
	"camera_data":
	{
		"location_worldframe": [ 0, 0, 0 ],
		"quaternion_xyzw_worldframe": [ 0, 0, 0, 1 ]
	},
	"objects": [
		{
			"class": "SM_RailRig_Mount",
			"instance_id": 16777212,
			"visibility": 1,
			"location": [ -417.83441162109375, 270.20779418945313, 489.55319213867188 ],
			"quaternion_xyzw": [ -0.29269999265670776, -0.52549999952316284, -0.58090001344680786, 0.54839998483657837 ],
			"pose_transform": [
				[ -0.23639999330043793, 0.93150001764297485, 0.27639999985694885, 0 ],
				[ -0.22720000147819519, -0.3294999897480011, 0.91640001535415649, 0 ],
				[ -0.94470000267028809, -0.15389999747276306, -0.28949999809265137, 0 ],
				[ -417.83441162109375, 270.20779418945313, 489.55319213867188, 1 ]
			],
			"cuboid_centroid": [ -417.83441162109375, 270.20779418945313, 489.55319213867188 ],
			"projected_cuboid_centroid": [ 37.50360107421875, 397.2987060546875 ],
			"bounding_box":
			{
				"top_left": [ 380.46310424804688, 23.644599914550781 ],
				"bottom_right": [ 415.59210205078125, 49.820598602294922 ]
			},
			"cuboid": [
				[ -439.39788818359375, 275.55911254882813, 517.252197265625 ],
				[ -426.44100952148438, 294.35540771484375, 464.98348999023438 ],
				[ -404.65859985351563, 297.90350341796875, 471.65899658203125 ],
				[ -417.6156005859375, 279.10720825195313, 523.92779541015625 ],
				[ -431.01019287109375, 242.51220703125, 507.447509765625 ],
				[ -418.05331420898438, 261.30850219726563, 455.1787109375 ],
				[ -396.27090454101563, 264.85659790039063, 461.85430908203125 ],
				[ -409.22781372070313, 246.060302734375, 514.12310791015625 ]
			],
			"projected_cuboid": [
				[ 38.53179931640625, 392.3804931640625 ],
				[ 21.21980094909668, 418.05950927734375 ],
				[ 36.365398406982422, 417.69158935546875 ],
				[ 51.945899963378906, 392.37649536132813 ],
				[ 38.561500549316406, 378.34390258789063 ],
				[ 20.879899978637695, 402.96420288085938 ],
				[ 36.352001190185547, 402.80670166015625 ],
				[ 52.230998992919922, 378.5220947265625 ]
			]
		},
		{
			"class": "",
			"instance_id": 16047768,
			"visibility": 1,
			"location": [ -8.1514997482299805, -15.659000396728516, 142.13200378417969 ],
			"quaternion_xyzw": [ 0, -0.60110002756118774, 0, 0.79919999837875366 ],
			"pose_transform": [
				[ -0.96079999208450317, 0, 0.27730000019073486, 0 ],
				[ 0.27730000019073486, 0, 0.96079999208450317, 0 ],
				[ 0, -1, 0, 0 ],
				[ -8.1514997482299805, -15.659000396728516, 142.13200378417969, 1 ]
			],
			"cuboid_centroid": [ -8.2305002212524414, -63.195098876953125, 141.43400573730469 ],
			"projected_cuboid_centroid": [ 241.10260009765625, 141.61480712890625 ],
			"bounding_box":
			{
				"top_left": [ 9.2954998016357422, 179.45559692382813 ],
				"bottom_right": [ 232.39849853515625, 290.85919189453125 ]
			},
			"cuboid": [
				[ -25.062799453735352, -110.73139953613281, 171.46609497070313 ],
				[ -38.476200103759766, -110.73139953613281, 124.98870086669922 ],
				[ -38.476200103759766, -15.65880012512207, 124.98870086669922 ],
				[ -25.062799453735352, -15.65880012512207, 171.46609497070313 ],
				[ 22.015199661254883, -110.73139953613281, 157.87930297851563 ],
				[ 8.6017999649047852, -110.73139953613281, 111.40190124511719 ],
				[ 8.6017999649047852, -15.65880012512207, 111.40190124511719 ],
				[ 22.015199661254883, -15.65880012512207, 157.87930297851563 ]
			],
			"projected_cuboid": [
				[ 218.58110046386719, 90.677299499511719 ],
				[ 177.19349670410156, 29.201400756835938 ],
				[ 177.19349670410156, 223.92790222167969 ],
				[ 218.58110046386719, 232.62130737304688 ],
				[ 291.69760131835938, 76.449897766113281 ],
				[ 275.76681518554688, 1.5405999422073364 ],
				[ 275.76681518554688, 220.01629638671875 ],
				[ 291.69760131835938, 230.60940551757813 ]
			]
		}
	]
}