{
	"camera_data":
	{
		"location_worldframe": [ 0, 0, 0 ],
		"quaternion_xyzw_worldframe": [ 0, 0, 0, 1 ]
	},
	"objects": [
		{
			"class": "SM_RailRig_Mount",
			"instance_id": 16777212,
			"visibility": 1,
			"location": [ -430.40188598632813, 112.39659881591797, 378.38040161132813 ],
			"quaternion_xyzw": [ -0.74809998273849487, 0.4099000096321106, 0.23219999670982361, -0.4675000011920929 ],
			"pose_transform": [
				[ -0.7304999828338623, -0.50910001993179321, -0.45509999990463257, 0 ],
				[ 0.55620002746582031, -0.83020001649856567, 0.035900000482797623, 0 ],
				[ 0.39610001444816589, 0.22699999809265137, -0.88969999551773071, 0 ],
				[ -430.40188598632813, 112.39659881591797, 378.38040161132813, 1 ]
			],
			"cuboid_centroid": [ -430.40188598632813, 112.39659881591797, 378.38040161132813 ],
			"projected_cuboid_centroid": [ -35.196098327636719, 332.04400634765625 ],
			"bounding_box":
			{
				"top_left": [ 312.38629150390625, -60.940498352050781 ],
				"bottom_right": [ 353.90420532226563, -8.87030029296875 ]
			},
			"cuboid": [
				[ -422.92999267578125, 82.305702209472656, 361.0723876953125 ],
				[ -454.65670776367188, 129.66029357910156, 359.027587890625 ],
				[ -463.79031372070313, 124.42669677734375, 379.54129028320313 ],
				[ -432.0635986328125, 77.072196960449219, 381.58609008789063 ],
				[ -397.01348876953125, 100.36660003662109, 377.21939086914063 ],
				[ -428.7401123046875, 147.72109985351563, 375.17459106445313 ],
				[ -437.87380981445313, 142.48750305175781, 395.68829345703125 ],
				[ -406.1470947265625, 95.133003234863281, 397.73309326171875 ]
			],
			"projected_cuboid": [
				[ -43.856998443603516, 314.35470581054688 ],
				[ -68.187103271484375, 348.45260620117188 ],
				[ -56.825801849365234, 339.92559814453125 ],
				[ -33.864601135253906, 307.70651245117188 ],
				[ -13.433300018310547, 324.11380004882813 ],
				[ -36.550399780273438, 356.79730224609375 ],
				[ -27.292900085449219, 348.18569946289063 ],
				[ -5.4156999588012695, 317.23220825195313 ]
			]
		},
		{
			"class": "",
			"instance_id": 16047768,
			"visibility": 1,
			"location": [ -76.677696228027344, 65.428596496582031, 306.12631225585938 ],
			"quaternion_xyzw": [ 0, -0.50410002470016479, 0, 0.86369997262954712 ],
			"pose_transform": [
				[ -0.87070000171661377, 0, 0.49180001020431519, 0 ],
				[ 0.49180001020431519, 0, 0.87070000171661377, 0 ],
				[ 0, -1, 0, 0 ],
				[ -76.677696228027344, 65.428596496582031, 306.12631225585938, 1 ]
			],
			"cuboid_centroid": [ -76.915901184082031, 17.892499923706055, 305.46539306640625 ],
			"projected_cuboid_centroid": [ 191.53939819335938, 270.99508666992188 ],
			"bounding_box":
			{
				"top_left": [ 228.39070129394531, 162.07569885253906 ],
				"bottom_right": [ 316.96859741210938, 218.37519836425781 ]
			},
			"cuboid": [
				[ -86.353302001953125, -29.643800735473633, 338.57418823242188 ],
				[ -110.14309692382813, -29.643800735473633, 296.45379638671875 ],
				[ -110.14309692382813, 65.428901672363281, 296.45379638671875 ],
				[ -86.353302001953125, 65.428901672363281, 338.57418823242188 ],
				[ -43.688701629638672, -29.643800735473633, 314.47698974609375 ],
				[ -67.478500366210938, -29.643800735473633, 272.35659790039063 ],
				[ -67.478500366210938, 65.428901672363281, 272.35659790039063 ],
				[ -43.688701629638672, 65.428901672363281, 314.47698974609375 ]
			],
			"projected_cuboid": [
				[ 190.70730590820313, 233.58599853515625 ],
				[ 160.88690185546875, 230.40139770507813 ],
				[ 160.88690185546875, 312.50048828125 ],
				[ 190.70730590820313, 305.47158813476563 ],
				[ 220.43519592285156, 231.86849975585938 ],
				[ 192.57400512695313, 228.13650512695313 ],
				[ 192.57400512695313, 317.49951171875 ],
				[ 220.43519592285156, 309.26239013671875 ]
			]
		}
	]
}