{
	"camera_data":
	{
		"location_worldframe": [ 0, 0, 0 ],
		"quaternion_xyzw_worldframe": [ 0, 0, 0, 1 ]
	},
	"objects": [
		{
			"class": "SM_RailRig_Mount",
			"instance_id": 16777212,
			"visibility": 1,
			"location": [ -391.17950439453125, 263.07870483398438, 532.8406982421875 ],
			"quaternion_xyzw": [ -0.40200001001358032, 0.61890000104904175, -0.6744999885559082, -0.018899999558925629 ],
			"pose_transform": [
				[ 0.51889997720718384, -0.85019999742507935, -0.089299999177455902, 0 ],
				[ -0.67610001564025879, -0.47209998965263367, 0.5656999945640564, 0 ],
				[ 0.52310001850128174, 0.23309999704360962, 0.81970000267028809, 0 ],
				[ -391.17950439453125, 263.07870483398438, 532.8406982421875, 1 ]
			],
			"cuboid_centroid": [ -391.17950439453125, 263.07870483398438, 532.8406982421875 ],
			"projected_cuboid_centroid": [ 68.060203552246094, 382.39450073242188 ],
			"bounding_box":
			{
				"top_left": [ 367.43389892578125, 55.775001525878906 ],
				"bottom_right": [ 398.41510009765625, 78.572402954101563 ]
			},
			"cuboid": [
				[ -395.22500610351563, 237.222900390625, 556.83990478515625 ],
				[ -356.6636962890625, 264.1494140625, 524.5723876953125 ],
				[ -368.72579956054688, 258.7738037109375, 505.67181396484375 ],
				[ -407.287109375, 231.84730529785156, 537.93939208984375 ],
				[ -413.63330078125, 267.38369750976563, 560.00970458984375 ],
				[ -375.0718994140625, 294.31021118164063, 527.74200439453125 ],
				[ -387.13400268554688, 288.93460083007813, 508.84149169921875 ],
				[ -425.6953125, 262.00808715820313, 541.1090087890625 ]
			],
			"projected_cuboid": [
				[ 74.300399780273438, 365.06021118164063 ],
				[ 81.94219970703125, 384.9093017578125 ],
				[ 69.329902648925781, 387.006103515625 ],
				[ 62.176101684570313, 366.33380126953125 ],
				[ 66.9136962890625, 378.23049926757813 ],
				[ 74.057998657226563, 398.76559448242188 ],
				[ 61.231399536132813, 401.36410522460938 ],
				[ 54.602500915527344, 379.95669555664063 ]
			]
		},
		{
			"class": "",
			"instance_id": 16047768,
			"visibility": 1,
			"location": [ -13.394599914550781, -64.2322998046875, 280.03298950195313 ],
			"quaternion_xyzw": [ 0, 0.97039997577667236, 0, 0.24169999361038208 ],
			"pose_transform": [
				[ 0.46900001168251038, 0, -0.88319998979568481, 0 ],
				[ -0.88319998979568481, 0, -0.46900001168251038, 0 ],
				[ 0, -1, 0, 0 ],
				[ -13.394599914550781, -64.2322998046875, 280.03298950195313, 1 ]
			],
			"cuboid_centroid": [ -12.838100433349609, -111.76840209960938, 280.46170043945313 ],
			"projected_cuboid_centroid": [ 244.28160095214844, 153.97999572753906 ],
			"bounding_box":
			{
				"top_left": [ 114.81449890136719, 216.92599487304688 ],
				"bottom_right": [ 203.14799499511719, 273.98300170898438 ]
			},
			"cuboid": [
				[ -22.70829963684082, -159.30470275878906, 247.47940063476563 ],
				[ 20.014799118041992, -159.30470275878906, 270.16891479492188 ],
				[ 20.014799118041992, -64.232101440429688, 270.16891479492188 ],
				[ -22.70829963684082, -64.232101440429688, 247.47940063476563 ],
				[ -45.691001892089844, -159.30470275878906, 290.75448608398438 ],
				[ -2.9679000377655029, -159.30470275878906, 313.44400024414063 ],
				[ -2.9679000377655029, -64.232101440429688, 313.44400024414063 ],
				[ -45.691001892089844, -64.232101440429688, 290.75448608398438 ]
			],
			"projected_cuboid": [
				[ 232.50990295410156, 91.210502624511719 ],
				[ 274.965087890625, 105.05000305175781 ],
				[ 274.965087890625, 195.1365966796875 ],
				[ 232.50990295410156, 189.55650329589844 ],
				[ 215.77059936523438, 115.73729705810547 ],
				[ 253.57600402832031, 125.89060211181641 ],
				[ 253.57600402832031, 203.53959655761719 ],
				[ 215.77059936523438, 199.44569396972656 ]
			]
		}
	]
}