{
	"camera_data":
	{
		"location_worldframe": [ 0, 0, 0 ],
		"quaternion_xyzw_worldframe": [ 0, 0, 0, 1 ]
	},
	"objects": [
		{
			"class": "SM_RailRig_Mount",
			"instance_id": 16777212,
			"visibility": 1,
			"location": [ -461.03030395507813, 243.16229248046875, 410.51638793945313 ],
			"quaternion_xyzw": [ 0.01940000057220459, -0.18050000071525574, -0.89679998159408569, 0.4034000039100647 ],
			"pose_transform": [
				[ -0.18029999732971191, 0.30809998512268066, 0.93409997224807739, 0 ],
				[ -0.67379999160766602, -0.7304999828338623, 0.11089999973773956, 0 ],
				[ -0.71660000085830688, 0.60939997434616089, -0.33939999341964722, 0 ],
				[ -461.03030395507813, 243.16229248046875, 410.51638793945313, 1 ]
			],
			"cuboid_centroid": [ -461.03030395507813, 243.16229248046875, 410.51638793945313 ],
			"projected_cuboid_centroid": [ -31.500799179077148, 407.63720703125 ],
			"bounding_box":
			{
				"top_left": [ 390.36151123046875, -53.777301788330078 ],
				"bottom_right": [ 428.2379150390625, -8.3598003387451172 ]
			},
			"cuboid": [
				[ -491.70590209960938, 234.82000732421875, 426.33621215820313 ],
				[ -453.27359008789063, 276.48721313476563, 420.01058959960938 ],
				[ -436.75189208984375, 262.43609619140625, 427.83499145507813 ],
				[ -475.1842041015625, 220.76890563964844, 434.16070556640625 ],
				[ -485.30868530273438, 223.88859558105469, 393.19769287109375 ],
				[ -446.87631225585938, 265.5557861328125, 386.87200927734375 ],
				[ -430.35470581054688, 251.50459289550781, 394.69650268554688 ],
				[ -468.7869873046875, 209.83740234375, 401.02218627929688 ]
			],
			"projected_cuboid": [
				[ -39.252300262451172, 397.00119018554688 ],
				[ -20.274099349975586, 424.52130126953125 ],
				[ -5.3354997634887695, 413.03170776367188 ],
				[ -24.189199447631836, 386.17489624023438 ],
				[ -59.970901489257813, 401.76760864257813 ],
				[ -39.706001281738281, 431.722900390625 ],
				[ -23.127899169921875, 419.12579345703125 ],
				[ -43.258899688720703, 389.95361328125 ]
			]
		},
		{
			"class": "",
			"instance_id": 16047768,
			"visibility": 1,
			"location": [ 37.962001800537109, 0.96130001544952393, 234.74960327148438 ],
			"quaternion_xyzw": [ 0, -0.64789998531341553, 0, 0.76169997453689575 ],
			"pose_transform": [
				[ -0.9869999885559082, 0, 0.16040000319480896, 0 ],
				[ 0.16040000319480896, 0, 0.9869999885559082, 0 ],
				[ 0, -1, 0, 0 ],
				[ 37.962001800537109, 0.96130001544952393, 234.74960327148438, 1 ]
			],
			"cuboid_centroid": [ 37.966999053955078, -46.574798583984375, 234.04719543457031 ],
			"projected_cuboid_centroid": [ 297.5281982421875, 205.05670166015625 ],
			"bounding_box":
			{
				"top_left": [ 141.07589721679688, 268.01168823242188 ],
				"bottom_right": [ 257.3037109375, 327.8262939453125 ]
			},
			"cuboid": [
				[ 17.664800643920898, -94.111099243164063, 261.85140991210938 ],
				[ 9.9043998718261719, -94.111099243164063, 214.10360717773438 ],
				[ 9.9043998718261719, 0.96160000562667847, 214.10360717773438 ],
				[ 17.664800643920898, 0.96160000562667847, 261.85140991210938 ],
				[ 66.02960205078125, -94.111099243164063, 253.99070739746094 ],
				[ 58.269100189208984, -94.111099243164063, 206.24290466308594 ],
				[ 58.269100189208984, 0.96160000562667847, 206.24290466308594 ],
				[ 66.02960205078125, 0.96160000562667847, 253.99070739746094 ]
			],
			"projected_cuboid": [
				[ 273.27011108398438, 163.99200439453125 ],
				[ 267.84249877929688, 143.47300720214844 ],
				[ 267.84249877929688, 257.14968872070313 ],
				[ 273.27011108398438, 256.94009399414063 ],
				[ 322.552001953125, 161.14439392089844 ],
				[ 328.326904296875, 139.1842041015625 ],
				[ 328.326904296875, 257.193603515625 ],
				[ 322.552001953125, 256.96920776367188 ]
			]
		}
	]
}