{
	"camera_data":
	{
		"location_worldframe": [ 0, 0, 0 ],
		"quaternion_xyzw_worldframe": [ 0, 0, 0, 1 ]
	},
	"objects": [
		{
			"class": "SM_RailRig_Mount",
			"instance_id": 16777212,
			"visibility": 1,
			"location": [ -363.46258544921875, 162.69720458984375, 523.14801025390625 ],
			"quaternion_xyzw": [ 0.1453000009059906, 0.23549999296665192, 0.53570002317428589, 0.79780000448226929 ],
			"pose_transform": [
				[ 0.53149998188018799, 0.020500000566244125, 0.84680002927780151, 0 ],
				[ 0.31510001420974731, 0.92320001125335693, -0.22010000050067902, 0 ],
				[ 0.78630000352859497, -0.38379999995231628, -0.48420000076293945, 0 ],
				[ -363.46258544921875, 162.69720458984375, 523.14801025390625, 1 ]
			],
			"cuboid_centroid": [ -363.46258544921875, 162.69720458984375, 523.14801025390625 ],
			"projected_cuboid_centroid": [ 78.14129638671875, 335.6151123046875 ],
			"bounding_box":
			{
				"top_left": [ 319.97250366210938, 64.268898010253906 ],
				"bottom_right": [ 351.05868530273438, 88.776496887207031 ]
			},
			"cuboid": [
				[ -335.98458862304688, 184.96420288085938, 526.309326171875 ],
				[ -353.955810546875, 132.30859375, 538.864501953125 ],
				[ -372.08511352539063, 141.15809631347656, 550.0286865234375 ],
				[ -354.11380004882813, 193.81370544433594, 537.4735107421875 ],
				[ -354.8402099609375, 184.23640441894531, 496.26730346679688 ],
				[ -372.8114013671875, 131.58079528808594, 508.822509765625 ],
				[ -390.94070434570313, 140.4302978515625, 519.9866943359375 ],
				[ -372.96939086914063, 193.08590698242188, 507.43148803710938 ]
			],
			"projected_cuboid": [
				[ 92.575103759765625, 345.96771240234375 ],
				[ 87.845100402832031, 318.85629272460938 ],
				[ 82.820297241210938, 321.69931030273438 ],
				[ 87.334701538085938, 348.31399536132813 ],
				[ 72.955299377441406, 351.03860473632813 ],
				[ 68.430198669433594, 322.20120239257813 ],
				[ 63.532001495361328, 325.13668823242188 ],
				[ 67.8363037109375, 353.412109375 ]
			]
		},
		{
			"class": "",
			"instance_id": 16047768,
			"visibility": 1,
			"location": [ 96.887100219726563, -98.345901489257813, 260.6781005859375 ],
			"quaternion_xyzw": [ 0, -0.18310000002384186, 0, 0.98309999704360962 ],
			"pose_transform": [
				[ -0.36000001430511475, 0, 0.93300002813339233, 0 ],
				[ 0.93300002813339233, 0, 0.36000001430511475, 0 ],
				[ 0, -1, 0, 0 ],
				[ 96.887100219726563, -98.345901489257813, 260.6781005859375, 1 ]
			],
			"cuboid_centroid": [ 96.283302307128906, -145.88200378417969, 260.31900024414063 ],
			"projected_cuboid_centroid": [ 350.6859130859375, 112.53839874267578 ],
			"bounding_box":
			{
				"top_left": [ 40.806999206542969, 317.6033935546875 ],
				"bottom_right": [ 168.6968994140625, 385.62368774414063 ]
			},
			"cuboid": [
				[ 110.02909851074219, -193.41830444335938, 291.88339233398438 ],
				[ 64.898101806640625, -193.41830444335938, 274.46890258789063 ],
				[ 64.898101806640625, -98.345703125, 274.46890258789063 ],
				[ 110.02909851074219, -98.345703125, 291.88339233398438 ],
				[ 127.66860198974609, -193.41830444335938, 246.16920471191406 ],
				[ 82.53759765625, -193.41830444335938, 228.75469970703125 ],
				[ 82.53759765625, -98.345703125, 228.75469970703125 ],
				[ 127.66860198974609, -98.345703125, 246.16920471191406 ]
			],
			"projected_cuboid": [
				[ 352.50241088867188, 86.360000610351563 ],
				[ 316.53109741210938, 75.596702575683594 ],
				[ 316.53109741210938, 164.27200317382813 ],
				[ 352.50241088867188, 169.74470520019531 ],
				[ 388.76708984375, 54.857498168945313 ],
				[ 348.36810302734375, 39.544998168945313 ],
				[ 348.36810302734375, 145.94110107421875 ],
				[ 388.76708984375, 153.72689819335938 ]
			]
		}
	]
}