{
	"camera_data":
	{
		"location_worldframe": [ 0, 0, 0 ],
		"quaternion_xyzw_worldframe": [ 0, 0, 0, 1 ]
	},
	"objects": [
		{
			"class": "SM_RailRig_Mount",
			"instance_id": 16777212,
			"visibility": 1,
			"location": [ -477.16241455078125, 237.20509338378906, 461.54949951171875 ],
			"quaternion_xyzw": [ 0.25970000028610229, -0.22120000422000885, -0.93769997358322144, 0.065399996936321259 ],
			"pose_transform": [
				[ -0.51599997282028198, 0.38080000877380371, 0.76730000972747803, 0 ],
				[ -0.85659998655319214, -0.23759999871253967, -0.45809999108314514, 0 ],
				[ -0.007799999788403511, 0.8935999870300293, -0.44879999756813049, 0 ],
				[ -477.16241455078125, 237.20509338378906, 461.54949951171875, 1 ]
			],
			"cuboid_centroid": [ -477.16241455078125, 237.20509338378906, 461.54949951171875 ],
			"projected_cuboid_centroid": [ -8.6597995758056641, 387.56671142578125 ],
			"bounding_box":
			{
				"top_left": [ 380.22149658203125, -34.894100189208984 ],
				"bottom_right": [ 394.92520141601563, 12.370599746704102 ]
			},
			"cuboid": [
				[ -510.83270263671875, 247.48770141601563, 456.92050170898438 ],
				[ -461.97760009765625, 261.0369873046875, 483.05108642578125 ],
				[ -461.79791259765625, 240.43310546875, 493.39859008789063 ],
				[ -510.65301513671875, 226.88389587402344, 467.26809692382813 ],
				[ -492.52679443359375, 233.97709655761719, 429.70028686523438 ],
				[ -443.67169189453125, 247.52639770507813, 455.83090209960938 ],
				[ -443.49200439453125, 226.92250061035156, 466.17840576171875 ],
				[ -492.34710693359375, 213.37319946289063, 440.04791259765625 ]
			],
			"projected_cuboid": [
				[ -30.205600738525391, 394.66061401367188 ],
				[ 11.16819953918457, 394.34039306640625 ],
				[ 16.395999908447266, 380.74880981445313 ],
				[ -23.769100189208984, 380.30178833007813 ],
				[ -37.429798126220703, 395.39520263671875 ],
				[ 6.828700065612793, 395.01370239257813 ],
				[ 12.458100318908691, 380.61358642578125 ],
				[ -30.425399780273438, 380.13088989257813 ]
			]
		},
		{
			"class": "",
			"instance_id": 16047768,
			"visibility": 1,
			"location": [ 44.383098602294922, 66.55780029296875, 285.81930541992188 ],
			"quaternion_xyzw": [ 0, 0.098399996757507324, 0, 0.99510002136230469 ],
			"pose_transform": [
				[ 0.19589999318122864, 0, 0.98059999942779541, 0 ],
				[ 0.98059999942779541, 0, -0.19589999318122864, 0 ],
				[ 0, -1, 0, 0 ],
				[ 44.383098602294922, 66.55780029296875, 285.81930541992188, 1 ]
			],
			"cuboid_centroid": [ 43.680900573730469, 19.021699905395508, 285.839599609375 ],
			"projected_cuboid_centroid": [ 295.12091064453125, 273.0360107421875 ],
			"bounding_box":
			{
				"top_left": [ 227.62710571289063, 271.04391479492188 ],
				"bottom_right": [ 321.79290771484375, 318.26071166992188 ]
			},
			"cuboid": [
				[ 72.199699401855469, -28.51460075378418, 305.12509155273438 ],
				[ 24.763099670410156, -28.51460075378418, 314.60369873046875 ],
				[ 24.763099670410156, 66.558097839355469, 314.60369873046875 ],
				[ 72.199699401855469, 66.558097839355469, 305.12509155273438 ],
				[ 62.598701477050781, -28.51460075378418, 257.07550048828125 ],
				[ 15.161999702453613, -28.51460075378418, 266.55419921875 ],
				[ 15.161999702453613, 66.558097839355469, 266.55419921875 ],
				[ 62.598701477050781, 66.558097839355469, 257.07550048828125 ]
			],
			"projected_cuboid": [
				[ 316.57559204101563, 232.0762939453125 ],
				[ 276.15029907226563, 232.79710388183594 ],
				[ 276.15029907226563, 310.1597900390625 ],
				[ 316.57559204101563, 311.84219360351563 ],
				[ 318.3367919921875, 227.60470581054688 ],
				[ 270.56170654296875, 228.61439514160156 ],
				[ 270.56170654296875, 319.92269897460938 ],
				[ 318.3367919921875, 322.27960205078125 ]
			]
		}
	]
}