{
	"camera_data":
	{
		"location_worldframe": [ 0, 0, 0 ],
		"quaternion_xyzw_worldframe": [ 0, 0, 0, 1 ]
	},
	"objects": [
		{
			"class": "SM_RailRig_Mount",
			"instance_id": 16777212,
			"visibility": 1,
			"location": [ -363.7373046875, 192.97160339355469, 546.073486328125 ],
			"quaternion_xyzw": [ -0.20949999988079071, 0.9757000207901001, -0.063699997961521149, 0.0065999999642372131 ],
			"pose_transform": [
				[ 0.039500001817941666, -0.12150000035762787, -0.99180001020431519, 0 ],
				[ -0.91210001707077026, -0.40970000624656677, 0.013899999670684338, 0 ],
				[ 0.40799999237060547, -0.90410000085830688, 0.12700000405311584, 0 ],
				[ -363.7373046875, 192.97160339355469, 546.073486328125, 1 ]
			],
			"cuboid_centroid": [ -363.7373046875, 192.97160339355469, 546.073486328125 ],
			"projected_cuboid_centroid": [ 85.479400634765625, 346.46530151367188 ],
			"bounding_box":
			{
				"top_left": [ 336.48980712890625, 68.565299987792969 ],
				"bottom_right": [ 357.67291259765625, 102.43270111083984 ]
			},
			"cuboid": [
				[ -384.3446044921875, 168.70970153808594, 530.339599609375 ],
				[ -332.32089233398438, 192.07890319824219, 529.5487060546875 ],
				[ -341.72930908203125, 212.92439270019531, 526.62139892578125 ],
				[ -393.75299072265625, 189.55520629882813, 527.41229248046875 ],
				[ -385.74530029296875, 173.018798828125, 565.52569580078125 ],
				[ -333.72158813476563, 196.38800048828125, 564.73480224609375 ],
				[ -343.1300048828125, 217.23350524902344, 561.80731201171875 ],
				[ -395.1536865234375, 193.86430358886719, 562.59820556640625 ]
			],
			"projected_cuboid": [
				[ 70.473197937011719, 337.43780517578125 ],
				[ 95.346000671386719, 348.8568115234375 ],
				[ 89.879302978515625, 359.50640869140625 ],
				[ 64.876701354980469, 348.00799560546875 ],
				[ 81.382301330566406, 334.32150268554688 ],
				[ 104.72059631347656, 345.02468872070313 ],
				[ 99.64520263671875, 354.9873046875 ],
				[ 76.192596435546875, 344.21438598632813 ]
			]
		},
		{
			"class": "",
			"instance_id": 16047768,
			"visibility": 1,
			"location": [ -35.599800109863281, 16.84320068359375, 277.847900390625 ],
			"quaternion_xyzw": [ 0, 0.72469997406005859, 0, 0.68910002708435059 ],
			"pose_transform": [
				[ 0.99870002269744873, 0, -0.050400000065565109, 0 ],
				[ -0.050400000065565109, 0, -0.99870002269744873, 0 ],
				[ 0, -1, 0, 0 ],
				[ -35.599800109863281, 16.84320068359375, 277.847900390625, 1 ]
			],
			"cuboid_centroid": [ -35.682498931884766, -30.692899703979492, 278.54550170898438 ],
			"projected_cuboid_centroid": [ 223.20570373535156, 227.79139709472656 ],
			"bounding_box":
			{
				"top_left": [ 178.49560546875, 195.6470947265625 ],
				"bottom_right": [ 272.99868774414063, 247.44639587402344 ]
			},
			"cuboid": [
				[ -12.432000160217285, -78.229202270507813, 253.15510559082031 ],
				[ -9.9956998825073242, -78.229202270507813, 301.46810913085938 ],
				[ -9.9956998825073242, 16.843399047851563, 301.46810913085938 ],
				[ -12.432000160217285, 16.843399047851563, 253.15510559082031 ],
				[ -61.36920166015625, -78.229202270507813, 255.622802734375 ],
				[ -58.932899475097656, -78.229202270507813, 303.935791015625 ],
				[ -58.932899475097656, 16.843399047851563, 303.935791015625 ],
				[ -61.36920166015625, 16.843399047851563, 255.622802734375 ]
			],
			"projected_cuboid": [
				[ 243.42829895019531, 176.8916015625 ],
				[ 247.51190185546875, 189.56950378417969 ],
				[ 247.51190185546875, 270.3031005859375 ],
				[ 243.42829895019531, 273.03271484375 ],
				[ 194.54029846191406, 177.65530395507813 ],
				[ 206.36180114746094, 190.10879516601563 ],
				[ 206.36180114746094, 270.1868896484375 ],
				[ 194.54029846191406, 272.8682861328125 ]
			]
		}
	]
}