{
	"camera_data":
	{
		"location_worldframe": [ 0, 0, 0 ],
		"quaternion_xyzw_worldframe": [ 0, 0, 0, 1 ]
	},
	"objects": [
		{
			"class": "",
			"instance_id": 16047768,
			"visibility": 1,
			"location": [ -35.599800109863281, 16.84320068359375, 277.847900390625 ],
			"quaternion_xyzw": [ 0, 0.72469997406005859, 0, 0.68910002708435059 ],
			"pose_transform": [
				[ 0.99870002269744873, 0, -0.050400000065565109, 0 ],
				[ -0.050400000065565109, 0, -0.99870002269744873, 0 ],
				[ 0, -1, 0, 0 ],
				[ -35.599800109863281, 16.84320068359375, 277.847900390625, 1 ]
			],
			"cuboid_centroid": [ -35.682498931884766, -30.692899703979492, 278.54550170898438 ],
			"projected_cuboid_centroid": [ 223.20570373535156, 227.79139709472656 ],
			"bounding_box":
			{
				"top_left": [ 178.49560546875, 195.6470947265625 ],
				"bottom_right": [ 272.99868774414063, 247.44639587402344 ]
			},
			"cuboid": [
				[ -12.432000160217285, -78.229202270507813, 253.15510559082031 ],
				[ -9.9956998825073242, -78.229202270507813, 301.46810913085938 ],
				[ -9.9956998825073242, 16.843399047851563, 301.46810913085938 ],
				[ -12.432000160217285, 16.843399047851563, 253.15510559082031 ],
				[ -61.36920166015625, -78.229202270507813, 255.622802734375 ],
				[ -58.932899475097656, -78.229202270507813, 303.935791015625 ],
				[ -58.932899475097656, 16.843399047851563, 303.935791015625 ],
				[ -61.36920166015625, 16.843399047851563, 255.622802734375 ]
			],
			"projected_cuboid": [
				[ 243.42829895019531, 176.8916015625 ],
				[ 247.51190185546875, 189.56950378417969 ],
				[ 247.51190185546875, 270.3031005859375 ],
				[ 243.42829895019531, 273.03271484375 ],
				[ 194.54029846191406, 177.65530395507813 ],
				[ 206.36180114746094, 190.10879516601563 ],
				[ 206.36180114746094, 270.1868896484375 ],
				[ 194.54029846191406, 272.8682861328125 ]
			]
		}
	]
}