{
	"camera_data":
	{
		"location_worldframe": [ 0, 0, 0 ],
		"quaternion_xyzw_worldframe": [ 0, 0, 0, 1 ]
	},
	"objects": [
		{
			"class": "SM_RailRig_Mount",
			"instance_id": 16777212,
			"visibility": 1,
			"location": [ -452.91848754882813, 130.94580078125, 547.56890869140625 ],
			"quaternion_xyzw": [ -0.48359999060630798, 0.55169999599456787, -0.48390001058578491, -0.47710001468658447 ],
			"pose_transform": [
				[ -0.058499999344348907, -0.99540001153945923, -0.076499998569488525, 0 ],
				[ -0.077100001275539398, -0.071900002658367157, 0.9944000244140625, 0 ],
				[ 0.99529999494552612, -0.064000003039836884, 0.072499997913837433, 0 ],
				[ -452.91848754882813, 130.94580078125, 547.56890869140625, 1 ]
			],
			"cuboid_centroid": [ -452.91848754882813, 130.94580078125, 547.56890869140625 ],
			"projected_cuboid_centroid": [ 44.2510986328125, 317.21990966796875 ],
			"bounding_box":
			{
				"top_left": [ 306.73110961914063, 30.017799377441406 ],
				"bottom_right": [ 329.26019287109375, 57.823299407958984 ]
			},
			"cuboid": [
				[ -444.67849731445313, 110.50199890136719, 575.40789794921875 ],
				[ -440.28329467773438, 114.60160064697266, 518.6885986328125 ],
				[ -463.23220825195313, 116.07779693603516, 517.01690673828125 ],
				[ -467.62741088867188, 111.97810363769531, 573.736328125 ],
				[ -442.60479736328125, 145.81379699707031, 578.12091064453125 ],
				[ -438.20950317382813, 149.91340637207031, 521.401611328125 ],
				[ -461.15838623046875, 151.38960266113281, 519.72991943359375 ],
				[ -465.5537109375, 147.28990173339844, 576.44927978515625 ]
			],
			"projected_cuboid": [
				[ 58.161701202392578, 305.16250610351563 ],
				[ 38.697101593017578, 312.5618896484375 ],
				[ 26.631399154663086, 313.4757080078125 ],
				[ 47.345600128173828, 305.96438598632813 ],
				[ 60.008399963378906, 320.56838989257813 ],
				[ 40.846000671386719, 329.60519409179688 ],
				[ 28.850200653076172, 330.56900024414063 ],
				[ 49.248500823974609, 321.41119384765625 ]
			]
		},
		{
			"class": "",
			"instance_id": 16047768,
			"visibility": 1,
			"location": [ 40.604900360107422, -39.854099273681641, 167.59669494628906 ],
			"quaternion_xyzw": [ 0, -0.43220001459121704, 0, 0.90179997682571411 ],
			"pose_transform": [
				[ -0.77950000762939453, 0, 0.62639999389648438, 0 ],
				[ 0.62639999389648438, 0, 0.77950000762939453, 0 ],
				[ 0, -1, 0, 0 ],
				[ 40.604900360107422, -39.854099273681641, 167.59669494628906, 1 ]
			],
			"cuboid_centroid": [ 40.262798309326172, -87.39019775390625, 166.98309326171875 ],
			"projected_cuboid_centroid": [ 317.72640991210938, 122.02300262451172 ],
			"bounding_box":
			{
				"top_left": [ 1.8076000213623047, 267.25021362304688 ],
				"bottom_right": [ 204.50810241699219, 366.20059204101563 ]
			},
			"cuboid": [
				[ 36.316398620605469, -134.92649841308594, 201.18370056152344 ],
				[ 6.0142998695373535, -134.92649841308594, 163.4761962890625 ],
				[ 6.0142998695373535, -39.853900909423828, 163.4761962890625 ],
				[ 36.316398620605469, -39.853900909423828, 201.18370056152344 ],
				[ 74.511199951171875, -134.92649841308594, 170.49009704589844 ],
				[ 44.209098815917969, -134.92649841308594, 132.78250122070313 ],
				[ 44.209098815917969, -39.853900909423828, 132.78250122070313 ],
				[ 74.511199951171875, -39.853900909423828, 170.49009704589844 ]
			],
			"projected_cuboid": [
				[ 302.21148681640625, 84.310203552246094 ],
				[ 265.41830444335938, 44.708099365234375 ],
				[ 265.41830444335938, 193.58970642089844 ],
				[ 302.21148681640625, 205.28720092773438 ],
				[ 367.88259887695313, 53.400600433349609 ],
				[ 341.23361206054688, -4.1336002349853516 ],
				[ 341.23361206054688, 179.16310119628906 ],
				[ 367.88259887695313, 196.15719604492188 ]
			]
		}
	]
}