{
	"camera_data":
	{
		"location_worldframe": [ 0, 0, 0 ],
		"quaternion_xyzw_worldframe": [ 0, 0, 0, 1 ]
	},
	"objects": [
		{
			"class": "SM_RailRig_Mount",
			"instance_id": 16777212,
			"visibility": 1,
			"location": [ -378.38009643554688, 276.07958984375, 439.802001953125 ],
			"quaternion_xyzw": [ -0.37869998812675476, -0.4203999936580658, 0.57749998569488525, 0.58859997987747192 ],
			"pose_transform": [
				[ -0.93220001459121704, -0.039799999445676804, 0.35980001091957092, 0 ],
				[ -0.020400000736117363, 0.99809998273849487, 0.057500001043081284, 0 ],
				[ 0.36149999499320984, -0.046199999749660492, 0.93120002746582031, 0 ],
				[ -378.38009643554688, 276.07958984375, 439.802001953125, 1 ]
			],
			"cuboid_centroid": [ -378.38009643554688, 276.07958984375, 439.802001953125 ],
			"projected_cuboid_centroid": [ 35.752498626708984, 416.70050048828125 ],
			"bounding_box":
			{
				"top_left": [ 396.6942138671875, 21.110099792480469 ],
				"bottom_right": [ 435.50479125976563, 45.945400238037109 ]
			},
			"cuboid": [
				[ -391.3302001953125, 303.30670166015625, 458.5592041015625 ],
				[ -390.16571044921875, 246.37590026855469, 455.28240966796875 ],
				[ -398.49990844726563, 247.44129943847656, 433.810791015625 ],
				[ -399.664306640625, 304.37210083007813, 437.08758544921875 ],
				[ -358.26019287109375, 304.7178955078125, 445.793212890625 ],
				[ -357.09579467773438, 247.78709411621094, 442.51638793945313 ],
				[ -365.42990112304688, 248.85249328613281, 421.04470825195313 ],
				[ -366.59439086914063, 305.78329467773438, 424.32159423828125 ]
			],
			"projected_cuboid": [
				[ 37.532001495361328, 425.32708740234375 ],
				[ 36.614299774169922, 394.5343017578125 ],
				[ 20.837600708007813, 402.01980590820313 ],
				[ 21.918600082397461, 434.269287109375 ],
				[ 50.266498565673828, 430.98651123046875 ],
				[ 49.416599273681641, 399.34719848632813 ],
				[ 33.814399719238281, 407.30520629882813 ],
				[ 34.827701568603516, 440.4840087890625 ]
			]
		},
		{
			"class": "",
			"instance_id": 16047768,
			"visibility": 1,
			"location": [ 71.141700744628906, -92.889198303222656, 221.21159362792969 ],
			"quaternion_xyzw": [ 0, 0.8619999885559082, 0, 0.50690001249313354 ],
			"pose_transform": [
				[ 0.87400001287460327, 0, -0.48600000143051147, 0 ],
				[ -0.48600000143051147, 0, -0.87400001287460327, 0 ],
				[ 0, -1, 0, 0 ],
				[ 71.141700744628906, -92.889198303222656, 221.21159362792969, 1 ]
			],
			"cuboid_centroid": [ 71.375503540039063, -140.42529296875, 221.87399291992188 ],
			"projected_cuboid_centroid": [ 338.35360717773438, 93.9761962890625 ],
			"bounding_box":
			{
				"top_left": [ 29.922000885009766, 303.52490234375 ],
				"bottom_right": [ 161.78900146484375, 371.71200561523438 ]
			},
			"cuboid": [
				[ 81.031700134277344, -187.96159362792969, 188.82839965820313 ],
				[ 104.54229736328125, -187.96159362792969, 231.10519409179688 ],
				[ 104.54229736328125, -92.888999938964844, 231.10519409179688 ],
				[ 81.031700134277344, -92.888999938964844, 188.82839965820313 ],
				[ 38.208599090576172, -187.96159362792969, 212.64280700683594 ],
				[ 61.719200134277344, -187.96159362792969, 254.91960144042969 ],
				[ 61.719200134277344, -92.888999938964844, 254.91960144042969 ],
				[ 38.208599090576172, -92.888999938964844, 212.64280700683594 ]
			],
			"projected_cuboid": [
				[ 365.85690307617188, 1.1751999855041504 ],
				[ 371.8037109375, 47.791000366210938 ],
				[ 371.8037109375, 153.10499572753906 ],
				[ 365.85690307617188, 130.06779479980469 ],
				[ 301.99920654296875, 29.713600158691406 ],
				[ 317.98080444335938, 67.241798400878906 ],
				[ 317.98080444335938, 162.7174072265625 ],
				[ 301.99920654296875, 144.17129516601563 ]
			]
		}
	]
}