{
	"camera_data":
	{
		"location_worldframe": [ 0, 0, 0 ],
		"quaternion_xyzw_worldframe": [ 0, 0, 0, 1 ]
	},
	"objects": [
		{
			"class": "",
			"instance_id": 16047768,
			"visibility": 1,
			"location": [ -18.32029914855957, -66.142799377441406, 239.93170166015625 ],
			"quaternion_xyzw": [ 0, 0.99320000410079956, 0, -0.11649999767541885 ],
			"pose_transform": [
				[ -0.23139999806880951, 0, -0.97280001640319824, 0 ],
				[ -0.97280001640319824, 0, 0.23139999806880951, 0 ],
				[ 0, -1, 0, 0 ],
				[ -18.32029914855957, -66.142799377441406, 239.93170166015625, 1 ]
			],
			"cuboid_centroid": [ -17.619300842285156, -113.67880249023438, 239.88580322265625 ],
			"projected_cuboid_centroid": [ 237.19720458984375, 134.68490600585938 ],
			"bounding_box":
			{
				"top_left": [ 94.274200439453125, 202.86909484863281 ],
				"bottom_right": [ 192.67289733886719, 266.7620849609375 ]
			},
			"cuboid": [
				[ -46.819900512695313, -161.21519470214844, 221.64920043945313 ],
				[ 0.24099999666213989, -161.21519470214844, 210.45350646972656 ],
				[ 0.24099999666213989, -66.142501831054688, 210.45350646972656 ],
				[ -46.819900512695313, -66.142501831054688, 221.64920043945313 ],
				[ -35.479598999023438, -161.21519470214844, 269.31820678710938 ],
				[ 11.581399917602539, -161.21519470214844, 258.12249755859375 ],
				[ 11.581399917602539, -66.142501831054688, 258.12249755859375 ],
				[ -35.479598999023438, -66.142501831054688, 269.31820678710938 ]
			],
			"projected_cuboid": [
				[ 201.92399597167969, 69.799896240234375 ],
				[ 256.293212890625, 59.894500732421875 ],
				[ 256.293212890625, 175.54289245605469 ],
				[ 201.92399597167969, 179.60679626464844 ],
				[ 222.27490234375, 102.75710296630859 ],
				[ 267.4862060546875, 96.110496520996094 ],
				[ 267.4862060546875, 190.40139770507813 ],
				[ 222.27490234375, 193.1282958984375 ]
			]
		}
	]
}