{
	"camera_data":
	{
		"location_worldframe": [ 0, 0, 0 ],
		"quaternion_xyzw_worldframe": [ 0, 0, 0, 1 ]
	},
	"objects": [
		{
			"class": "SM_RailRig_Mount",
			"instance_id": 16777212,
			"visibility": 1,
			"location": [ -515.54248046875, 258.78781127929688, 478.86569213867188 ],
			"quaternion_xyzw": [ 0.035799998790025711, 0.82980000972747803, 0.55330002307891846, 0.06289999932050705 ],
			"pose_transform": [
				[ 0.14399999380111694, 0.91380000114440918, -0.37970000505447388, 0 ],
				[ -0.98949998617172241, 0.1289999932050705, -0.064800001680850983, 0 ],
				[ 0.010200000368058681, -0.38499999046325684, -0.92280000448226929, 0 ],
				[ -515.54248046875, 258.78781127929688, 478.86569213867188, 1 ]
			],
			"cuboid_centroid": [ -515.54248046875, 258.78781127929688, 478.86569213867188 ],
			"projected_cuboid_centroid": [ -19.6072998046875, 394.34710693359375 ],
			"bounding_box":
			{
				"top_left": [ 381.71240234375, -41.859600067138672 ],
				"bottom_right": [ 406.39169311523438, -0.29890000820159912 ]
			},
			"cuboid": [
				[ -541.08978271484375, 274.23779296875, 459.64358520507813 ],
				[ -484.650390625, 266.87948608398438, 463.339599609375 ],
				[ -484.88629150390625, 275.75750732421875, 484.61749267578125 ],
				[ -541.32568359375, 283.11590576171875, 480.9215087890625 ],
				[ -546.1986083984375, 241.81820678710938, 473.1138916015625 ],
				[ -489.75930786132813, 234.45979309082031, 476.809814453125 ],
				[ -489.99520874023438, 243.33779907226563, 498.08770751953125 ],
				[ -546.43450927734375, 250.69619750976563, 494.39181518554688 ]
			],
			"projected_cuboid": [
				[ -45.361801147460938, 408.73770141601563 ],
				[ -11.774499893188477, 403.45370483398438 ],
				[ -0.14200000464916229, 401.66940307617188 ],
				[ -32.153800964355469, 406.705810546875 ],
				[ -39.5458984375, 386.8468017578125 ],
				[ -6.9526000022888184, 381.88189697265625 ],
				[ 4.1592001914978027, 381.06729125976563 ],
				[ -26.948200225830078, 385.8125 ]
			]
		},
		{
			"class": "",
			"instance_id": 16047768,
			"visibility": 1,
			"location": [ -90.563697814941406, 64.897598266601563, 160.51640319824219 ],
			"quaternion_xyzw": [ 0, -0.40599998831748962, 0, 0.91390001773834229 ],
			"pose_transform": [
				[ -0.74210000038146973, 0, 0.67030000686645508, 0 ],
				[ 0.67030000686645508, 0, 0.74210000038146973, 0 ],
				[ 0, -1, 0, 0 ],
				[ -90.563697814941406, 64.897598266601563, 160.51640319824219, 1 ]
			],
			"cuboid_centroid": [ -90.940597534179688, 17.361499786376953, 159.92359924316406 ],
			"projected_cuboid_centroid": [ 110.42549896240234, 283.79168701171875 ],
			"bounding_box":
			{
				"top_left": [ 195.75819396972656, 53.961200714111328 ],
				"bottom_right": [ 385.45730590820313, 163.15370178222656 ]
			},
			"cuboid": [
				[ -92.907501220703125, -30.174800872802734, 194.29490661621094 ],
				[ -125.33429718017578, -30.174800872802734, 158.39810180664063 ],
				[ -125.33429718017578, 64.897903442382813, 158.39810180664063 ],
				[ -92.907501220703125, 64.897903442382813, 194.29490661621094 ],
				[ -56.546901702880859, -30.174800872802734, 161.4490966796875 ],
				[ -88.973701477050781, -30.174800872802734, 125.55229949951172 ],
				[ -88.973701477050781, 64.897903442382813, 125.55229949951172 ],
				[ -56.546901702880859, 64.897903442382813, 161.4490966796875 ]
			],
			"projected_cuboid": [
				[ 133.58650207519531, 216.24220275878906 ],
				[ 53.437099456787109, 207.23210144042969 ],
				[ 53.437099456787109, 360.88668823242188 ],
				[ 133.58650207519531, 341.50839233398438 ],
				[ 166.33700561523438, 208.15370178222656 ],
				[ 74.583297729492188, 194.47390747070313 ],
				[ 74.583297729492188, 388.32611083984375 ],
				[ 166.33700561523438, 358.90460205078125 ]
			]
		}
	]
}