{
	"camera_data":
	{
		"location_worldframe": [ 0, 0, 0 ],
		"quaternion_xyzw_worldframe": [ 0, 0, 0, 1 ]
	},
	"objects": [
		{
			"class": "SM_RailRig_Mount",
			"instance_id": 16777212,
			"visibility": 1,
			"location": [ -470.43609619140625, 146.80320739746094, 550.5352783203125 ],
			"quaternion_xyzw": [ -0.75989997386932373, 0.084399998188018799, -0.57539999485015869, -0.29030001163482666 ],
			"pose_transform": [
				[ 0.8256000280380249, -0.53829997777938843, -0.16930000483989716, 0 ],
				[ 0.32350000739097595, 0.20569999516010284, 0.92360001802444458, 0 ],
				[ 0.46239998936653137, 0.81720000505447388, -0.34400001168251038, 0 ],
				[ -470.43609619140625, 146.80320739746094, 550.5352783203125, 1 ]
			],
			"cuboid_centroid": [ -470.43609619140625, 146.80320739746094, 550.5352783203125 ],
			"projected_cuboid_centroid": [ 37.246299743652344, 324.2637939453125 ],
			"bounding_box":
			{
				"top_left": [ 315.32290649414063, 17.927700042724609 ],
				"bottom_right": [ 331.29168701171875, 55.604198455810547 ]
			},
			"cuboid": [
				[ -441.23519897460938, 152.54240417480469, 569.906005859375 ],
				[ -459.68820190429688, 140.80909729003906, 517.22747802734375 ],
				[ -470.3489990234375, 121.96600341796875, 525.15899658203125 ],
				[ -451.89599609375, 133.69929504394531, 577.8375244140625 ],
				[ -470.52310180664063, 171.64039611816406, 575.91162109375 ],
				[ -488.97610473632813, 159.9071044921875, 523.23321533203125 ],
				[ -499.63690185546875, 141.06399536132813, 531.16461181640625 ],
				[ -481.18389892578125, 152.79730224609375, 583.84307861328125 ]
			],
			"projected_cuboid": [
				[ 57.798500061035156, 324.5216064453125 ],
				[ 28.478900909423828, 325.6929931640625 ],
				[ 26.718299865722656, 315.45489501953125 ],
				[ 55.796001434326172, 315.23300170898438 ],
				[ 46.846500396728516, 332.29629516601563 ],
				[ 16.760799407958984, 334.23709106445313 ],
				[ 15.194999694824219, 323.98721313476563 ],
				[ 45.013401031494141, 322.99771118164063 ]
			]
		},
		{
			"class": "",
			"instance_id": 16047768,
			"visibility": 1,
			"location": [ 40.604900360107422, -39.854099273681641, 167.59669494628906 ],
			"quaternion_xyzw": [ 0, -0.43220001459121704, 0, 0.90179997682571411 ],
			"pose_transform": [
				[ -0.77950000762939453, 0, 0.62639999389648438, 0 ],
				[ 0.62639999389648438, 0, 0.77950000762939453, 0 ],
				[ 0, -1, 0, 0 ],
				[ 40.604900360107422, -39.854099273681641, 167.59669494628906, 1 ]
			],
			"cuboid_centroid": [ 40.262798309326172, -87.39019775390625, 166.98309326171875 ],
			"projected_cuboid_centroid": [ 317.72640991210938, 122.02300262451172 ],
			"bounding_box":
			{
				"top_left": [ 1.8076000213623047, 267.25021362304688 ],
				"bottom_right": [ 204.50810241699219, 366.20059204101563 ]
			},
			"cuboid": [
				[ 36.316398620605469, -134.92649841308594, 201.18370056152344 ],
				[ 6.0142998695373535, -134.92649841308594, 163.4761962890625 ],
				[ 6.0142998695373535, -39.853900909423828, 163.4761962890625 ],
				[ 36.316398620605469, -39.853900909423828, 201.18370056152344 ],
				[ 74.511199951171875, -134.92649841308594, 170.49009704589844 ],
				[ 44.209098815917969, -134.92649841308594, 132.78250122070313 ],
				[ 44.209098815917969, -39.853900909423828, 132.78250122070313 ],
				[ 74.511199951171875, -39.853900909423828, 170.49009704589844 ]
			],
			"projected_cuboid": [
				[ 302.21148681640625, 84.310203552246094 ],
				[ 265.41830444335938, 44.708099365234375 ],
				[ 265.41830444335938, 193.58970642089844 ],
				[ 302.21148681640625, 205.28720092773438 ],
				[ 367.88259887695313, 53.400600433349609 ],
				[ 341.23361206054688, -4.1336002349853516 ],
				[ 341.23361206054688, 179.16310119628906 ],
				[ 367.88259887695313, 196.15719604492188 ]
			]
		}
	]
}