{
	"camera_data":
	{
		"location_worldframe": [ 0, 0, 0 ],
		"quaternion_xyzw_worldframe": [ 0, 0, 0, 1 ]
	},
	"objects": [
		{
			"class": "",
			"instance_id": 16047768,
			"visibility": 1,
			"location": [ -54.087898254394531, 25.821699142456055, 308.1466064453125 ],
			"quaternion_xyzw": [ 0, 0.35330000519752502, 0, 0.93550002574920654 ],
			"pose_transform": [
				[ 0.66109997034072876, 0, 0.75029999017715454, 0 ],
				[ 0.75029999017715454, 0, -0.66109997034072876, 0 ],
				[ 0, -1, 0, 0 ],
				[ -54.087898254394531, 25.821699142456055, 308.1466064453125, 1 ]
			],
			"cuboid_centroid": [ -54.685398101806641, -21.714399337768555, 308.51620483398438 ],
			"projected_cuboid_centroid": [ 210.62330627441406, 237.98190307617188 ],
			"bounding_box":
			{
				"top_left": [ 191.89199829101563, 183.52180480957031 ],
				"bottom_right": [ 279.97061157226563, 238.09170532226563 ]
			},
			"cuboid": [
				[ -20.341100692749023, -69.250701904296875, 310.90960693359375 ],
				[ -56.637699127197266, -69.250701904296875, 342.8883056640625 ],
				[ -56.637699127197266, 25.8218994140625, 342.8883056640625 ],
				[ -20.341100692749023, 25.8218994140625, 310.90960693359375 ],
				[ -52.733001708984375, -69.250701904296875, 274.14410400390625 ],
				[ -89.02960205078125, -69.250701904296875, 306.12271118164063 ],
				[ -89.02960205078125, 25.8218994140625, 306.12271118164063 ],
				[ -52.733001708984375, 25.8218994140625, 274.14410400390625 ]
			],
			"projected_cuboid": [
				[ 239.25129699707031, 198.97959899902344 ],
				[ 213.71440124511719, 204.29750061035156 ],
				[ 213.71440124511719, 275.27859497070313 ],
				[ 239.25129699707031, 277.26150512695313 ],
				[ 206.75709533691406, 191.33259582519531 ],
				[ 181.547607421875, 198.08799743652344 ],
				[ 181.547607421875, 277.593994140625 ],
				[ 206.75709533691406, 280.11300659179688 ]
			]
		}
	]
}