{
	"camera_data":
	{
		"location_worldframe": [ 0, 0, 0 ],
		"quaternion_xyzw_worldframe": [ 0, 0, 0, 1 ]
	},
	"objects": [
		{
			"class": "SM_RailRig_Mount",
			"instance_id": 16777212,
			"visibility": 1,
			"location": [ -494.84478759765625, 124.79319763183594, 551.2615966796875 ],
			"quaternion_xyzw": [ -0.0048000002279877663, 0.36840000748634338, 0.36160001158714294, 0.85650002956390381 ],
			"pose_transform": [
				[ 0.62749999761581421, 0.27469998598098755, 0.72860002517700195, 0 ],
				[ 0.46709999442100525, 0.61580002307891846, -0.63450002670288086, 0 ],
				[ 0.62290000915527344, -0.73849999904632568, -0.25819998979568481, 0 ],
				[ -494.84478759765625, 124.79319763183594, 551.2615966796875, 1 ]
			],
			"cuboid_centroid": [ -494.84478759765625, 124.79319763183594, 551.2615966796875 ],
			"projected_cuboid_centroid": [ 26.199399948120117, 313.95260620117188 ],
			"bounding_box":
			{
				"top_left": [ 301.13778686523438, 12.145600318908691 ],
				"bottom_right": [ 325.4049072265625, 36.138999938964844 ]
			},
			"cuboid": [
				[ -463.21139526367188, 138.71470642089844, 543.114501953125 ],
				[ -489.85330200195313, 103.58930206298828, 579.30322265625 ],
				[ -504.21630859375, 120.61569976806641, 585.2554931640625 ],
				[ -477.57440185546875, 155.74110412597656, 549.06671142578125 ],
				[ -485.47329711914063, 128.970703125, 517.267822265625 ],
				[ -512.1151123046875, 93.84539794921875, 553.45660400390625 ],
				[ -526.47821044921875, 110.87180328369141, 559.4088134765625 ],
				[ -499.8363037109375, 145.9971923828125, 523.2200927734375 ]
			],
			"projected_cuboid": [
				[ 37.662700653076172, 321.3839111328125 ],
				[ 39.528800964355469, 301.77719116210938 ],
				[ 35.447799682617188, 308.75918579101563 ],
				[ 33.332901000976563, 328.61358642578125 ],
				[ 15.735400199890137, 319.82870483398438 ],
				[ 19.122400283813477, 299.40798950195313 ],
				[ 15.069899559020996, 306.73779296875 ],
				[ 11.441100120544434, 327.43319702148438 ]
			]
		},
		{
			"class": "",
			"instance_id": 16047768,
			"visibility": 1,
			"location": [ -68.919898986816406, 61.540599822998047, 189.94839477539063 ],
			"quaternion_xyzw": [ 0, 0.4189000129699707, 0, 0.90799999237060547 ],
			"pose_transform": [
				[ 0.76080000400543213, 0, 0.64899998903274536, 0 ],
				[ 0.64899998903274536, 0, -0.76080000400543213, 0 ],
				[ 0, -1, 0, 0 ],
				[ -68.919898986816406, 61.540599822998047, 189.94839477539063, 1 ]
			],
			"cuboid_centroid": [ -69.458900451660156, 14.004500389099121, 190.39900207519531 ],
			"projected_cuboid_centroid": [ 162.60929870605469, 274.8297119140625 ],
			"bounding_box":
			{
				"top_left": [ 201.89619445800781, 119.50869750976563 ],
				"bottom_right": [ 355.38449096679688, 206.82859802246094 ]
			},
			"cuboid": [
				[ -35.122398376464844, -33.53179931640625, 187.898193359375 ],
				[ -66.517601013183594, -33.53179931640625, 224.70060729980469 ],
				[ -66.517601013183594, 61.540798187255859, 224.70060729980469 ],
				[ -35.122398376464844, 61.540798187255859, 187.898193359375 ],
				[ -72.400299072265625, -33.53179931640625, 156.09730529785156 ],
				[ -103.79550170898438, -33.53179931640625, 192.89970397949219 ],
				[ -103.79550170898438, 61.540798187255859, 192.89970397949219 ],
				[ -72.400299072265625, 61.540798187255859, 156.09730529785156 ]
			],
			"projected_cuboid": [
				[ 208.14790344238281, 210.31489562988281 ],
				[ 180.21699523925781, 217.79739379882813 ],
				[ 180.21699523925781, 326.11309814453125 ],
				[ 208.14790344238281, 339.845703125 ],
				[ 137.2633056640625, 201.00770568847656 ],
				[ 118.25150299072266, 211.49940490722656 ],
				[ 118.25150299072266, 337.67169189453125 ],
				[ 137.2633056640625, 356.92709350585938 ]
			]
		}
	]
}