{
	"camera_data":
	{
		"location_worldframe": [ 0, 0, 0 ],
		"quaternion_xyzw_worldframe": [ 0, 0, 0, 1 ]
	},
	"objects": [
		{
			"class": "SM_RailRig_Mount",
			"instance_id": 16777212,
			"visibility": 1,
			"location": [ -412.93310546875, 133.61309814453125, 466.02960205078125 ],
			"quaternion_xyzw": [ 0.43520000576972961, -0.58340001106262207, -0.61089998483657837, -0.31150001287460327 ],
			"pose_transform": [
				[ -0.16830000281333923, 0.98390001058578491, -0.05950000137090683, 0 ],
				[ -0.42719998955726624, -0.12720000743865967, -0.89520001411437988, 0 ],
				[ 0.88840001821517944, 0.12520000338554382, -0.44170001149177551, 0 ],
				[ -412.93310546875, 133.61309814453125, 466.02960205078125, 1 ]
			],
			"cuboid_centroid": [ -412.93310546875, 133.61309814453125, 466.02960205078125 ],
			"projected_cuboid_centroid": [ 29.166999816894531, 329.3966064453125 ],
			"bounding_box":
			{
				"top_left": [ 317.3125, 8.2940998077392578 ],
				"bottom_right": [ 340.10128784179688, 50.659400939941406 ]
			},
			"cuboid": [
				[ -417.85958862304688, 148.88409423828125, 434.3533935546875 ],
				[ -393.49359130859375, 156.1365966796875, 485.41128540039063 ],
				[ -413.97650146484375, 153.24899291992188, 495.59640502929688 ],
				[ -438.34249877929688, 145.99659729003906, 444.53851318359375 ],
				[ -411.88970947265625, 113.97720336914063, 436.46279907226563 ],
				[ -387.52371215820313, 121.22959899902344, 487.52069091796875 ],
				[ -408.006591796875, 118.34210205078125, 497.7056884765625 ],
				[ -432.37258911132813, 111.089599609375, 446.64788818359375 ]
			],
			"projected_cuboid": [
				[ 9.721099853515625, 343.74960327148438 ],
				[ 48.476299285888672, 338.3446044921875 ],
				[ 42.160701751708984, 335.16070556640625 ],
				[ 3.5680999755859375, 340.07620239257813 ],
				[ 14.412899971008301, 322.85140991210938 ],
				[ 52.508998870849609, 319.65838623046875 ],
				[ 46.137599945068359, 316.87039184570313 ],
				[ 8.1819000244140625, 319.67190551757813 ]
			]
		},
		{
			"class": "",
			"instance_id": 16047768,
			"visibility": 1,
			"location": [ -54.087898254394531, 25.821699142456055, 308.1466064453125 ],
			"quaternion_xyzw": [ 0, 0.35330000519752502, 0, 0.93550002574920654 ],
			"pose_transform": [
				[ 0.66109997034072876, 0, 0.75029999017715454, 0 ],
				[ 0.75029999017715454, 0, -0.66109997034072876, 0 ],
				[ 0, -1, 0, 0 ],
				[ -54.087898254394531, 25.821699142456055, 308.1466064453125, 1 ]
			],
			"cuboid_centroid": [ -54.685398101806641, -21.714399337768555, 308.51620483398438 ],
			"projected_cuboid_centroid": [ 210.62330627441406, 237.98190307617188 ],
			"bounding_box":
			{
				"top_left": [ 191.89199829101563, 183.52180480957031 ],
				"bottom_right": [ 279.97061157226563, 238.09170532226563 ]
			},
			"cuboid": [
				[ -20.341100692749023, -69.250701904296875, 310.90960693359375 ],
				[ -56.637699127197266, -69.250701904296875, 342.8883056640625 ],
				[ -56.637699127197266, 25.8218994140625, 342.8883056640625 ],
				[ -20.341100692749023, 25.8218994140625, 310.90960693359375 ],
				[ -52.733001708984375, -69.250701904296875, 274.14410400390625 ],
				[ -89.02960205078125, -69.250701904296875, 306.12271118164063 ],
				[ -89.02960205078125, 25.8218994140625, 306.12271118164063 ],
				[ -52.733001708984375, 25.8218994140625, 274.14410400390625 ]
			],
			"projected_cuboid": [
				[ 239.25129699707031, 198.97959899902344 ],
				[ 213.71440124511719, 204.29750061035156 ],
				[ 213.71440124511719, 275.27859497070313 ],
				[ 239.25129699707031, 277.26150512695313 ],
				[ 206.75709533691406, 191.33259582519531 ],
				[ 181.547607421875, 198.08799743652344 ],
				[ 181.547607421875, 277.593994140625 ],
				[ 206.75709533691406, 280.11300659179688 ]
			]
		}
	]
}