{
	"camera_data":
	{
		"location_worldframe": [ 0, 0, 0 ],
		"quaternion_xyzw_worldframe": [ 0, 0, 0, 1 ]
	},
	"objects": [
		{
			"class": "SM_RailRig_Mount",
			"instance_id": 16777212,
			"visibility": 1,
			"location": [ -433.80780029296875, 248.9241943359375, 567.28387451171875 ],
			"quaternion_xyzw": [ -0.892799973487854, 0.036200001835823059, 0.095700003206729889, -0.43880000710487366 ],
			"pose_transform": [
				[ -0.20260000228881836, -0.77649998664855957, -0.59670001268386841, 0 ],
				[ 0.97909998893737793, -0.14869999885559082, -0.13899999856948853, 0 ],
				[ -0.019200000911951065, 0.61239999532699585, -0.79040002822875977, 0 ],
				[ -433.80780029296875, 248.9241943359375, 567.28387451171875, 1 ]
			],
			"cuboid_centroid": [ -433.80780029296875, 248.9241943359375, 567.28387451171875 ],
			"projected_cuboid_centroid": [ 60.234199523925781, 368.33279418945313 ],
			"bounding_box":
			{
				"top_left": [ 358.47879028320313, 43.133701324462891 ],
				"bottom_right": [ 375.64810180664063, 76.135101318359375 ]
			},
			"cuboid": [
				[ -409.7012939453125, 237.97079467773438, 543.62481689453125 ],
				[ -465.54470825195313, 246.44979858398438, 551.55169677734375 ],
				[ -465.10171508789063, 232.33079528808594, 569.7747802734375 ],
				[ -409.25830078125, 223.851806640625, 561.847900390625 ],
				[ -402.51388549804688, 265.5177001953125, 564.79302978515625 ],
				[ -458.3572998046875, 273.9967041015625, 572.71990966796875 ],
				[ -457.914306640625, 259.877685546875, 590.9429931640625 ],
				[ -402.07089233398438, 251.39869689941406, 583.01611328125 ]
			],
			"projected_cuboid": [
				[ 63.066299438476563, 368.0635986328125 ],
				[ 39.919700622558594, 370.38839721679688 ],
				[ 47.029598236083984, 360.38629150390625 ],
				[ 69.525802612304688, 357.99569702148438 ],
				[ 73.555198669433594, 376.3494873046875 ],
				[ 51.118900299072266, 378.47378540039063 ],
				[ 57.628799438476563, 368.58050537109375 ],
				[ 79.452301025390625, 366.38809204101563 ]
			]
		},
		{
			"class": "",
			"instance_id": 16047768,
			"visibility": 1,
			"location": [ -81.591201782226563, 59.550800323486328, 214.08859252929688 ],
			"quaternion_xyzw": [ 0, 0.075499996542930603, 0, 0.99709999561309814 ],
			"pose_transform": [
				[ 0.15060000121593475, 0, 0.98860001564025879, 0 ],
				[ 0.98860001564025879, 0, -0.15060000121593475, 0 ],
				[ 0, -1, 0, 0 ],
				[ -81.591201782226563, 59.550800323486328, 214.08859252929688, 1 ]
			],
			"cuboid_centroid": [ -82.293601989746094, 12.014699935913086, 214.07659912109375 ],
			"projected_cuboid_centroid": [ 157.59049987792969, 270.36761474609375 ],
			"bounding_box":
			{
				"top_left": [ 207.22630310058594, 114.49790191650391 ],
				"bottom_right": [ 337.03890991210938, 195.55589294433594 ]
			},
			"cuboid": [
				[ -54.69219970703125, -35.521598815917969, 234.65370178222656 ],
				[ -102.51460266113281, -35.521598815917969, 241.93989562988281 ],
				[ -102.51460266113281, 59.550998687744141, 241.93989562988281 ],
				[ -54.69219970703125, 59.550998687744141, 234.65370178222656 ],
				[ -62.072601318359375, -35.521598815917969, 186.21330261230469 ],
				[ -109.89499664306641, -35.521598815917969, 193.49949645996094 ],
				[ -109.89499664306641, 59.550998687744141, 193.49949645996094 ],
				[ -62.072601318359375, 59.550998687744141, 186.21330261230469 ]
			],
			"projected_cuboid": [
				[ 196.33250427246094, 217.24699401855469 ],
				[ 147.52780151367188, 218.41409301757813 ],
				[ 147.52780151367188, 319.01181030273438 ],
				[ 196.33250427246094, 320.96829223632813 ],
				[ 170.66459655761719, 207.16600036621094 ],
				[ 110.60880279541016, 209.00480651855469 ],
				[ 110.60880279541016, 334.7860107421875 ],
				[ 170.66459655761719, 337.86880493164063 ]
			]
		}
	]
}