{
	"camera_data":
	{
		"location_worldframe": [ 0, 0, 0 ],
		"quaternion_xyzw_worldframe": [ 0, 0, 0, 1 ]
	},
	"objects": [
		{
			"class": "SM_RailRig_Mount",
			"instance_id": 16777212,
			"visibility": 1,
			"location": [ -455.65289306640625, 251.01780700683594, 542.4417724609375 ],
			"quaternion_xyzw": [ -0.2062000036239624, 0.77139997482299805, 0.53839999437332153, -0.26930001378059387 ],
			"pose_transform": [
				[ -0.63749998807907104, 0.71960002183914185, -0.2752000093460083, 0 ],
				[ -0.76990002393722534, -0.60809999704360962, 0.19329999387264252, 0 ],
				[ 0.028200000524520874, -0.33509999513626099, -0.94169998168945313, 0 ],
				[ -455.65289306640625, 251.01780700683594, 542.4417724609375, 1 ]
			],
			"cuboid_centroid": [ -455.65289306640625, 251.01780700683594, 542.4417724609375 ],
			"projected_cuboid_centroid": [ 40.959098815917969, 374.46530151367188 ],
			"bounding_box":
			{
				"top_left": [ 360.34921264648438, 25.042800903320313 ],
				"bottom_right": [ 389.44659423828125, 57.707599639892578 ]
			},
			"cuboid": [
				[ -488.5928955078125, 242.57589721679688, 532.21710205078125 ],
				[ -444.67840576171875, 277.26190185546875, 521.18951416015625 ],
				[ -445.32931518554688, 284.98928833007813, 542.9033203125 ],
				[ -489.24380493164063, 250.30329895019531, 553.930908203125 ],
				[ -465.97650146484375, 217.04629516601563, 541.98040771484375 ],
				[ -422.06201171875, 251.7322998046875, 530.95281982421875 ],
				[ -422.712890625, 259.45968627929688, 552.66650390625 ],
				[ -466.62741088867188, 224.77369689941406, 563.694091796875 ]
			],
			"projected_cuboid": [
				[ 20.983499526977539, 372.68069458007813 ],
				[ 37.581001281738281, 392.18670654296875 ],
				[ 46.009899139404297, 390.38360595703125 ],
				[ 29.895200729370117, 371.6781005859375 ],
				[ 35.899799346923828, 358.51998901367188 ],
				[ 52.501899719238281, 377.373291015625 ],
				[ 60.195598602294922, 376.18399047851563 ],
				[ 44.082500457763672, 358.08029174804688 ]
			]
		},
		{
			"class": "",
			"instance_id": 16047768,
			"visibility": 1,
			"location": [ -35.599800109863281, 16.84320068359375, 277.847900390625 ],
			"quaternion_xyzw": [ 0, 0.72469997406005859, 0, 0.68910002708435059 ],
			"pose_transform": [
				[ 0.99870002269744873, 0, -0.050400000065565109, 0 ],
				[ -0.050400000065565109, 0, -0.99870002269744873, 0 ],
				[ 0, -1, 0, 0 ],
				[ -35.599800109863281, 16.84320068359375, 277.847900390625, 1 ]
			],
			"cuboid_centroid": [ -35.682498931884766, -30.692899703979492, 278.54550170898438 ],
			"projected_cuboid_centroid": [ 223.20570373535156, 227.79139709472656 ],
			"bounding_box":
			{
				"top_left": [ 178.49560546875, 195.6470947265625 ],
				"bottom_right": [ 272.99868774414063, 247.44639587402344 ]
			},
			"cuboid": [
				[ -12.432000160217285, -78.229202270507813, 253.15510559082031 ],
				[ -9.9956998825073242, -78.229202270507813, 301.46810913085938 ],
				[ -9.9956998825073242, 16.843399047851563, 301.46810913085938 ],
				[ -12.432000160217285, 16.843399047851563, 253.15510559082031 ],
				[ -61.36920166015625, -78.229202270507813, 255.622802734375 ],
				[ -58.932899475097656, -78.229202270507813, 303.935791015625 ],
				[ -58.932899475097656, 16.843399047851563, 303.935791015625 ],
				[ -61.36920166015625, 16.843399047851563, 255.622802734375 ]
			],
			"projected_cuboid": [
				[ 243.42829895019531, 176.8916015625 ],
				[ 247.51190185546875, 189.56950378417969 ],
				[ 247.51190185546875, 270.3031005859375 ],
				[ 243.42829895019531, 273.03271484375 ],
				[ 194.54029846191406, 177.65530395507813 ],
				[ 206.36180114746094, 190.10879516601563 ],
				[ 206.36180114746094, 270.1868896484375 ],
				[ 194.54029846191406, 272.8682861328125 ]
			]
		}
	]
}