{
	"camera_data":
	{
		"location_worldframe": [ 0, 0, 0 ],
		"quaternion_xyzw_worldframe": [ 0, 0, 0, 1 ]
	},
	"objects": [
		{
			"class": "SM_RailRig_Mount",
			"instance_id": 16777212,
			"visibility": 1,
			"location": [ -432.64801025390625, 228.122802734375, 523.5631103515625 ],
			"quaternion_xyzw": [ 0.56410002708435059, 0.19159999489784241, 0.065800003707408905, 0.80049997568130493 ],
			"pose_transform": [
				[ 0.38100001215934753, -0.87790000438690186, 0.29010000824928284, 0 ],
				[ 0.91790002584457397, 0.32150000333786011, -0.23250000178813934, 0 ],
				[ -0.11089999973773956, -0.35490000247955322, -0.92830002307891846, 0 ],
				[ -432.64801025390625, 228.122802734375, 523.5631103515625, 1 ]
			],
			"cuboid_centroid": [ -432.64801025390625, 228.122802734375, 523.5631103515625 ],
			"projected_cuboid_centroid": [ 44.453601837158203, 367.54229736328125 ],
			"bounding_box":
			{
				"top_left": [ 354.5701904296875, 27.273199081420898 ],
				"bottom_right": [ 380.57830810546875, 61.286701202392578 ]
			},
			"cuboid": [
				[ -400.9906005859375, 217.6278076171875, 511.37631225585938 ],
				[ -453.345703125, 199.29049682617188, 524.63909912109375 ],
				[ -450.78970336914063, 207.47360229492188, 546.04290771484375 ],
				[ -398.4346923828125, 225.81100463867188, 532.78021240234375 ],
				[ -414.50640869140625, 248.77200317382813, 501.08319091796875 ],
				[ -466.86138916015625, 230.4346923828125, 514.34600830078125 ],
				[ -464.30551147460938, 238.6177978515625, 535.7498779296875 ],
				[ -411.95040893554688, 256.9552001953125, 522.48712158203125 ]
			],
			"projected_cuboid": [
				[ 55.260101318359375, 364.94659423828125 ],
				[ 34.787899017333984, 353.24468994140625 ],
				[ 44.657299041748047, 353.2694091796875 ],
				[ 64.552803039550781, 364.50180053710938 ],
				[ 44.231498718261719, 383.09600830078125 ],
				[ 23.634000778198242, 370.69180297851563 ],
				[ 34.138599395751953, 370.0198974609375 ],
				[ 54.159000396728516, 381.8988037109375 ]
			]
		},
		{
			"class": "",
			"instance_id": 16047768,
			"visibility": 1,
			"location": [ -74.211898803710938, -48.533599853515625, 127.19020080566406 ],
			"quaternion_xyzw": [ 0, 0.92680001258850098, 0, -0.37560001015663147 ],
			"pose_transform": [
				[ -0.69620001316070557, 0, -0.71789997816085815, 0 ],
				[ -0.71789997816085815, 0, 0.69620001316070557, 0 ],
				[ 0, -1, 0, 0 ],
				[ -74.211898803710938, -48.533599853515625, 127.19020080566406, 1 ]
			],
			"cuboid_centroid": [ -73.632797241210938, -96.0697021484375, 126.79250335693359 ],
			"projected_cuboid_centroid": [ 107.33190155029297, 62.030799865722656 ],
			"bounding_box":
			{
				"top_left": [ -37.409801483154297, 36.795700073242188 ],
				"bottom_right": [ 177.78399658203125, 173.17880249023438 ]
			},
			"cuboid": [
				[ -108.05220031738281, -143.60600280761719, 126.04419708251953 ],
				[ -73.326499938964844, -143.60600280761719, 92.366302490234375 ],
				[ -73.326499938964844, -48.533401489257813, 92.366302490234375 ],
				[ -108.05220031738281, -48.533401489257813, 126.04419708251953 ],
				[ -73.939102172851563, -143.60600280761719, 161.21859741210938 ],
				[ -39.213401794433594, -143.60600280761719, 127.54070281982422 ],
				[ -39.213401794433594, -48.533401489257813, 127.54070281982422 ],
				[ -73.939102172851563, -48.533401489257813, 161.21859741210938 ]
			],
			"projected_cuboid": [
				[ 36.542400360107422, -35.668598175048828 ],
				[ 52.770301818847656, -142.01460266113281 ],
				[ 52.770301818847656, 121.48629760742188 ],
				[ 36.542400360107422, 157.42709350585938 ],
				[ 138.59159851074219, 27.967199325561523 ],
				[ 177.29080200195313, -32.246200561523438 ],
				[ 177.29080200195313, 158.58380126953125 ],
				[ 138.59159851074219, 178.93359375 ]
			]
		}
	]
}