{
	"camera_data":
	{
		"location_worldframe": [ 0, 0, 0 ],
		"quaternion_xyzw_worldframe": [ 0, 0, 0, 1 ]
	},
	"objects": [
		{
			"class": "SM_RailRig_Mount",
			"instance_id": 16777212,
			"visibility": 1,
			"location": [ -449.95208740234375, 213.23590087890625, 552.58612060546875 ],
			"quaternion_xyzw": [ -0.22210000455379486, -0.23080000281333923, -0.82249999046325684, -0.46990001201629639 ],
			"pose_transform": [
				[ 0.58219999074935913, 0.17100000381469727, 0.79479998350143433, 0 ],
				[ -0.45969998836517334, 0.87559998035430908, 0.14839999377727509, 0 ],
				[ 0.67059999704360962, 0.45179998874664307, -0.58840000629425049, 0 ],
				[ -449.95208740234375, 213.23590087890625, 552.58612060546875, 1 ]
			],
			"cuboid_centroid": [ -449.95208740234375, 213.23590087890625, 552.58612060546875 ],
			"projected_cuboid_centroid": [ 47.547901153564453, 354.787109375 ],
			"bounding_box":
			{
				"top_left": [ 342.6875, 33.161701202392578 ],
				"bottom_right": [ 368.90780639648438, 60.04010009765625 ]
			},
			"cuboid": [
				[ -445.00360107421875, 246.44740295410156, 564.1343994140625 ],
				[ -418.78350830078125, 196.50680541992188, 555.669921875 ],
				[ -434.2449951171875, 186.08970642089844, 569.236328125 ],
				[ -460.4652099609375, 236.03030395507813, 577.7008056640625 ],
				[ -465.65908813476563, 240.38209533691406, 535.93597412109375 ],
				[ -439.43890380859375, 190.44149780273438, 527.47161865234375 ],
				[ -454.9005126953125, 180.02439880371094, 541.03790283203125 ],
				[ -481.12060546875, 229.96499633789063, 549.50238037109375 ]
			],
			"projected_cuboid": [
				[ 54.060600280761719, 367.83599853515625 ],
				[ 63.064300537109375, 346.53170776367188 ],
				[ 60.708999633789063, 339.68930053710938 ],
				[ 51.951301574707031, 360.593505859375 ],
				[ 33.569099426269531, 370.82308959960938 ],
				[ 42.725200653076172, 348.42770385742188 ],
				[ 40.757198333740234, 341.18121337890625 ],
				[ 31.857400894165039, 363.13519287109375 ]
			]
		},
		{
			"class": "",
			"instance_id": 16047768,
			"visibility": 1,
			"location": [ -35.599800109863281, 16.84320068359375, 277.847900390625 ],
			"quaternion_xyzw": [ 0, 0.72469997406005859, 0, 0.68910002708435059 ],
			"pose_transform": [
				[ 0.99870002269744873, 0, -0.050400000065565109, 0 ],
				[ -0.050400000065565109, 0, -0.99870002269744873, 0 ],
				[ 0, -1, 0, 0 ],
				[ -35.599800109863281, 16.84320068359375, 277.847900390625, 1 ]
			],
			"cuboid_centroid": [ -35.682498931884766, -30.692899703979492, 278.54550170898438 ],
			"projected_cuboid_centroid": [ 223.20570373535156, 227.79139709472656 ],
			"bounding_box":
			{
				"top_left": [ 178.49560546875, 195.6470947265625 ],
				"bottom_right": [ 272.99868774414063, 247.44639587402344 ]
			},
			"cuboid": [
				[ -12.432000160217285, -78.229202270507813, 253.15510559082031 ],
				[ -9.9956998825073242, -78.229202270507813, 301.46810913085938 ],
				[ -9.9956998825073242, 16.843399047851563, 301.46810913085938 ],
				[ -12.432000160217285, 16.843399047851563, 253.15510559082031 ],
				[ -61.36920166015625, -78.229202270507813, 255.622802734375 ],
				[ -58.932899475097656, -78.229202270507813, 303.935791015625 ],
				[ -58.932899475097656, 16.843399047851563, 303.935791015625 ],
				[ -61.36920166015625, 16.843399047851563, 255.622802734375 ]
			],
			"projected_cuboid": [
				[ 243.42829895019531, 176.8916015625 ],
				[ 247.51190185546875, 189.56950378417969 ],
				[ 247.51190185546875, 270.3031005859375 ],
				[ 243.42829895019531, 273.03271484375 ],
				[ 194.54029846191406, 177.65530395507813 ],
				[ 206.36180114746094, 190.10879516601563 ],
				[ 206.36180114746094, 270.1868896484375 ],
				[ 194.54029846191406, 272.8682861328125 ]
			]
		}
	]
}