{
	"camera_data":
	{
		"location_worldframe": [ 0, 0, 0 ],
		"quaternion_xyzw_worldframe": [ 0, 0, 0, 1 ]
	},
	"objects": [
		{
			"class": "SM_RailRig_Mount",
			"instance_id": 16777212,
			"visibility": 1,
			"location": [ -386.74209594726563, 179.56179809570313, 429.1754150390625 ],
			"quaternion_xyzw": [ 0.41780000925064087, 0.44659999012947083, -0.72949999570846558, -0.30630001425743103 ],
			"pose_transform": [
				[ -0.88309997320175171, -0.39570000767707825, 0.25209999084472656, 0 ],
				[ -0.46329998970031738, 0.81999999284744263, -0.335999995470047, 0 ],
				[ 0.073799997568130493, 0.41350001096725464, 0.90750002861022949, 0 ],
				[ -386.74209594726563, 179.56179809570313, 429.1754150390625, 1 ]
			],
			"cuboid_centroid": [ -386.74209594726563, 179.56179809570313, 429.1754150390625 ],
			"projected_cuboid_centroid": [ 25.311100006103516, 363.1072998046875 ],
			"bounding_box":
			{
				"top_left": [ 343.97601318359375, 2.7699000835418701 ],
				"bottom_right": [ 383.6925048828125, 46.471199035644531 ]
			},
			"cuboid": [
				[ -414.76959228515625, 200.69630432128906, 434.52801513671875 ],
				[ -388.34259033203125, 153.92460632324219, 453.69119262695313 ],
				[ -390.044189453125, 144.39010620117188, 432.76708984375 ],
				[ -416.47119140625, 191.16180419921875, 413.60379028320313 ],
				[ -383.44000244140625, 214.73350524902344, 425.58380126953125 ],
				[ -357.01300048828125, 167.96180725097656, 444.74700927734375 ],
				[ -358.71469116210938, 158.42730712890625, 423.82281494140625 ],
				[ -385.14169311523438, 205.19900512695313, 404.65960693359375 ]
			],
			"projected_cuboid": [
				[ 11.640500068664551, 374.23919677734375 ],
				[ 36.873600006103516, 342.85348510742188 ],
				[ 25.272300720214844, 341.41281127929688 ],
				[ -1.7747999429702759, 374.31961059570313 ],
				[ 25.35059928894043, 385.16799926757813 ],
				[ 50.500400543212891, 352.68020629882813 ],
				[ 39.326999664306641, 351.6942138671875 ],
				[ 12.347599983215332, 385.815185546875 ]
			]
		},
		{
			"class": "",
			"instance_id": 16047768,
			"visibility": 1,
			"location": [ -59.526401519775391, -14.291799545288086, 217.6654052734375 ],
			"quaternion_xyzw": [ 0, -0.32269999384880066, 0, 0.94650000333786011 ],
			"pose_transform": [
				[ -0.61089998483657837, 0, 0.79170000553131104, 0 ],
				[ 0.79170000553131104, 0, 0.61089998483657837, 0 ],
				[ 0, -1, 0, 0 ],
				[ -59.526401519775391, -14.291799545288086, 217.6654052734375, 1 ]
			],
			"cuboid_centroid": [ -60.002799987792969, -61.827899932861328, 217.14909362792969 ],
			"projected_cuboid_centroid": [ 185.26190185546875, 183.11030578613281 ],
			"bounding_box":
			{
				"top_left": [ 104.96369934082031, 147.90629577636719 ],
				"bottom_right": [ 241.32319641113281, 222.35209655761719 ]
			},
			"cuboid": [
				[ -55.821800231933594, -109.36419677734375, 251.32179260253906 ],
				[ -94.119003295898438, -109.36419677734375, 221.76849365234375 ],
				[ -94.119003295898438, -14.291600227355957, 221.76849365234375 ],
				[ -55.821800231933594, -14.291600227355957, 251.32179260253906 ],
				[ -25.886600494384766, -109.36419677734375, 212.52969360351563 ],
				[ -64.183799743652344, -109.36419677734375, 182.97639465332031 ],
				[ -64.183799743652344, -14.291600227355957, 182.97639465332031 ],
				[ -25.886600494384766, -14.291600227355957, 212.52969360351563 ]
			],
			"projected_cuboid": [
				[ 199.13920593261719, 144.60000610351563 ],
				[ 147.35310363769531, 129.75459289550781 ],
				[ 147.35310363769531, 239.50239562988281 ],
				[ 199.13920593261719, 241.44239807128906 ],
				[ 224.81869506835938, 124.26670074462891 ],
				[ 166.2012939453125, 102.98989868164063 ],
				[ 166.2012939453125, 236.00480651855469 ],
				[ 224.81869506835938, 238.78529357910156 ]
			]
		}
	]
}