{
	"camera_data":
	{
		"location_worldframe": [ 0, 0, 0 ],
		"quaternion_xyzw_worldframe": [ 0, 0, 0, 1 ]
	},
	"objects": [
		{
			"class": "SM_RailRig_Mount",
			"instance_id": 16777212,
			"visibility": 1,
			"location": [ -439.02029418945313, 252.98930358886719, 390.77090454101563 ],
			"quaternion_xyzw": [ 0.1809999942779541, 0.37689998745918274, -0.88109999895095825, 0.22100000083446503 ],
			"pose_transform": [
				[ -0.15240000188350677, -0.74419999122619629, 0.65039998292922974, 0 ],
				[ -0.8367999792098999, -0.25299999117851257, -0.48550000786781311, 0 ],
				[ -0.52579998970031738, 0.61820000410079956, 0.58420002460479736, 0 ],
				[ -439.02029418945313, 252.98930358886719, 390.77090454101563, 1 ]
			],
			"cuboid_centroid": [ -439.02029418945313, 252.98930358886719, 390.77090454101563 ],
			"projected_cuboid_centroid": [ -31.60890007019043, 421.73721313476563 ],
			"bounding_box":
			{
				"top_left": [ 406.22879028320313, -63.457901000976563 ],
				"bottom_right": [ 436.1326904296875, -2.6080000400543213 ]
			},
			"cuboid": [
				[ -471.65020751953125, 239.701904296875, 395.19729614257813 ],
				[ -423.91909790039063, 254.13029479980469, 422.88800048828125 ],
				[ -411.79550170898438, 239.87590026855469, 409.4176025390625 ],
				[ -459.5264892578125, 225.44740295410156, 381.72689819335938 ],
				[ -466.24520874023438, 266.10269165039063, 372.12420654296875 ],
				[ -418.51419067382813, 280.53118896484375, 399.81500244140625 ],
				[ -406.3905029296875, 266.27670288085938, 386.3446044921875 ],
				[ -454.12161254882813, 251.84829711914063, 358.65390014648438 ]
			],
			"projected_cuboid": [
				[ -49.524501800537109, 411.27349853515625 ],
				[ -0.62419998645782471, 409.84060668945313 ],
				[ -1.486799955368042, 405.98919677734375 ],
				[ -52.175300598144531, 407.19329833984375 ],
				[ -64.749801635742188, 439.06329345703125 ],
				[ -11.973099708557129, 435.62310791015625 ],
				[ -13.282899856567383, 432.44061279296875 ],
				[ -68.142898559570313, 435.76431274414063 ]
			]
		},
		{
			"class": "",
			"instance_id": 16047768,
			"visibility": 1,
			"location": [ 70.177299499511719, -68.279098510742188, 130.24809265136719 ],
			"quaternion_xyzw": [ 0, 0.9660000205039978, 0, 0.25839999318122864 ],
			"pose_transform": [
				[ 0.49919998645782471, 0, -0.86650002002716064, 0 ],
				[ -0.86650002002716064, 0, -0.49919998645782471, 0 ],
				[ 0, -1, 0, 0 ],
				[ 70.177299499511719, -68.279098510742188, 130.24809265136719, 1 ]
			],
			"cuboid_centroid": [ 70.718696594238281, -115.81510162353516, 130.69580078125 ],
			"projected_cuboid_centroid": [ 394.51998901367188, 29.14739990234375 ],
			"bounding_box":
			{
				"top_left": [ -54.433101654052734, 329.83889770507813 ],
				"bottom_right": [ 147.69650268554688, 473.1444091796875 ]
			},
			"cuboid": [
				[ 61.992599487304688, -163.35150146484375, 97.392501831054688 ],
				[ 103.90720367431641, -163.35150146484375, 121.54290008544922 ],
				[ 103.90720367431641, -68.278800964355469, 121.54290008544922 ],
				[ 61.992599487304688, -68.278800964355469, 97.392501831054688 ],
				[ 37.530101776123047, -163.35150146484375, 139.84869384765625 ],
				[ 79.444801330566406, -163.35150146484375, 163.99909973144531 ],
				[ 79.444801330566406, -68.278800964355469, 163.99909973144531 ],
				[ 37.530101776123047, -68.278800964355469, 139.84869384765625 ]
			],
			"projected_cuboid": [
				[ 418.94979858398438, -173.37570190429688 ],
				[ 474.85479736328125, -88.059501647949219 ],
				[ 474.85479736328125, 112.1875 ],
				[ 418.94979858398438, 76.526397705078125 ],
				[ 324.7008056640625, -43.022899627685547 ],
				[ 380.0120849609375, 1.0109000205993652 ],
				[ 380.0120849609375, 149.41780090332031 ],
				[ 324.7008056640625, 131.01220703125 ]
			]
		}
	]
}