{
	"camera_data":
	{
		"location_worldframe": [ 0, 0, 0 ],
		"quaternion_xyzw_worldframe": [ 0, 0, 0, 1 ]
	},
	"objects": [
		{
			"class": "",
			"instance_id": 16047768,
			"visibility": 1,
			"location": [ -34.238700866699219, 49.217201232910156, 180.3717041015625 ],
			"quaternion_xyzw": [ 0, 0.96670001745223999, 0, -0.25609999895095825 ],
			"pose_transform": [
				[ -0.4950999915599823, 0, -0.86879998445510864, 0 ],
				[ -0.86879998445510864, 0, 0.4950999915599823, 0 ],
				[ 0, -1, 0, 0 ],
				[ -34.238700866699219, 49.217201232910156, 180.3717041015625, 1 ]
			],
			"cuboid_centroid": [ -33.578701019287109, 1.6811000108718872, 180.131103515625 ],
			"projected_cuboid_centroid": [ 208.27830505371094, 258.38919067382813 ],
			"bounding_box":
			{
				"top_left": [ 193.4197998046875, 158.02059936523438 ],
				"bottom_right": [ 339.77450561523438, 252.55239868164063 ]
			},
			"cuboid": [
				[ -66.722999572753906, -45.855201721191406, 170.81910705566406 ],
				[ -24.693099975585938, -45.855201721191406, 146.8699951171875 ],
				[ -24.693099975585938, 49.217399597167969, 146.8699951171875 ],
				[ -66.722999572753906, 49.217399597167969, 170.81910705566406 ],
				[ -42.464401245117188, -45.855201721191406, 213.39210510253906 ],
				[ -0.43450000882148743, -45.855201721191406, 189.4429931640625 ],
				[ -0.43450000882148743, 49.217399597167969, 189.4429931640625 ],
				[ -42.464401245117188, 49.217399597167969, 213.39210510253906 ]
			],
			"projected_cuboid": [
				[ 156.00480651855469, 187.27859497070313 ],
				[ 212.9591064453125, 176.07260131835938 ],
				[ 212.9591064453125, 341.78790283203125 ],
				[ 156.00480651855469, 329.76031494140625 ],
				[ 205.05670166015625, 200.98890686035156 ],
				[ 255.41290283203125, 194.03450012207031 ],
				[ 255.41290283203125, 322.50900268554688 ],
				[ 205.05670166015625, 315.04470825195313 ]
			]
		}
	]
}