{
	"camera_data":
	{
		"location_worldframe": [ 0, 0, 0 ],
		"quaternion_xyzw_worldframe": [ 0, 0, 0, 1 ]
	},
	"objects": [
		{
			"class": "",
			"instance_id": 16047768,
			"visibility": 1,
			"location": [ 68.150901794433594, -77.599403381347656, 302.49459838867188 ],
			"quaternion_xyzw": [ 0, 0.76459997892379761, 0, 0.6445000171661377 ],
			"pose_transform": [
				[ 0.98559999465942383, 0, -0.16920000314712524, 0 ],
				[ -0.16920000314712524, 0, -0.98559999465942383, 0 ],
				[ 0, -1, 0, 0 ],
				[ 68.150901794433594, -77.599403381347656, 302.49459838867188, 1 ]
			],
			"cuboid_centroid": [ 68.152099609375, -125.135498046875, 303.19711303710938 ],
			"projected_cuboid_centroid": [ 313.54330444335938, 150.34370422363281 ],
			"bounding_box":
			{
				"top_left": [ 101.41799926757813, 292.06500244140625 ],
				"bottom_right": [ 195.68719482421875, 337.85931396484375 ]
			},
			"cuboid": [
				[ 88.205596923828125, -172.67179870605469, 275.212890625 ],
				[ 96.391403198242188, -172.67179870605469, 322.88958740234375 ],
				[ 96.391403198242188, -77.599197387695313, 322.88958740234375 ],
				[ 88.205596923828125, -77.599197387695313, 275.212890625 ],
				[ 39.912799835205078, -172.67179870605469, 283.50448608398438 ],
				[ 48.098701477050781, -172.67179870605469, 331.18121337890625 ],
				[ 48.098701477050781, -77.599197387695313, 331.18121337890625 ],
				[ 39.912799835205078, -77.599197387695313, 283.50448608398438 ]
			],
			"projected_cuboid": [
				[ 338.04791259765625, 95.382598876953125 ],
				[ 332.42300415039063, 119.09880065917969 ],
				[ 332.42300415039063, 194.4761962890625 ],
				[ 338.04791259765625, 183.81809997558594 ],
				[ 292.04058837890625, 100.08010101318359 ],
				[ 293.17990112304688, 122.52629852294922 ],
				[ 293.17990112304688, 196.0166015625 ],
				[ 292.04058837890625, 185.92919921875 ]
			]
		}
	]
}