{
	"camera_data":
	{
		"location_worldframe": [ 0, 0, 0 ],
		"quaternion_xyzw_worldframe": [ 0, 0, 0, 1 ]
	},
	"objects": [
		{
			"class": "SM_RailRig_Mount",
			"instance_id": 16777212,
			"visibility": 1,
			"location": [ -373.79620361328125, 266.12451171875, 487.74649047851563 ],
			"quaternion_xyzw": [ -0.91189998388290405, -0.34709998965263367, 0.13619999587535858, -0.17149999737739563 ],
			"pose_transform": [
				[ -0.12939999997615814, -0.40740001201629639, -0.90410000085830688, 0 ],
				[ 0.72189998626708984, 0.58630001544952393, -0.36750000715255737, 0 ],
				[ -0.67979997396469116, 0.70020002126693726, -0.21819999814033508, 0 ],
				[ -373.79620361328125, 266.12451171875, 487.74649047851563, 1 ]
			],
			"cuboid_centroid": [ -373.79620361328125, 266.12451171875, 487.74649047851563 ],
			"projected_cuboid_centroid": [ 59.808300018310547, 395.67880249023438 ],
			"bounding_box":
			{
				"top_left": [ 382.32321166992188, 44.625198364257813 ],
				"bottom_right": [ 411.88238525390625, 76.567398071289063 ]
			},
			"cuboid": [
				[ -363.34140014648438, 283.69210815429688, 458.71328735351563 ],
				[ -404.51620483398438, 250.24969482421875, 479.67630004882813 ],
				[ -388.84228515625, 234.10519409179688, 484.70709228515625 ],
				[ -347.66751098632813, 267.54769897460938, 463.74411010742188 ],
				[ -358.75009155273438, 298.14370727539063, 490.7860107421875 ],
				[ -399.92489624023438, 264.70120239257813, 511.74899291992188 ],
				[ -384.25100708007813, 248.55679321289063, 516.77972412109375 ],
				[ -343.07620239257813, 281.99920654296875, 495.81671142578125 ]
			],
			"projected_cuboid": [
				[ 53.225498199462891, 414.32369995117188 ],
				[ 40.112400054931641, 389.55661010742188 ],
				[ 50.631401062011719, 379.64358520507813 ],
				[ 64.077598571777344, 403.69400024414063 ],
				[ 68.871498107910156, 411.51541137695313 ],
				[ 55.939498901367188, 388.41549682617188 ],
				[ 65.651496887207031, 379.12890625 ],
				[ 78.862899780273438, 401.601806640625 ]
			]
		},
		{
			"class": "",
			"instance_id": 16047768,
			"visibility": 1,
			"location": [ 68.150901794433594, -77.599403381347656, 302.49459838867188 ],
			"quaternion_xyzw": [ 0, 0.76459997892379761, 0, 0.6445000171661377 ],
			"pose_transform": [
				[ 0.98559999465942383, 0, -0.16920000314712524, 0 ],
				[ -0.16920000314712524, 0, -0.98559999465942383, 0 ],
				[ 0, -1, 0, 0 ],
				[ 68.150901794433594, -77.599403381347656, 302.49459838867188, 1 ]
			],
			"cuboid_centroid": [ 68.152099609375, -125.135498046875, 303.19711303710938 ],
			"projected_cuboid_centroid": [ 313.54330444335938, 150.34370422363281 ],
			"bounding_box":
			{
				"top_left": [ 101.41799926757813, 292.06500244140625 ],
				"bottom_right": [ 195.68719482421875, 337.85931396484375 ]
			},
			"cuboid": [
				[ 88.205596923828125, -172.67179870605469, 275.212890625 ],
				[ 96.391403198242188, -172.67179870605469, 322.88958740234375 ],
				[ 96.391403198242188, -77.599197387695313, 322.88958740234375 ],
				[ 88.205596923828125, -77.599197387695313, 275.212890625 ],
				[ 39.912799835205078, -172.67179870605469, 283.50448608398438 ],
				[ 48.098701477050781, -172.67179870605469, 331.18121337890625 ],
				[ 48.098701477050781, -77.599197387695313, 331.18121337890625 ],
				[ 39.912799835205078, -77.599197387695313, 283.50448608398438 ]
			],
			"projected_cuboid": [
				[ 338.04791259765625, 95.382598876953125 ],
				[ 332.42300415039063, 119.09880065917969 ],
				[ 332.42300415039063, 194.4761962890625 ],
				[ 338.04791259765625, 183.81809997558594 ],
				[ 292.04058837890625, 100.08010101318359 ],
				[ 293.17990112304688, 122.52629852294922 ],
				[ 293.17990112304688, 196.0166015625 ],
				[ 292.04058837890625, 185.92919921875 ]
			]
		}
	]
}