{
	"camera_data":
	{
		"location_worldframe": [ 0, 0, 0 ],
		"quaternion_xyzw_worldframe": [ 0, 0, 0, 1 ]
	},
	"objects": [
		{
			"class": "SM_RailRig_Mount",
			"instance_id": 16777212,
			"visibility": 1,
			"location": [ -459.25408935546875, 272.37460327148438, 455.622802734375 ],
			"quaternion_xyzw": [ -0.76529997587203979, 0.12630000710487366, -0.50669997930526733, 0.37630000710487366 ],
			"pose_transform": [
				[ 0.87059998512268066, 0.44810000061988831, -0.20329999923706055, 0 ],
				[ 0.4546000063419342, -0.5745999813079834, 0.68049997091293335, 0 ],
				[ -0.18809999525547028, 0.68489998579025269, 0.70399999618530273, 0 ],
				[ -459.25408935546875, 272.37460327148438, 455.622802734375, 1 ]
			],
			"cuboid_centroid": [ -459.25408935546875, 272.37460327148438, 455.622802734375 ],
			"projected_cuboid_centroid": [ -2.0404000282287598, 409.0386962890625 ],
			"bounding_box":
			{
				"top_left": [ 390.75311279296875, -26.372900009155273 ],
				"bottom_right": [ 430.410888671875, 21.641300201416016 ]
			},
			"cuboid": [
				[ -433.01449584960938, 271.831298828125, 479.54019165039063 ],
				[ -458.9462890625, 304.60540771484375, 440.72509765625 ],
				[ -454.60861206054688, 288.81430053710938, 424.49380493164063 ],
				[ -428.67691040039063, 256.04031372070313, 463.30899047851563 ],
				[ -463.89950561523438, 255.93490600585938, 486.751708984375 ],
				[ -489.831298828125, 288.70901489257813, 447.93661499023438 ],
				[ -485.49371337890625, 272.91799926757813, 431.70529174804688 ],
				[ -459.5618896484375, 240.14390563964844, 470.5205078125 ]
			],
			"projected_cuboid": [
				[ 24.837499618530273, 401.11569213867188 ],
				[ -10.583999633789063, 432.93341064453125 ],
				[ -18.161399841308594, 430.17559814453125 ],
				[ 19.135900497436523, 397.47430419921875 ],
				[ 12.018799781799316, 390.60528564453125 ],
				[ -23.943199157714844, 420.99990844726563 ],
				[ -31.896400451660156, 417.839599609375 ],
				[ 5.9622998237609863, 386.6571044921875 ]
			]
		},
		{
			"class": "",
			"instance_id": 16047768,
			"visibility": 1,
			"location": [ -92.913597106933594, -68.230201721191406, 187.89759826660156 ],
			"quaternion_xyzw": [ 0, -0.84189999103546143, 0, 0.53960001468658447 ],
			"pose_transform": [
				[ -0.90859997272491455, 0, -0.41760000586509705, 0 ],
				[ -0.41760000586509705, 0, 0.90859997272491455, 0 ],
				[ 0, -1, 0, 0 ],
				[ -92.913597106933594, -68.230201721191406, 187.89759826660156, 1 ]
			],
			"cuboid_centroid": [ -92.517501831054688, -115.76629638671875, 187.3175048828125 ],
			"projected_cuboid_centroid": [ 129.5596923828125, 97.786300659179688 ],
			"bounding_box":
			{
				"top_left": [ 18.80109977722168, 83.714103698730469 ],
				"bottom_right": [ 175.63580322265625, 167.77890014648438 ]
			},
			"cuboid": [
				[ -124.87950134277344, -163.30259704589844, 199.06300354003906 ],
				[ -104.67749786376953, -163.30259704589844, 155.10890197753906 ],
				[ -104.67749786376953, -68.230003356933594, 155.10890197753906 ],
				[ -124.87950134277344, -68.230003356933594, 199.06300354003906 ],
				[ -80.357498168945313, -163.30259704589844, 219.5260009765625 ],
				[ -60.155498504638672, -163.30259704589844, 175.5718994140625 ],
				[ -60.155498504638672, -68.230003356933594, 175.5718994140625 ],
				[ -80.357498168945313, -68.230003356933594, 219.5260009765625 ]
			],
			"projected_cuboid": [
				[ 95.401901245117188, 45.988700866699219 ],
				[ 83.234703063964844, -13.523300170898438 ],
				[ 83.234703063964844, 143.38960266113281 ],
				[ 95.401901245117188, 168.25450134277344 ],
				[ 162.29119873046875, 65.564796447753906 ],
				[ 168.28779602050781, 17.889699935913086 ],
				[ 168.28779602050781, 156.514404296875 ],
				[ 162.29119873046875, 176.43370056152344 ]
			]
		}
	]
}