{
	"camera_data":
	{
		"location_worldframe": [ 10, 60, 190 ],
		"quaternion_xyzw_worldframe": [ 0.01510000042617321, 0.085799999535083771, 0.17299999296665192, 0.98110002279281616 ]
	},
	"objects": [
		{
			"class": "",
			"instance_id": 986895,
			"visibility": 0.98909997940063477,
			"location": [ 52.666500091552734, 55.581600189208984, 413.20968627929688 ],
			"quaternion_xyzw": [ 0.085799999535083771, -0.17299999296665192, 0.01510000042617321, 0.98110002279281616 ],
			"pose_transform": [
				[ -0.33680000901222229, -0.17360000312328339, 0.9254000186920166, 0 ],
				[ 0.93970000743865967, 0, 0.34200000762939453, 0 ],
				[ 0.059399999678134918, -0.98479998111724854, -0.1632000058889389, 0 ],
				[ 52.666500091552734, 55.581600189208984, 413.20968627929688, 1 ]
			],
			"cuboid_centroid": [ 52.666500091552734, 55.581699371337891, 413.20968627929688 ],
			"projected_cuboid_centroid": [ 288.62899780273438, 290.43508911132813 ],
			"bounding_box":
			{
				"top_left": [ 247.16839599609375, 245.29730224609375 ],
				"bottom_right": [ 335.80349731445313, 333.93460083007813 ]
			},
			"cuboid": [
				[ 98.788597106933594, -25.096900939941406, 490.114501953125 ],
				[ -32.098499298095703, -25.097000122070313, 442.47540283203125 ],
				[ -40.370998382568359, 112.07330322265625, 465.20361328125 ],
				[ 90.516197204589844, 112.07330322265625, 512.84271240234375 ],
				[ 145.70390319824219, -0.9099000096321106, 361.21578979492188 ],
				[ 14.816800117492676, -0.9100000262260437, 313.57669067382813 ],
				[ 6.5444002151489258, 136.26029968261719, 336.30490112304688 ],
				[ 137.43150329589844, 136.26029968261719, 383.94400024414063 ]
			],
			"projected_cuboid": [
				[ 307.60000610351563, 242.89120483398438 ],
				[ 237.42900085449219, 241.47979736328125 ],
				[ 233.78399658203125, 317.67361450195313 ],
				[ 301.18380737304688, 311.94461059570313 ],
				[ 359.26300048828125, 255.3551025390625 ],
				[ 268.0963134765625, 255.25709533691406 ],
				[ 260.981689453125, 359.72320556640625 ],
				[ 347.6343994140625, 346.85348510742188 ]
			]
		}
	]
}