1 0.6806640625 0.5595703125 0.0703125 0.0859375
1 0.3876953125 0.56640625 0.05859375 0.0888671875
0 0.525390625 0.6025390625 0.166015625 0.048828125
0 0.857421875 0.6162109375 0.2021484375 0.0498046875