               epoch,      train/box_loss,      train/obj_loss,      train/cls_loss,   metrics/precision,      metrics/recall,     metrics/mAP_0.5,metrics/mAP_0.5:0.95,        val/box_loss,        val/obj_loss,        val/cls_loss,               x/lr0,               x/lr1,               x/lr2
                   0,            0.054986,            0.018696,                   0,             0.71654,             0.69574,             0.66752,             0.18331,            0.037135,            0.010255,                   0,           0.0033315,           0.0033315,            0.070016
                   1,            0.038026,            0.011783,                   0,             0.90938,             0.84404,             0.90003,             0.44298,             0.02497,           0.0082756,                   0,           0.0063349,           0.0063349,            0.039687
                   2,            0.033614,           0.0091626,                   0,             0.94791,             0.83469,             0.90418,             0.53473,            0.023859,           0.0075205,                   0,           0.0090084,           0.0090084,           0.0090266
                   3,            0.029184,           0.0078813,                   0,             0.75616,             0.82505,             0.81194,             0.40506,            0.023746,           0.0077342,                   0,            0.008515,            0.008515,            0.008515
                   4,            0.024366,           0.0071673,                   0,             0.91014,             0.65138,             0.71003,             0.39451,            0.024321,            0.011091,                   0,            0.008515,            0.008515,            0.008515
                   5,            0.020033,           0.0065957,                   0,             0.79957,             0.51376,             0.61899,             0.23012,            0.033915,            0.011649,                   0,             0.00802,             0.00802,             0.00802
                   6,             0.01887,           0.0061696,                   0,             0.30404,             0.36697,             0.16599,            0.084171,            0.041057,            0.016417,                   0,            0.007525,            0.007525,            0.007525
                   7,            0.016652,           0.0058011,                   0,             0.76975,             0.41284,             0.49854,             0.24861,            0.034296,            0.015978,                   0,             0.00703,             0.00703,             0.00703
                   8,            0.016249,           0.0056218,                   0,             0.81592,             0.65062,             0.71625,             0.41256,            0.026985,            0.011563,                   0,            0.006535,            0.006535,            0.006535
                   9,            0.014812,           0.0055031,                   0,             0.81999,             0.55046,             0.63766,             0.37202,            0.024347,            0.014333,                   0,             0.00604,             0.00604,             0.00604
                  10,            0.014571,           0.0052226,                   0,             0.61288,             0.57798,             0.53096,             0.26086,            0.024329,            0.014594,                   0,            0.005545,            0.005545,            0.005545
                  11,            0.012829,           0.0049244,                   0,             0.70886,             0.51376,             0.63489,              0.2612,            0.027549,            0.010107,                   0,             0.00505,             0.00505,             0.00505
                  12,            0.011448,           0.0046892,                   0,             0.91274,             0.69725,             0.79385,             0.50611,            0.019946,             0.01216,                   0,            0.004555,            0.004555,            0.004555
                  13,            0.011034,           0.0044167,                   0,             0.90627,             0.45872,             0.55897,             0.35584,            0.026429,            0.017657,                   0,             0.00406,             0.00406,             0.00406
                  14,            0.010376,           0.0043438,                   0,             0.81143,             0.55963,             0.62534,             0.40631,            0.025672,            0.015108,                   0,            0.003565,            0.003565,            0.003565
                  15,           0.0093561,           0.0042089,                   0,             0.92088,             0.64074,             0.73876,             0.45615,            0.022909,            0.012838,                   0,             0.00307,             0.00307,             0.00307
                  16,           0.0087122,           0.0039278,                   0,             0.78223,             0.63303,             0.69495,             0.39222,            0.024896,            0.014201,                   0,            0.002575,            0.002575,            0.002575
                  17,           0.0085056,           0.0039589,                   0,             0.90476,             0.69721,             0.79646,             0.46213,            0.021484,            0.012179,                   0,             0.00208,             0.00208,             0.00208
                  18,           0.0078704,           0.0038906,                   0,             0.94704,             0.65138,             0.76244,             0.46064,            0.021899,              0.0128,                   0,            0.001585,            0.001585,            0.001585
                  19,           0.0075132,           0.0036763,                   0,             0.88584,             0.58716,             0.66842,              0.4014,            0.023481,            0.015276,                   0,             0.00109,             0.00109,             0.00109
