               epoch,      train/box_loss,      train/obj_loss,      train/cls_loss,   metrics/precision,      metrics/recall,     metrics/mAP_0.5,metrics/mAP_0.5:0.95,        val/box_loss,        val/obj_loss,        val/cls_loss,               x/lr0,               x/lr1,               x/lr2
                   0,            0.071376,            0.024547,                   0,             0.37095,             0.59633,             0.35802,             0.10706,            0.041759,             0.01715,                   0,           0.0033165,           0.0033165,            0.070152
                   1,             0.05366,            0.023361,                   0,             0.22347,             0.66055,             0.19827,            0.032013,            0.051191,            0.011837,                   0,           0.0063207,           0.0063207,            0.039822
                   2,            0.056607,            0.018771,                   0,            0.027449,             0.79817,            0.026824,           0.0069837,            0.076145,            0.007088,                   0,           0.0089948,           0.0089948,           0.0091632
                   3,            0.056819,            0.019055,                   0,             0.36257,             0.55046,             0.40343,             0.19097,            0.054045,           0.0085304,                   0,            0.008515,            0.008515,            0.008515
                   4,            0.047697,            0.019745,                   0,             0.62475,             0.65138,             0.71862,             0.27562,            0.043665,           0.0087055,                   0,            0.008515,            0.008515,            0.008515
                   5,            0.044737,            0.018718,                   0,             0.54536,             0.55046,             0.59356,             0.26732,            0.044854,           0.0070832,                   0,             0.00802,             0.00802,             0.00802
                   6,            0.043611,             0.01847,                   0,             0.68872,             0.81651,             0.72779,             0.40468,            0.033023,           0.0083255,                   0,            0.007525,            0.007525,            0.007525
                   7,            0.033988,            0.017348,                   0,             0.79333,             0.88043,             0.83888,             0.47848,            0.029991,            0.006726,                   0,             0.00703,             0.00703,             0.00703
                   8,             0.03537,            0.015462,                   0,             0.90466,             0.90826,             0.93647,               0.687,            0.026962,           0.0061096,                   0,            0.006535,            0.006535,            0.006535
                   9,            0.033715,            0.014776,                   0,             0.77018,              0.8609,               0.822,             0.59011,            0.033761,           0.0054381,                   0,             0.00604,             0.00604,             0.00604
                  10,             0.03413,            0.013722,                   0,             0.96443,                   1,             0.99249,             0.54152,            0.026656,           0.0049401,                   0,            0.005545,            0.005545,            0.005545
                  11,            0.031034,            0.013003,                   0,                   1,                   1,               0.995,             0.65386,            0.020264,           0.0048152,                   0,             0.00505,             0.00505,             0.00505
                  12,            0.025287,            0.012644,                   0,                   1,             0.96327,             0.99361,              0.5731,            0.023995,           0.0046395,                   0,            0.004555,            0.004555,            0.004555
                  13,            0.025888,             0.01194,                   0,             0.98165,             0.98158,             0.99162,             0.73116,            0.019586,           0.0045434,                   0,             0.00406,             0.00406,             0.00406
                  14,            0.022511,            0.011695,                   0,                   1,             0.99079,               0.995,             0.72706,            0.013511,           0.0044431,                   0,            0.003565,            0.003565,            0.003565
                  15,            0.019932,             0.01107,                   0,             0.99997,             0.99083,               0.995,             0.82948,            0.013324,           0.0039974,                   0,             0.00307,             0.00307,             0.00307
                  16,            0.019541,            0.010628,                   0,             0.99987,             0.99083,               0.995,             0.79019,            0.012383,            0.003954,                   0,            0.002575,            0.002575,            0.002575
                  17,             0.02017,            0.011014,                   0,                   1,             0.99058,               0.995,             0.81495,            0.010627,           0.0038302,                   0,             0.00208,             0.00208,             0.00208
                  18,            0.016887,           0.0099905,                   0,             0.99997,             0.99083,               0.995,             0.85499,           0.0094574,           0.0035623,                   0,            0.001585,            0.001585,            0.001585
                  19,             0.01689,           0.0097517,                   0,             0.99999,             0.99083,               0.995,             0.85749,           0.0093185,           0.0035282,                   0,             0.00109,             0.00109,             0.00109
